 @RELATION F1_Samples
 @ATTRIBUTE x_1  NUMERIC
 @ATTRIBUTE x_2  NUMERIC
 @ATTRIBUTE class  {+1, -1 }
 @DATA
0.9080008387424137,0.2646043072057589,-1
-0.6203354998783104,-0.325009818078978,+1
0.9093731782031722,-0.4280412838590233,-1
0.1638622438472348,0.577693021279948,+1
-0.46850478616977864,0.8454393258421937,-1
0.5728082510658654,0.24303021746994546,+1
-0.03901132807414198,-0.07525664559305456,+1
0.6073008586607338,0.6750232920973853,-1
0.649086209989368,0.8349193776409607,-1
0.7900882289078621,0.7841681639782538,-1
-0.6954639347454232,0.6163312891639547,-1
-0.8136812803613378,0.12231214245192357,+1
-0.09034132106852644,0.733098047055295,+1
-0.9073197916600164,-0.700746441940229,-1
0.5482279253102236,0.6999873018043286,-1
0.41552656070995275,0.0519313436838289,+1
-0.698418320160205,-0.10335314559655195,+1
0.16443931389685273,-0.8075522678170832,+1
-0.7156256244097923,-0.3356084969617035,-1
-0.4939940559424021,0.33895254018751353,+1
0.8003855248921639,-0.5186540390461558,-1
-0.30914124862914405,0.4307137644089254,+1
0.7642243520779364,0.685598859654968,-1
0.7280153449556608,-0.02286156535347028,+1
-0.07404438866967156,-0.11387708288799447,+1
0.42838974509327565,-0.02821543488906797,+1
0.1399180142889176,-0.46046042570566925,+1
0.9372921995823016,-0.5505972983790797,-1
0.8331833097186665,-0.7335437977813795,-1
-0.47479593581853097,-0.538150941099856,-1
-0.6006219314587824,-0.14389952690966168,+1
-0.8027732031695418,0.8098767093548116,-1
0.03659809750250065,-0.7689595642981566,+1
-0.7510242672004941,0.671755985493149,-1
0.38387500212769976,-0.440270701651327,+1
0.5534241668772917,0.2355306911301147,+1
-0.6567486241519176,-0.8731873920774984,-1
0.9586257592317056,0.7434929348120678,-1
-0.12548051927597426,0.949909388295727,-1
-0.719702396652421,-0.747149530068882,-1
-0.5092796118640404,-0.5521290038856763,-1
-0.29082223111451433,-0.24196243288314978,+1
-0.08662982654977314,-0.04415528463622276,+1
0.6363879951233584,-0.5138898964856484,-1
-0.8113182308128646,-0.2630522163838762,-1
-0.2917849512087609,0.9585587217669245,-1
0.2941868186459984,-0.2545205619895219,+1
0.15592772831646373,0.24677590187600806,+1
0.06496632845249528,-0.0852740048441003,+1
0.01339807558027517,0.1610604150024757,+1
-0.41423521351631964,0.6216187338646078,-1
-0.6628055642213742,0.0696183041577052,+1
-0.13096741202828333,0.18394378968146552,+1
0.758508150462545,0.274124978049064,-1
0.8581601932081839,0.1703355397618862,-1
-0.0656793601746104,0.5885610573342375,+1
0.9625599668684235,0.969813698748992,-1
0.9521178176838587,0.36184005505281025,-1
0.1427024004737476,0.9349461286296283,-1
0.4234755017917988,-0.1524864772913701,+1
0.47184320943372327,-0.7929395639422312,-1
-0.5538591090245351,-0.6780301358115399,-1
-0.5476333803774964,-0.24302580984366418,+1
0.13256446982446302,-0.24147895309471945,+1
-0.6140300256027085,-0.4398489136390511,-1
0.43411244932367965,0.6360755944379484,-1
0.5247735427362596,0.7571672500713624,-1
-0.42485805503063934,-0.8223917615786605,-1
0.7885386975171094,-0.3737283095509729,-1
0.23373075254914566,-0.07229969203041176,+1
0.04106263398663934,-0.4561759211412246,+1
0.10008908210143441,0.03718759970069718,+1
-0.04467810815402817,-0.2463132419484746,+1
-0.5322483595913037,-0.20188385317634872,+1
0.3959432108804224,0.42952626688166373,+1
0.025559006197748202,0.2864634725322597,+1
-0.6932628172805204,-0.8012165726449589,-1
-0.07375641533799437,0.36772363385039575,+1
0.5685114127185227,0.8041888037283831,-1
0.7232528393075994,-0.6130824552081959,-1
-0.7262111426203226,-0.0688850460332997,+1
-0.18797214149798447,0.6972523528891568,+1
-0.3066343499669557,-0.9508536734868711,-1
0.9593584467234773,0.6472889983465089,-1
-0.5879722483028791,0.7193805084755642,-1
0.4617649928940324,-0.9105714770292999,-1
0.10868425027209971,-0.9030212417245356,-1
0.0217828735741028,0.9790164041419056,-1
-0.06151950826054131,-0.19494166244244804,+1
0.9691723668374217,-0.5740633466467531,-1
-0.1100371282571353,0.9451975558646208,-1
-0.24321389612386213,0.12591929621411202,+1
-0.6709131814008453,-0.6228840776291551,-1
0.20212300684328754,0.6913741798557185,+1
-0.4168706625636005,0.18754361940668973,+1
-0.6489524128726958,-0.35543335496538275,-1
-0.2374571705313715,-0.9087848384221877,-1
0.372876859179353,-0.24762271748939968,+1
0.36252380689121466,0.3524899704178064,+1
0.03934203418182336,0.9638703283091365,-1
0.3642384393160918,0.036869111464654214,+1
0.5162036609476377,-0.3946273787815746,+1
0.46512521363791337,0.16744084829252848,+1
0.039718616154108544,-0.3991707317693127,+1
0.889409933072898,-0.027369987298023535,+1
0.9843332824174853,0.037033770605675365,-1
0.46299151324383425,0.908971672217354,-1
0.2442563880665325,-0.9419741820772995,-1
0.10742262407579428,-0.49823452293724246,+1
0.7446425258622333,0.25342653564227424,+1
-0.9340797853466245,0.4754246823890258,-1
-0.1274414554726766,0.7749630369238942,+1
0.44711969538244456,0.9664603395613591,-1
0.9213308735022872,0.35427097989192413,-1
0.9087494047627689,0.21428878956315134,-1
-0.5610973039168576,0.734315810245256,-1
0.9070477329963762,-0.3752968154941383,-1
-0.1281714614619307,-0.007548714749296304,+1
0.12402457009656764,0.7105610963106455,+1
0.7525318892433246,-0.887908079593984,-1
0.45129403352763053,-0.3614895864706129,+1
0.869864106432686,-0.15843993361998576,-1
-0.6731661255950487,-0.7149639052184871,-1
-0.6143317152509566,0.6901694839011363,-1
0.2618087176010555,0.6052049401521742,+1
0.7910031400555708,-0.2851805614962091,-1
0.32385725434189583,0.5940525955748746,+1
0.037877819516421773,0.8108103315094701,+1
0.3352522535549316,0.35125409116442285,+1
0.37045819514452294,0.3523677948868065,+1
0.21919731107419294,0.029173966119931283,+1
-0.46145978068612514,-0.745505142775893,-1
0.6030118252368779,0.3340225110930908,+1
0.522878351254279,-0.6686960422702037,-1
-0.041545768133800065,-0.06724027565612456,+1
-0.51444999282323,-0.73039705152829,-1
-0.2714850264974862,-0.5217244497388822,+1
-0.26665249316938455,-0.07751191084061282,+1
0.9754363620981368,0.4430483000849599,-1
0.43297558803243397,0.6583543814736956,-1
0.07075149221042176,0.8706901566841292,+1
-0.7201549322148486,-0.3093109961868832,-1
0.39016541444715247,-0.6541029344965557,-1
0.9790434198929148,0.9708690005591025,-1
0.06306539159387592,-0.2095572637755565,+1
0.7636943983751319,0.9440251406325086,-1
0.7379364465506009,0.0453728645371998,+1
0.364804829523411,-0.6603257057972491,-1
0.5441320055048442,-0.3341255809177648,+1
0.5284260312688664,-0.08036344454383437,+1
0.11472835603282405,-0.49572915234172554,+1
0.5330548528276735,0.7782381505530083,-1
-0.7361652771565594,0.42515000086290367,-1
0.31974810929525477,0.7357721556421217,-1
-0.42193504982602303,0.548323690426981,+1
-0.39530812851637775,0.2958692731790853,+1
0.21246944916596844,0.8049051027994527,-1
0.49386031093075267,-0.740782948537078,-1
-0.5287777638568274,0.4725829427190402,-1
0.5957922154773068,-0.28349851871626397,+1
-0.7024175801682149,-0.4289246094444743,-1
0.6617245649268093,-0.6968596828604356,-1
-0.21035957457975352,0.18067957758592668,+1
0.4616475487066889,-0.19436054212255582,+1
0.7995392562440669,-0.199540161875277,+1
0.014073624134895768,0.011610501615678004,+1
-0.6090837563003053,0.8029740222781829,-1
-0.13883549837777487,0.09569974525251457,+1
-0.8296089087418788,0.9348881377470146,-1
-0.22190793193058722,-0.4316549994485521,+1
0.6777672179090384,0.19557668722753574,+1
0.64100151252438,0.9882761403545264,-1
0.22935828501817923,0.6091993430694884,+1
0.047005072889575006,-0.9998184747334098,-1
-0.08460723192674346,0.0485235678162792,+1
0.49165295756068805,0.3038940370090133,+1
-0.9975630167535976,-0.4689123948073499,-1
0.7114364851898201,0.7549205203281508,-1
-0.750276437731821,-0.281242551317453,-1
0.3574633620903698,0.49305630095779396,+1
-0.1957157211658882,-0.5344745599956202,+1
-0.9982203329877348,0.6697032364713675,-1
0.4846404599263203,-0.7466138356950862,-1
-0.8232451489467734,0.8558412078870201,-1
-0.4066692298931487,-0.6328924678176917,-1
-0.2940185863949796,-0.7404255428542146,-1
0.8973017627521775,-0.62538272144426,-1
0.8616208808438328,-0.5501651449035567,-1
0.7419305758712578,0.3558063684682786,-1
0.3407775765057304,0.5075840745224103,+1
-0.03793142133908667,-0.9973646060699708,-1
0.5819503771026404,-0.7202925898134427,-1
-0.8074399526439193,0.60070152463335,-1
0.7471379598038739,2.5254551245246226E-4,+1
-0.34609887366480674,-0.6578986332793064,-1
0.42466483459724835,0.33461785173905345,+1
0.7427927919428443,0.3706659203881615,-1
0.804493824375627,-0.5843326539145532,-1
-0.7032907555286227,-0.0640299996269793,+1
0.5734274970979267,0.9882170235378243,-1
-0.915578814200372,0.1794639194808021,-1
-0.42310048632726605,0.3937300550092131,+1
0.34328412395058505,0.5424519547729447,+1
-0.23957454139597179,-0.8496156858074051,-1
-0.500036597940315,0.2732163282739397,+1
-0.11642552199241263,-0.39928588571469215,+1
-0.02475431154425789,0.8268797756252051,+1
0.8173087303265822,-0.1502540041321756,+1
-0.7557739749783665,-0.2690328480065345,-1
-0.5217453036198905,0.37438258084237996,+1
-0.15899431315237966,0.5164449179870139,+1
0.9951738262823044,0.040855976848184206,-1
-0.9344898802185897,0.006074761375799431,+1
0.12966284025086305,0.20400631261499447,+1
-0.4190213078498166,0.06766619238827687,+1
-0.7352758269355835,-0.3479432420243753,-1
0.17770595261101962,0.391535386223145,+1
-0.5584409071096477,0.7836398651846681,-1
0.3672383336273992,-0.841755211867742,-1
-0.02031444495737822,0.9649781379572406,+1
0.8380925195878928,0.04647890168773228,+1
0.6095734591809086,0.3750739407146604,+1
0.535596290012186,-0.025675862931901383,+1
-0.7181142701784484,-0.6138606853326372,-1
0.584372835940332,0.3836536059136062,+1
-0.4588625175651022,0.8740964959457134,-1
0.4728139818960404,0.3555909352392632,+1
0.6951707881374218,-0.5672891137533067,-1
0.04782080934933286,0.5071728293808739,+1
-0.24766345428058267,0.46284646636011373,+1
0.33991601122741266,0.2280725787125253,+1
-0.10212431167860192,-0.4211190698946603,+1
-0.48507584179674135,-0.3534563475062058,+1
-0.15469178014893203,-0.43943678793622976,+1
0.4338936638367916,0.5578101593888369,+1
0.26153441195572524,-0.5313077535859669,+1
-0.4378082782880295,0.6597182148117295,-1
0.6059237246735487,-0.1068776213504159,+1
0.5089792880921915,-0.42418810484598235,+1
-0.7663017974407123,-0.507889062778246,-1
-0.8492748499911673,0.17971816855916933,-1
0.8403402533319553,0.5024641020507565,-1
0.7808563471542296,-0.6025804671835178,-1
0.5131475005018058,-0.3251811427361422,+1
-0.19626547005972772,0.38119221505081713,+1
0.5320454335116394,-0.8561783672257024,-1
-0.00968042029129923,-0.7128186166846988,+1
0.006700295194737693,0.0019672279705724716,+1
-0.23118945042698535,0.3099563400233618,+1
-0.22691891037239076,0.6555862330268656,+1
0.2128743478712336,-0.510128645034994,+1
0.20572539556975045,-0.9402215923767443,-1
0.7270308768837064,-0.35612420786575605,-1
-0.39146238933998356,-0.8837477589919931,-1
-0.12788421522972926,-0.30930278958630475,+1
-0.45392139600484915,-0.8225569270912707,-1
0.27281238384401196,0.41500895792665715,+1
0.9988100222292795,-0.320472941752149,-1
0.42219837571316643,0.24546331081259187,+1
-0.1606989583170837,0.7436973118033923,+1
-0.8846191789823055,0.3009088334311312,-1
0.4023783608525162,-0.4251915387846825,+1
0.24167881949134995,0.986233516177047,-1
-0.059659117876175394,-0.24071314749223438,+1
-0.6872445308455886,0.8098281282218738,-1
-0.8555079948158941,-0.21446327326625192,-1
0.06271849301226728,-0.021850190596126362,+1
0.31009958640361757,0.38763171883965386,+1
0.8631238835481796,0.9452906000373709,-1
-0.41783161898408383,-0.045949526692646625,+1
0.9149453044855671,-0.03167878468242202,+1
-0.03061314926852754,-0.13973815825587987,+1
-0.18202473995466795,0.8386004154453732,-1
-0.804942193878029,-0.9890235845112914,-1
-0.96805305302256,0.23676091839411728,-1
-0.6442988039994655,0.8857748349790504,-1
-0.08386129909899198,0.1364913538188588,+1
-0.6205473772710963,-0.9226908734519397,-1
0.6026959544046182,0.3915366430012608,+1
0.9879336834735903,-0.6769585292100724,-1
0.8405358117245019,-0.4189613806560033,-1
-0.10273575417602543,0.40202400289887597,+1
0.7614107808910915,-0.009146412723314734,+1
0.9935774227171117,0.9855417303871068,-1
-0.8566490867046437,-0.9331348554068231,-1
0.6691713633254244,0.32116203422381684,+1
0.5505645360628277,0.8826863698074665,-1
0.544686215860434,0.26574156048687336,+1
-0.22482763853868604,-0.9356416301843704,-1
0.11619409210349052,0.09054538403009316,+1
0.1632065928377231,0.3572012658796795,+1
-0.4388067634108239,0.28386093797057455,+1
-0.24420874509501234,-0.4755854591452162,+1
-0.5877941489953895,0.6865667652145309,-1
-0.5604529336749928,-0.20610235473622818,+1
-0.8958518141889458,-0.4516501081734725,-1
0.9391616868840837,-0.3536414444823701,-1
-0.17496755106012252,0.9882372626504621,-1
0.015001094330539866,-0.9246143500238035,+1
-0.4003733402025409,-0.7382745132463131,-1
0.4667687724683063,0.37314534278895484,+1
0.40911669869385237,0.9430030347007243,-1
0.3602753302855344,-0.6732591886357773,-1
-0.9740235895996505,-0.2534696316258902,-1
-0.3984920840665058,-0.4797630049990447,+1
-0.35948868034510983,-0.2392460571209971,+1
-0.37075083077705595,-0.946886608618031,-1
-0.9617825068144135,-0.859524250482868,-1
-0.7276329103115484,0.7284655882233853,-1
-0.9070256095000611,-0.47693933899335006,-1
-0.2457757365296358,0.8939686870955006,-1
-0.6269029822559107,0.1634432478512684,+1
-0.12087045668878837,-0.8841490772939098,-1
0.23882168161313455,0.18712817440953167,+1
-0.0926334903410928,-0.14499144425859556,+1
-0.45509560257740156,0.5927049721079674,-1
0.264776213742002,0.23531671427138945,+1
-0.6208983538115731,0.4295610656459943,-1
0.49560527825948775,0.779532558569487,-1
-0.7204333400744303,0.7142969447462149,-1
0.19481681403125628,0.5941843244952763,+1
-0.2006030474843985,0.8125489416676113,-1
0.15098434440816644,-0.3020675196245879,+1
0.10712309416194499,-0.554289306622044,+1
-0.730710897727983,-0.1971542533177879,+1
-0.17925353206137795,-0.2827105083986279,+1
-0.2589607788696773,-0.42219584868821713,+1
0.5058811810670221,0.7069729715623505,-1
0.5061324822800819,0.283678386090064,+1
-0.952236000488182,-0.8198985044283429,-1
-0.6351249131032037,-0.8507968987690053,-1
-0.6166420580358827,-0.3939228115654059,-1
-0.9999429140478393,-0.9419348088138129,-1
-0.07314999692531221,0.7188939830175463,+1
0.3472994719147928,-0.6676126936456437,-1
0.697302148935409,0.06575993620990395,+1
0.567320449714418,-0.5379934245955158,-1
0.908732714790522,-0.32778413360663183,-1
-0.2766461805381797,-0.3744838023771513,+1
0.7527078677366204,0.30621256143221,-1
0.8821316961898675,-0.565970943886206,-1
-0.7530405341445499,-0.10045284770170437,+1
0.1817813309014189,-0.015319077952987481,+1
0.621528531261021,0.3961155910973011,-1
-0.23127011248750984,-0.31252004579477966,+1
-0.9125756513073089,0.6156900639394896,-1
-0.22345614464448538,-0.5180799553368922,+1
0.13006441303032612,0.8484814908149416,+1
0.1546849552885574,-0.8033606817025907,+1
-0.09690408621732272,0.6801031214941076,+1
-0.954831081542963,0.1772325764680205,-1
-0.8144013197402014,-0.46729108025664545,-1
-0.3487563289266584,-0.9693318679687013,-1
0.21977802707473382,-0.9189421226739658,-1
0.7100645207232994,0.3583339920406463,-1
-0.6650624518577408,-0.3823412306117646,-1
-0.6297310126406008,-0.5723060470682668,-1
0.6125799914180934,0.8738443895927543,-1
0.24717239101353572,-0.9203979861280975,-1
-0.11396169131107237,-0.5036876536633266,+1
-0.690413070370369,-0.7591045801281731,-1
-0.0683888913413433,-0.9401888076914702,-1
0.6727358149389884,-0.8044340278264501,-1
0.7161527210771708,-0.9133987444026039,-1
-0.5273415216746362,-0.49170124473240184,-1
-0.5209070231068536,-0.13331919831634065,+1
0.6629632496518976,0.10135581883291644,+1
0.12359439928711313,0.8297344293565971,+1
-0.013292375072060159,-0.9852542585169306,+1
-0.031079515910065414,0.45848843042100107,+1
-0.4361690251737458,-0.26127688834176643,+1
0.10727864500141404,0.7408054768520902,+1
0.3309589381285618,-0.18522662525551858,+1
-0.8103992668489066,0.4405842045101285,-1
0.046397130921772334,0.7240602712894089,+1
0.8632122707802758,0.09743775449663183,+1
0.0015074262131955507,-0.29817578957433377,+1
0.5170093707687915,0.16429333030159987,+1
0.6419037912310157,0.36549985693132814,-1
-0.40651206539312024,0.4056898790158363,+1
-0.3137122531256522,-0.8817010741439093,-1
-0.10979743126430797,0.011079931673347643,+1
0.7722196518542273,0.8787036598143552,-1
0.40572319221129316,-0.6291375018912047,-1
-0.8008336664893845,0.0488106779934252,+1
-0.3403430526095168,0.46383138074070684,+1
-0.36414965675475974,-0.39792399508111376,+1
0.06698220987311077,-0.7792977946498976,+1
-0.3414963697675415,-0.18385928857303213,+1
-0.8944665342627722,0.3979465391519794,-1
0.5212701044225394,0.5052571731253126,-1
-0.6114312358429528,0.6644445939513577,-1
0.2880725593832454,-0.3119412762346401,+1
-0.6943168509901745,-0.21482446944547173,+1
-0.7158220039613765,0.395737650078106,-1
-0.32514119260809626,0.09169095673824534,+1
0.3978665030744999,-0.254642654641394,+1
0.8550455478186285,-0.9876213001616903,-1
0.5949283935442602,-0.05678597040550071,+1
0.5602464833144407,0.2605075645720949,+1
0.18879738682518066,-0.2693644211531079,+1
-0.5764225939137091,-0.0838511202438239,+1
-0.2516983319013817,0.07893023352463757,+1
-0.1346045565851024,-0.8264674050819054,+1
0.8005120183723793,0.08088634023111796,+1
-0.47362385806311336,-0.1626218075006285,+1
0.9205559019336762,0.1154236122795198,-1
-0.16865449092204265,-0.9572196215410966,-1
0.45988354195509484,-0.22855152281115898,+1
-0.12907811895379173,-0.42067003729852126,+1
0.7624699762308105,0.5815044461821108,-1
0.32400927240960553,-0.37279836257461874,+1
-0.5310454024385216,0.30037704844603286,+1
0.5383884087306303,0.8011486232668688,-1
0.08417695198574981,0.5497954953051718,+1
-0.6328530814513398,-0.36553947535531606,+1
0.6675355754801968,-0.40199636005781003,-1
-0.8799673971341422,-0.6173190169345821,-1
0.6569623600508565,0.5143964611712115,-1
-0.723476168165619,-0.27466135757601773,+1
-0.14506882583597713,-0.835758859088821,+1
0.3889679704671496,0.8367194398738138,-1
0.0824031830048686,-0.7047402480142799,+1
-0.391938265359425,0.5177354244959205,+1
0.10308792051996352,0.4541135343738074,+1
0.7275014412014,-0.42826025686742986,-1
-0.8683876476719343,0.24833452784450083,-1
0.23165268416940488,0.8671853868740946,-1
0.04693671672947519,-0.5690709403874736,+1
0.5758705543290905,0.4139845019517132,+1
-0.5226176840117247,0.43955056964439687,+1
-0.7094300665230262,-0.6961258249806621,-1
-0.39540932356211145,-0.7508906318079536,-1
0.6105360093663392,0.6098719795958425,-1
-0.450467789997804,0.5360189417895258,+1
-0.3469645119676974,-0.12803183897507275,+1
-0.25800517318293403,0.8058028370872292,-1
-0.2979620115529089,-0.22469415669585846,+1
-0.2357310638122012,0.547921145796018,+1
-0.4065886318183718,-0.8547836083097846,-1
0.6591946440376011,0.8535166776244687,-1
-0.7210306966738365,-0.3230572416885178,-1
0.25696880368224395,0.3608289159396987,+1
-0.423899571896696,0.004818895659481015,+1
-0.7744919815398879,0.9714176785824331,-1
-0.5023711001064652,-0.8059181557348354,-1
-0.9882407686615398,-0.5649219180023566,-1
-0.278357235230245,0.581395242406322,+1
-0.4998351139895998,-0.3805024823726768,+1
-0.6389185336766781,0.287653899796221,+1
-0.7330929596279498,-0.05632462877111344,+1
0.8224812447663579,0.14520041042579246,+1
-0.06624849680578149,0.35873889577619145,+1
0.2754001756195612,-0.12955865278257206,+1
0.23537372275306345,0.19842891134861174,+1
0.3658177308234114,-0.7043490539585653,-1
-0.310126645675904,-0.5228423643930842,+1
0.2613282373456509,0.9596050819737127,-1
-0.9610723171847222,0.5448762815942045,-1
0.8430941640037162,0.011947153410469813,+1
-0.7597196664755927,0.1616196049458094,+1
-0.074015084663271,0.3854291343566971,+1
-0.8640482961763385,0.9628046459334438,-1
0.880202461376121,0.643028105334505,-1
0.1811048074209749,-0.0734247956480194,+1
-0.008549636439770358,-0.8621487888476076,+1
0.9046032112410716,0.47347262138272095,-1
0.7694743065714413,-0.06737316028188789,+1
0.7581460572967109,0.1409372243873135,+1
0.26726662497098785,-0.5866990726685051,+1
-0.3738963688368233,0.5198034427628915,+1
-0.6685428735109913,-0.3626611549761063,-1
0.533852414380982,-0.8446620708787294,-1
-0.30810083819202183,-0.7787311446746497,-1
-0.9891640418847125,-0.6342788486619062,-1
0.49234604629860756,-0.822411450698558,-1
0.9061984459864207,0.11194716342789501,-1
0.2257600519612375,-0.5898917703563982,+1
-0.11298059451216869,0.48482378503373535,+1
-0.7649808219683101,0.016697304341707575,+1
0.21246750434363704,-0.3658837581451544,+1
-0.7061805170329183,0.36939138832704965,-1
0.08101976587423732,-0.5041148156453892,+1
-0.8843989357440747,-0.07784858895401592,+1
-0.04162342392516272,-0.8662712901022014,+1
-0.36492356082394317,0.8257944744692787,-1
-0.29646453998991973,-0.9999674723162131,-1
-0.5446185322307688,-0.4799016413939652,-1
0.43575307713592726,-0.7617371278013882,-1
0.6586367692287867,0.324106271500602,+1
0.594344960200333,0.4979453053647267,-1
-0.7413189907536655,-0.28612637428197085,-1
0.6576646468494198,-0.9815278874733944,-1
-0.7127567590386419,0.7321512357860225,-1
-0.9141283084147318,0.7637360252595831,-1
0.3360207569637015,0.45153756776011567,+1
-0.7754716689242005,-0.5474255035487023,-1
-0.4300305184651927,0.9152086609350825,-1
0.9350626982044759,0.44813066040249194,-1
-0.2785267892326817,0.8163798480119053,-1
-0.4901284107039876,-0.10204734275867566,+1
0.972384713508806,-0.5050433774825265,-1
-0.7620724732584918,-0.48958536230347316,-1
-0.462953222764263,-0.02655325550276033,+1
0.6280961037826367,-0.11730993591020367,+1
0.23533623374535795,-0.5043075762933922,+1
-0.4727851872287636,-0.34717953946100244,+1
-0.8054782646815462,-0.42215937599489917,-1
-0.014661532561720758,0.6527651826642642,+1
0.4521090154994305,-0.6543630606864017,-1
-0.9503083228696012,0.012354331247118822,+1
-0.9722442593728999,-0.9385156584315606,-1
-0.8675763053079002,0.65044041215337,-1
-0.3629067865849662,-0.47049938420515947,+1
0.8300530037186713,-0.03575564075663551,+1
-0.05233574520657047,0.3271950547731932,+1
0.6210121076600406,0.7796401204760379,-1
0.6617876817550321,-0.9598933166941008,-1
0.2923171717295068,-0.9269412984292387,-1
-0.4332315581265671,-0.5422563763199155,+1
-0.10532516510965473,-0.11837796013461954,+1
0.1281953543837917,0.014422410175071843,+1
-0.04102416320067648,-0.9934358608179195,-1
0.8075362779961905,-0.22157473697653063,-1
0.6833344906170706,0.44019426561734565,-1
-0.8204098502898314,0.9630047536771582,-1
-0.20218815200447393,-0.7313957783363694,+1
0.7859816798908958,0.6612453991095686,-1
0.1940728098445157,-0.7765004866510141,+1
0.728180250650756,0.9966568759718217,-1
-0.28184524432545244,0.812303464967798,-1
-0.22890035153044241,-0.608002715169562,+1
0.9717552612183973,-0.7202685119086962,-1
-0.8407618760972424,-0.9825307148792164,-1
-0.9140206274609428,-0.7731653793315081,-1
0.9995024976097873,0.28197763582930757,-1
-0.26275055603514885,-0.9430303640836104,-1
-0.3897077417291397,-0.9233442839134993,-1
0.6100946080780987,0.23672913486304203,+1
0.8819897753568029,-0.8111561183399729,-1
0.5523187680950661,0.6290691865395583,-1
-0.4810443907561104,-0.24514286035178534,+1
0.7201409598472375,-0.3379559664114886,-1
-0.6311153752775673,0.6230580895069238,-1
-0.7310067472663502,0.40062621934062603,-1
0.9753541019643528,0.8810583321300962,-1
0.1390446056758745,0.557489276121695,+1
0.24412565595051272,-0.5791260920090024,+1
0.054121879389910976,-0.03651390520756381,+1
0.5786578015478636,0.1362787766452227,+1
-0.4640865317433365,-0.4723987663038456,+1
-0.9017009231141397,-0.3933812615805714,-1
0.4995063175667511,0.7201197863786786,-1
-0.1358596904830669,-0.1347820025513431,+1
-0.19698645502256196,-0.8283527678658793,-1
0.0284885823297234,0.9243529446926291,+1
-0.5938117575076594,-0.015192240589086303,+1
0.4191807363095219,-0.4660023671456124,+1
-0.870662065149868,0.8862469051322843,-1
0.5769451784069877,-0.19648639705557547,+1
-0.0990188795232152,-0.09465932691292944,+1
0.6243875517099995,-0.11503243762656545,+1
-0.03150188481441307,-0.9893427436176625,-1
0.07821373637611573,-0.8578319122565712,+1
0.9909974723361232,-0.39694564306192115,-1
-0.6173622859861307,-0.5186558628593152,-1
-0.5966757891811703,0.8650579048876368,-1
-0.14499899477394584,0.19865132623283244,+1
-0.7226188397736113,0.6981332276554828,-1
0.9889137592357085,0.5244799812092786,-1
0.6485113879369488,0.9344389916339886,-1
-0.18509785376795684,-0.09026830244789918,+1
-0.11795895895323616,-0.29565838293374536,+1
-0.49263605994586657,0.4349190922684216,+1
-0.07510702920277734,0.9452629858967763,-1
0.9745732682034038,-0.9004206920614113,-1
-0.3528902817499864,-0.11371792045836493,+1
-0.45039892863545017,-0.7269748351119327,-1
0.18096259435671103,-0.21337906551249386,+1
0.9751328938447188,0.18717690390443043,-1
-0.5644800354921182,0.41934588736183587,+1
-0.05020032671212138,-0.497100622083827,+1
-0.3862510256137024,-0.2358469768242275,+1
-0.7683914003686902,-0.9169354958447031,-1
-0.010177407195780974,-0.8668667990412908,+1
-0.6807838723643027,-0.8172287276874444,-1
0.8555409414975215,-0.1077593037212552,+1
-0.3382327144838415,-0.4797237121733393,+1
-0.6244624034296529,-0.5330445222197582,-1
0.2063178650654689,-0.565203459856767,+1
0.30225201753343045,-0.36546622167233256,+1
-0.6940422749772595,-0.6497719907512143,-1
-0.8380753039199145,0.4889449452251007,-1
-0.21999059448443958,0.20531068121524654,+1
4.978581241830149E-4,-0.2524747024191818,+1
0.2978425769999673,-0.13278596682632537,+1
-0.43375750609978625,-0.1509829289397675,+1
-0.9762881583923282,0.36003700811436357,-1
0.4800054041933286,0.0729160142709957,+1
0.4637551363398065,0.5561409808765225,-1
-0.5931533071677564,0.3815423460558536,+1
0.812022782644872,-0.6593355957791978,-1
-0.6673366632520343,0.1662057110926356,+1
-0.2142744822329854,0.21776641109157358,+1
0.4537983906101182,0.7471724453019748,-1
-0.7289175630297435,0.17316892269096407,+1
-0.31085840742295323,-0.01384072063468178,+1
0.8867832561123805,0.9169772134921064,-1
0.15583864771693068,-3.095969977340296E-4,+1
0.6109366560572651,0.6910825602262773,-1
-0.46461554600742594,0.5644057405864686,-1
-0.13644930318370818,-0.5056129277113692,+1
-0.5154970115374944,-0.3526742013865791,+1
0.2832256470555219,-0.7975543424506217,-1
0.0668020069082329,-0.46988476259889045,+1
0.16848800368226668,-0.07163887644148748,+1
0.4604418295869406,-0.8721296987447915,-1
-0.3815781310333639,0.429029298326739,+1
-0.026580354910758164,-0.39452569121887615,+1
-0.00456282840294997,-0.37226013934674684,+1
0.8997664906132719,0.634852734466437,-1
-0.7870028418272117,0.35721309865431294,-1
0.28199729016397024,0.6239453713569867,+1
0.7927457073003956,-0.2678707180393205,-1
0.608819513337981,-0.766420131756482,-1
-0.07697500892205378,-0.21516693540240972,+1
-0.23738825958001342,-0.15645023887327425,+1
-0.6941388716044219,0.8821502804765189,-1
0.5880693664769028,-0.9110797845040046,-1
-0.25064206214266105,-0.10123580541985433,+1
-0.8960846755903529,-0.24929151925929527,-1
-0.14258651961398572,0.05512229629955345,+1
0.8205240992986931,-0.5262616065019712,-1
-0.9550606818593355,-0.7177096498518658,-1
0.4696612888513956,0.8952109006575051,-1
0.3230584919957846,-0.19379924312220465,+1
0.3685831436436471,0.27102653766707885,+1
0.2815058401932835,-0.9167526476065029,-1
-0.711510212245118,-0.9882066637025317,-1
-0.5258397003562534,0.36636955424884454,+1
-0.2162324715963626,-0.203447502996025,+1
0.8908611785372618,0.16010582175407495,-1
0.7328760451418337,-0.006964847744085567,+1
0.9487937389524319,-0.30736504180258306,-1
0.33016554726459835,-0.9433097330713249,-1
0.9306215459742713,-0.13462659842546354,-1
-0.2309475050617238,0.7795472319557961,-1
-0.8727489771274326,-0.4622927373765737,-1
0.5126609063363896,-0.3988167433212917,+1
0.6952268765360279,-0.637918159339248,-1
-0.8115277982514342,-0.5358836016484421,-1
0.6457477326450722,-0.002725036510414558,+1
-0.24298729334308522,-0.8536503552628381,-1
0.5556344431907738,0.8664175468633015,-1
0.8354751175603943,-0.471168588145926,-1
-0.4021066414517236,-0.08241209496739277,+1
-0.04923809119012845,-0.6563053564612735,+1
0.1197423450989652,-0.920102077920327,-1
-0.2621041126304957,0.8894827803654108,-1
0.6069682143701847,-0.9706359419771291,-1
0.8183302617331987,-0.5900115106937274,-1
-0.9924342029171436,0.5384816932674859,-1
0.15286592838270074,0.470120893201214,+1
-0.6062729288847308,0.823511955514719,-1
0.5790647101960491,0.1017986826703301,+1
-0.5962697643559758,0.8131523105424765,-1
-0.42031723720511716,-0.8920856120857854,-1
-0.12301706655415101,0.9901262741145198,-1
0.623376051015337,-0.5526837518515091,-1
0.969040333808753,-0.13059917340628613,-1
0.9812323613284877,0.24084400871320355,-1
-0.12621582116327712,0.8656806559100991,+1
-0.5953117804731354,0.3668506016917634,+1
0.03517470795907074,0.11173520588464836,+1
0.855498464405668,0.3097701774973578,-1
0.14004679890572658,-0.27141875231686763,+1
0.6213840861886584,0.7360322473590124,-1
-0.9680609860410712,-0.0404862705068707,-1
-0.06450198617980973,-0.8704712941577168,+1
0.06857165101443319,0.7432254878415252,+1
0.5792498944461266,-0.6876554597519107,-1
-0.4042016892327642,0.043916312417773495,+1
0.16585687289625972,-0.4602144354104394,+1
0.6939833315706938,-0.8661483021853007,-1
0.6550156281819959,0.05326140818729774,+1
-0.3813405758424191,-0.5219892784175211,+1
0.3090099262470467,0.7465158206650901,-1
-0.9740246996155408,0.3431913372704085,-1
-0.43292712246107135,0.2530577088623116,+1
0.3880531156656539,-0.3766910927858631,+1
0.5433983538268701,-0.5825977537344202,-1
0.09878098480085407,0.6732257064004321,+1
-0.4066879446623808,0.8207776836692855,-1
0.6736612781582474,0.47739448789505134,-1
0.5951725853230194,0.5113103086043327,-1
-0.6249983615179704,-0.4663016589641571,-1
-0.42256549968654444,0.4845202896575662,+1
-0.7559771812933467,-0.46716361616500746,-1
-0.9759746944527325,-0.8422705069923242,-1
0.14075733643788224,-0.30132788933960564,+1
-0.6242876719226447,0.6827118812498765,-1
-0.7185105846342004,0.303824343691226,-1
0.6766651468793878,-0.8997238317316736,-1
-0.2847881555292,-0.13237654234302054,+1
-0.34437083825491066,0.5626053169149043,+1
-0.20269916469333937,-0.6175550477683251,+1
0.5927919653211704,-0.4371144995460259,-1
-0.04517258045244299,0.1744144610284435,+1
0.19855454123494876,0.7579768631974795,+1
0.008827537079357572,-0.3552499237150626,+1
0.4019298939953737,-0.955103516017779,-1
0.0580378086480009,0.666526581792348,+1
0.3263438323700154,-0.2041646785675615,+1
0.5274342103288454,-0.7886731103832094,-1
-0.05914849569142944,0.08092320913982576,+1
0.578591456449385,0.5524537093642439,-1
0.6783734183942312,-0.5946171455642615,-1
0.10448259982783936,0.0700813571005503,+1
0.6089032117967608,0.1685312879397114,+1
-0.8053535765006672,-0.19249435164215467,+1
-0.3320492938066899,0.3001058290162786,+1
0.014606010370662448,0.5321874921969862,+1
-0.32972432348382275,0.12619517907769895,+1
0.5184633587084817,-0.040118388607713884,+1
-0.6665059023568161,-0.021126562916372382,+1
-0.12638061074719342,0.8360389696041606,+1
0.9231724649142687,0.09767203824216719,-1
0.6122490433986254,-0.8419399959216392,-1
0.4001236106374424,-0.8677347502055379,-1
0.24136715122833263,-0.7687167874916259,-1
0.47350915732498233,0.6417970800619743,-1
0.8499979489715821,0.9015351729194103,-1
-0.6526945605525676,-0.9401197300364443,-1
0.9646518585577286,0.2874207315350259,-1
-0.9396059436659396,-0.5923283917100493,-1
0.08124676121524832,0.7864962515424743,+1
-0.36396785012194655,0.6946962609824536,-1
-0.6053198163777018,-0.4751016524034304,-1
0.7046620734217175,-0.1890976392221364,+1
-0.705350958886702,0.3143194957514126,-1
0.07632656033654506,-0.810138076208698,+1
-0.16468995801636543,-0.958584589211189,-1
0.8223256920364301,-0.2969285330119571,-1
0.6150848563592219,0.02205973348089918,+1
0.04058767890918635,0.24113788098475153,+1
-0.5136214885874646,0.8849410904824098,-1
-0.8098829341750573,-0.5685555860610032,-1
0.582140571745593,-0.7838590770523519,-1
-0.7441427696286376,-0.9968632854935131,-1
-0.08960220883126846,-0.8116861770649535,+1
-0.778730462740763,-0.2529874673624779,-1
0.1193190682952674,-0.5079769921391177,+1
0.3442817945283312,0.46748597374353085,+1
-0.14299834780874754,-0.5158479697992517,+1
0.804600948450575,-0.6356593806410495,-1
-0.004628914406332285,0.12294489878788584,+1
0.40231010806769074,0.11149423225289024,+1
0.5527463010665148,0.1020451811222316,+1
-0.751681167284947,0.5168410176006699,-1
0.1489886825758815,0.17747819350654348,+1
0.9027478214585887,0.3270784187887057,-1
0.8985425397199973,-0.1966921683141274,-1
-0.4060413239776002,-0.6945685322846451,-1
-0.10476196049673847,-0.6632945496426834,+1
-0.5570060355457704,-0.6399207808921648,-1
-0.4968467034515538,0.08949485991235262,+1
-0.8553663538144012,-0.5247882413786611,-1
0.9216760783656404,-0.9432525022139742,-1
-0.4071343284358975,0.9134412373414684,-1
0.5132328351472213,0.3841210360697218,+1
-7.169515574894092E-4,-0.09932909166646064,+1
0.8708095830788369,-0.28626531112068787,-1
0.26083027441117457,0.8786937003586031,-1
0.26662838329944893,0.5790997235799609,+1
-0.0837713386920218,0.6829670563613084,+1
-0.5932809472629348,-0.0831379856702299,+1
-0.10009391309423665,0.10729816627252253,+1
-0.8738665088092392,-0.9720977844326413,-1
0.399367761169229,0.8631029849764604,-1
-0.634661124726607,-0.21176056775550367,+1
-0.18669149643450167,0.6025433955029926,+1
-0.7778917630495286,-0.1997569698646855,+1
0.32299559730663074,0.8069845386402703,-1
-0.05716475254066289,0.6647185769899897,+1
0.11959850249308435,-0.8202145665230083,+1
-0.5025691221113628,0.6791483406142393,-1
-0.039998066803713206,-0.19463117543376152,+1
0.06627336521272342,-0.7565115069763062,+1
0.8341970146592401,-0.8147099593170404,-1
-0.3349256401698535,-0.7367379187490872,-1
0.5255236767276457,0.08443540569231556,+1
-0.859082444240765,0.409185016991348,-1
0.2228120567381422,-0.03190251605013228,+1
-0.2764187249147929,0.29983137154957706,+1
-0.0877739705130749,0.4436747555661602,+1
-0.4220484504555386,-0.7663245865297175,-1
-0.7841448306701058,-0.37190083504955496,-1
0.21424921876244718,-0.7094220711031607,+1
-0.4942768531390309,0.0998945968947984,+1
-0.1514073525336883,-0.19209316933335807,+1
0.7630306647885461,-0.6812208013739434,-1
-0.3946471446838591,0.07347051578372898,+1
-0.3123885380740967,0.5985213101573499,+1
0.09670242208364987,0.9086494433842471,-1
0.9138949342501963,0.8682459382651633,-1
0.7715668825539352,-0.22015613705703774,+1
0.05945961397613342,-0.8584529288327201,+1
0.04827248085976299,-0.7267713932478888,+1
0.12683057304667078,-0.7577322990359585,+1
0.8719628718145476,0.2123212393892433,-1
-0.7185767686895337,0.0036974908115496863,+1
0.7581213079758036,0.16498406239686259,+1
-0.15701155146865187,0.508053347113987,+1
0.9657262446437191,0.717057415994431,-1
0.7850741826469971,0.2759560432702819,-1
-0.4225570255766802,-0.9000269972192665,-1
-0.6775733966482631,0.36658304482153525,-1
-0.6908435837404125,-0.8259974170151692,-1
0.0804931457660576,-0.5127680941107828,+1
-0.02196449382673271,0.4358079653739324,+1
-0.37010376267139544,-0.3624948636759122,+1
-0.4795369952888622,-0.10870355513735586,+1
-0.07400492120287816,-0.13471998037459754,+1
-0.20748955642192302,0.4885032068214761,+1
0.7809188269819787,-0.2763196979127036,-1
-0.6025209236181477,-0.8215505903847378,-1
-0.17490192131008042,-0.5523691252486724,+1
-0.25390620715959655,-0.5575616902363698,+1
-0.33900977355084283,-0.2873481782552707,+1
0.6473892036565358,0.25630691263067074,+1
-0.7694949838488356,0.6799579796688713,-1
-0.33982204013301787,-0.43622449430151033,+1
0.1455750340306774,0.2573876465373537,+1
-0.4324307032346322,-0.8012105215531216,-1
-0.963671926007283,0.9093583180409588,-1
-0.518763954581464,0.25984565419897,+1
0.41229593243297513,-0.7653267481407182,-1
0.2589485600988217,-0.41717897757646294,+1
0.563672773314192,0.2707745495990379,+1
0.743170487329482,-0.9583511205084723,-1
0.40907442322678045,-0.192849088560771,+1
-0.3000128049203641,0.6910609454892864,+1
-0.857622924204086,0.9298159542770084,-1
0.06863316114672102,0.06057852756679294,+1
-0.8369849349140601,0.013503631934915772,+1
-0.6717716260876869,0.36577092984247406,-1
-0.6670183142942334,0.4473142636916154,-1
-0.91850188101535,-0.6357678374309024,-1
-0.42270037327590915,5.262060861213058E-4,+1
-0.6674836395980939,0.24423644801334587,+1
0.692036117284365,0.24407624708689935,+1
0.4995950411045056,-0.7950792567392964,-1
0.37755572899297496,-0.1570882033540848,+1
-0.5963451443317656,-0.35112994725133473,+1
-0.22019426338943138,0.648332962499824,+1
-0.32441041567999274,-0.24109810591510406,+1
0.6438821215014361,0.9007622138463858,-1
0.4832319604968214,0.5362198590978946,-1
-0.2110156412626969,-0.6482772492620088,+1
0.2807063157045273,-0.3293047951795911,+1
-0.010134784200280578,-0.9493076570492787,+1
0.4568187095273222,0.5541306009466194,-1
0.13480913119456361,-0.6963926337714506,+1
-0.612105716517821,-0.17987954053852917,+1
-0.5354205366672788,0.81816091279837,-1
0.15826413195820366,0.7777613497832867,+1
-0.2953305745468844,0.4077020646465761,+1
0.035589649048080485,0.5346366019702209,+1
-0.889545465087813,-0.9520827710379862,-1
-0.5067075475030649,-0.5829630310103202,-1
-0.6507058859786932,-0.00535811570801159,+1
0.5674216788008577,-0.4702318592894985,-1
0.7135112979277791,-0.5702227098768895,-1
-0.7356323696218103,-0.03834728365045281,+1
-0.5152293221014368,-0.7253231645877558,-1
-0.9182736405182985,0.30509438994483173,-1
0.25747764090341096,0.15332303681122927,+1
0.6177171970755366,0.5559822172305604,-1
0.4563167278257181,-0.25330577875621785,+1
0.29180912171301054,0.18643549718050156,+1
-0.8269490214784134,0.07598369849609599,+1
0.7858526449419734,-0.8118551818072655,-1
-0.4566105415043167,-0.3488097410445068,+1
0.8488368481675403,0.04791838417379979,+1
0.09684602786619201,0.14041029487157797,+1
0.18359375233693287,-0.425476271631158,+1
-0.6908604566156145,0.5009920499520311,-1
0.26102518249086715,-0.18618021264315376,+1
0.24595900765795542,-0.3899198950566496,+1
0.05831767008663946,-0.6502472459904132,+1
0.3194302426467195,-0.11008967204121833,+1
-0.8089641379722434,-0.85218784893713,-1
-0.45800139091467695,0.017895956482259168,+1
-0.4541887552013504,-0.806847989304206,-1
0.1762149153966639,0.4813364318122513,+1
-0.40775012156680157,0.22593905001081716,+1
0.11151093282554525,0.3403241551059897,+1
0.2709279387487671,0.07204169697608642,+1
-0.3190516205413969,-0.5972598188741229,+1
-0.059635071857692123,0.9394135157279062,+1
-0.8120730514398036,-0.6794931415286813,-1
0.5752120124249778,0.45987838826941085,-1
0.9882282675232852,-0.5074183443489384,-1
0.8891426345801059,0.01582905578667515,+1
-0.8842872630324252,0.20325826822662085,-1
-0.9116091810239724,-0.5270637446299304,-1
-0.49260717308622115,-0.658057758181162,-1
0.15228137691837085,0.8429082307493554,+1
-0.5459792028498551,0.0970782817908693,+1
-0.1479117619140251,0.44365457576221123,+1
-0.7702559022948265,0.4687422883170034,-1
-0.4791386487307594,0.42062164679610525,+1
0.0864168127509728,0.005557897554433255,+1
0.29446717241805853,0.1875175241605589,+1
-0.5286701743379736,-0.1755244753290175,+1
0.36114697675207186,0.9155761024431963,-1
-0.27852809938469525,-0.27671465864526046,+1
-0.24529001712411258,-0.5042253855665288,+1
-0.40934233201071657,0.6406868263949925,-1
0.020956417816952788,-0.6118793331701182,+1
0.7221262814564633,-0.8681005053818942,-1
0.5550019703497178,0.2961901553569424,+1
0.7370845578212861,-0.13504097929059555,+1
-0.7540903792825515,-0.5759405866422624,-1
-0.631643138211472,0.1771821502630313,+1
-0.8611479745923303,-0.6943936313247492,-1
0.29272902150017166,0.07941831886850825,+1
-0.22548233759030878,-0.8203252346080834,-1
-0.35819608949072834,-0.18112295650085297,+1
0.14419204299801436,-0.4436396149722577,+1
0.7380562196214966,0.48326395193118077,-1
0.9934494342302134,0.6846566586731393,-1
-0.6969655309591811,0.4075697975333148,-1
-0.9291584719974535,0.2702859875615242,-1
0.5688638170466429,0.0812121849738443,+1
0.7093438805206818,-0.47835105622876983,-1
-0.35588407185096815,0.2930559383921132,+1
-0.43295333266343206,-0.5761556593022725,-1
-0.7457230986858583,-0.9151701087205331,-1
0.6736408636046238,-0.257471113920932,+1
0.44902237150893143,-0.48437683690144717,+1
-0.16757096818480033,-0.4414106094823147,+1
0.16483080627808544,0.4069391616816955,+1
-0.33117850662011983,-0.7254126651620498,-1
0.30740846908876795,-0.6033851038036047,+1
0.29857635391709625,-0.4749090287373885,+1
0.7230419381703646,0.7375730577854234,-1
-0.7767931887265682,-0.9402567765861773,-1
0.8681270536315613,-0.020602459482303104,+1
0.3602618032163516,-0.8391248707219834,-1
0.15136939853392284,0.2883119216531782,+1
0.2945108679142523,-0.036935780332524315,+1
0.015186618643901806,-0.8435678209154696,+1
0.7577115968197907,-0.08449926861476853,+1
0.16838864301304635,-0.14305683628401744,+1
-0.17496758349435648,0.7944601496375647,+1
0.8691870894834515,0.9387122934153234,-1
-0.12797368937740372,-0.5479881152232349,+1
-0.03652670446580064,-0.37071086992386193,+1
0.1152370122824602,0.7184297109784257,+1
-0.8216674759654761,-0.0945651858898533,+1
0.10554553989394178,-0.40058905218570273,+1
0.46997645870266025,0.9933516950394992,-1
0.37900984159342244,-0.7319280281937697,-1
0.5706430188541622,0.7763763360865523,-1
-0.5148770086240622,0.6946550766910353,-1
-0.9515328392336915,0.26755822409069885,-1
0.07695792544168034,0.4712562779232141,+1
0.3327896908512671,0.27552732677082115,+1
0.16455753686009067,-0.48542298684486984,+1
0.8169158815786073,-0.4238515709684181,-1
0.7217876457783452,-0.5201964387911986,-1
-0.5505892367891361,-0.509160158761039,-1
0.9746775217063197,0.0535836722608527,-1
-0.19526542745633435,0.9407038969004684,-1
0.22570998579613732,0.6423636438229576,+1
-0.1942614362969044,0.3206260296325081,+1
0.31165527467212817,0.9029117178515846,-1
-0.7034152488301111,-0.29827981560055816,-1
-0.8628218398177108,0.6143245920164089,-1
-0.6745335023600076,-2.112765905510905E-4,+1
0.47468937819155066,-0.6736707572365335,-1
-0.24696072450291973,0.6532066242228076,+1
0.8013153769450561,-0.3716850442700823,-1
-0.416439313818983,0.47742470784382673,+1
0.2780241907776071,0.7109237371328094,+1
0.3089329196978652,0.8035991602934209,-1
0.9952062305480236,0.25183236416324406,-1
-0.6895314081799302,-0.7913921068944783,-1
0.29652716665937096,0.783660454048952,-1
-0.2801308328549401,0.757055287481937,-1
-0.6407695104330791,0.3273377915315083,+1
0.6856331920858747,0.4159438561122044,-1
0.6218505657484554,0.5607063543704647,-1
-0.7061918696302434,-0.14798791838190772,+1
0.5799820125298922,0.9329951586161482,-1
0.39059107727056763,0.44138774219944255,+1
0.25722783966882656,0.1788037097869717,+1
0.17529760961474605,0.14031652628745328,+1
-0.1583535292648861,0.5992187806303935,+1
