 @RELATION yeast_data
 @ATTRIBUTE name  string
 @ATTRIBUTE mcg  NUMERIC
 @ATTRIBUTE gvh  NUMERIC
 @ATTRIBUTE alm  NUMERIC
 @ATTRIBUTE mit  NUMERIC
 @ATTRIBUTE erl  NUMERIC
 @ATTRIBUTE pox  NUMERIC
 @ATTRIBUTE vac  NUMERIC
 @ATTRIBUTE nuc  NUMERIC
 @ATTRIBUTE class  {CYT,NUC,MIT,ME3, ME2,ME1,EXC,VAC,POX,ERL}
 @DATA
RT05_YEAST,0.38,0.54,0.54,0.41,0.5,0.0,0.51,0.22,MIT
LONM_YEAST,0.47,0.54,0.53,0.77,0.5,0.0,0.52,0.36,MIT
BET1_YEAST,0.38,0.5,0.37,0.26,0.5,0.0,0.43,0.22,ME3
YN94_YEAST,0.81,0.79,0.32,0.37,0.5,0.0,0.41,0.22,ME1
TEC1_YEAST,0.45,0.4,0.56,0.15,0.5,0.0,0.52,0.22,NUC
GCY_YEAST,0.6,0.4,0.59,0.18,0.5,0.0,0.48,0.22,CYT
LCF2_YEAST,0.35,0.46,0.49,0.15,1.0,0.0,0.55,0.35,CYT
FCY2_YEAST,0.46,0.35,0.33,0.17,0.5,0.0,0.55,0.22,ME3
DYR_YEAST,0.8,0.46,0.5,0.15,0.5,0.0,0.53,0.22,CYT
PYC2_YEAST,0.43,0.46,0.5,0.21,0.5,0.0,0.49,0.34,CYT
NUP1_YEAST,0.45,0.41,0.58,0.48,0.5,0.0,0.53,0.64,NUC
MA3T_YEAST,0.39,0.37,0.33,0.23,0.5,0.0,0.53,0.26,ME3
UBP3_YEAST,0.27,0.43,0.5,0.13,0.5,0.0,0.54,0.31,CYT
SR68_YEAST,0.62,0.33,0.49,0.24,0.5,0.0,0.51,0.42,CYT
KTHY_YEAST,0.42,0.43,0.56,0.1,0.5,0.0,0.49,0.22,CYT
NAT2_YEAST,0.59,0.58,0.39,0.52,0.5,0.0,0.5,0.31,CYT
YMC1_YEAST,0.39,0.58,0.47,0.18,0.5,0.0,0.48,0.22,MIT
SDHL_YEAST,0.46,0.42,0.51,0.16,0.5,0.0,0.56,0.22,CYT
PIF1_YEAST,0.59,0.61,0.51,0.62,0.5,0.0,0.51,0.38,MIT
PTSR_YEAST,0.5,0.5,0.54,0.16,0.5,0.0,0.49,0.22,POX
RL18_YEAST,0.45,0.5,0.57,0.29,0.5,0.0,0.44,0.11,CYT
RM02_YEAST,0.6,0.51,0.6,0.38,0.5,0.83,0.52,0.24,MIT
PLB1_YEAST,0.78,0.69,0.44,0.26,0.5,0.0,0.54,0.22,ME1
MAK3_YEAST,0.5,0.34,0.62,0.19,0.5,0.0,0.57,0.22,CYT
YK62_YEAST,0.7,0.51,0.47,0.24,0.5,0.0,0.53,0.25,NUC
S61G_YEAST,0.49,0.31,0.43,0.24,0.5,0.0,0.54,0.22,ME3
RU1A_YEAST,0.47,0.46,0.55,0.28,0.5,0.0,0.44,0.46,NUC
S61A_YEAST,0.55,0.72,0.35,0.26,0.5,0.0,0.49,0.22,ME3
G3P2_YEAST,0.57,0.35,0.5,0.43,0.5,0.0,0.53,0.22,CYT
R17A_YEAST,0.43,0.33,0.54,0.37,0.5,0.0,0.38,0.16,CYT
HEX2_YEAST,0.44,0.42,0.62,0.14,0.5,0.0,0.55,0.37,NUC
ODO2_YEAST,0.53,0.5,0.54,0.56,0.5,0.0,0.49,0.41,MIT
LEUR_YEAST,0.44,0.41,0.44,0.13,0.5,0.0,0.49,0.42,NUC
PEM2_YEAST,0.48,0.49,0.45,0.23,0.5,0.0,0.51,0.22,ME3
RS37_YEAST,0.41,0.49,0.65,0.28,0.5,0.0,0.59,0.57,CYT
RL35_YEAST,0.52,0.47,0.58,0.18,0.5,0.0,0.34,0.11,CYT
CY1_YEAST,0.44,0.68,0.45,0.51,0.5,0.0,0.52,0.41,MIT
MPCP_YEAST,0.6,0.59,0.45,0.23,0.5,0.0,0.55,0.22,MIT
LEU3_YEAST,0.54,0.54,0.49,0.14,0.5,0.0,0.56,0.22,CYT
EFTU_YEAST,0.61,0.73,0.5,0.58,0.5,0.0,0.5,0.22,MIT
ADA3_YEAST,0.33,0.46,0.53,0.29,0.5,0.0,0.5,0.55,NUC
H4_YEAST,0.37,0.34,0.58,0.24,0.5,0.0,0.44,0.18,NUC
MDL2_YEAST,0.72,0.56,0.4,0.26,0.5,0.0,0.51,0.26,ME2
SEC2_YEAST,0.58,0.56,0.46,0.14,0.5,0.0,0.51,0.22,CYT
YB33_YEAST,0.46,0.59,0.38,0.12,0.5,0.0,0.5,0.22,ME3
MAS6_YEAST,0.41,0.41,0.51,0.19,0.5,0.0,0.57,0.22,MIT
RA54_YEAST,0.43,0.41,0.51,0.34,0.5,0.0,0.49,0.28,NUC
F16P_YEAST,0.58,0.6,0.51,0.24,0.5,0.0,0.53,0.22,CYT
SODM_YEAST,0.54,0.47,0.58,0.4,0.5,0.0,0.46,0.27,MIT
CSE2_YEAST,0.53,0.38,0.66,0.25,0.5,0.0,0.43,0.22,NUC
GBA1_YEAST,0.3,0.5,0.47,0.11,0.5,0.0,0.46,0.22,CYT
N116_YEAST,0.88,0.59,0.54,0.39,0.5,0.0,0.41,0.3,NUC
ARF2_YEAST,0.64,0.56,0.56,0.22,0.5,0.0,0.45,0.22,CYT
PPB_YEAST,0.39,0.81,0.35,0.28,0.5,0.0,0.51,0.45,ME3
ASG2_YEAST,0.81,0.85,0.47,0.37,0.5,0.0,0.56,0.22,EXC
APN1_YEAST,0.45,0.46,0.55,0.43,0.5,0.0,0.55,0.38,NUC
ARG2_YEAST,0.48,0.43,0.51,0.32,0.5,0.0,0.52,0.43,NUC
YBC4_YEAST,0.32,0.3,0.57,0.38,0.5,0.0,0.5,0.25,NUC
YNE2_YEAST,0.44,0.41,0.29,0.21,0.5,0.0,0.49,0.22,ME3
RA50_YEAST,0.45,0.54,0.49,0.29,0.5,0.0,0.49,0.25,NUC
NOP4_YEAST,0.33,0.48,0.55,0.16,0.5,0.0,0.53,0.75,NUC
PTP2_YEAST,0.45,0.27,0.5,0.33,0.5,0.0,0.53,0.26,CYT
SWI6_YEAST,0.41,0.56,0.53,0.16,0.5,0.0,0.55,0.26,NUC
NOT1_YEAST,0.37,0.46,0.4,0.27,0.5,0.0,0.45,0.22,NUC
YHN8_YEAST,0.86,0.78,0.34,0.15,0.5,0.0,0.53,0.22,ME2
YKJ5_YEAST,0.36,0.48,0.61,0.26,0.5,0.0,0.5,0.16,NUC
MDHP_YEAST,0.68,0.58,0.51,0.19,0.5,0.83,0.54,0.22,POX
TRK2_YEAST,0.59,0.48,0.41,0.53,0.5,0.0,0.48,0.56,ME3
PGK_YEAST,0.48,0.42,0.48,0.19,0.5,0.0,0.58,0.22,CYT
MD10_YEAST,0.32,0.47,0.55,0.25,0.5,0.0,0.49,0.22,MIT
YOX1_YEAST,0.59,0.67,0.54,0.19,0.5,0.0,0.48,0.6,NUC
SPR1_YEAST,0.66,0.65,0.54,0.4,0.5,0.0,0.51,0.22,EXC
H104_YEAST,0.66,0.62,0.52,0.17,0.5,0.0,0.49,0.22,CYT
VRP1_YEAST,0.5,0.4,0.57,0.17,0.5,0.0,0.59,0.22,CYT
RS33_YEAST,0.5,0.5,0.62,0.23,0.5,0.0,0.35,0.11,CYT
CC68_YEAST,0.36,0.68,0.46,0.16,0.5,0.0,0.53,0.28,NUC
YB91_YEAST,0.43,0.6,0.4,0.12,0.5,0.0,0.49,0.29,ME3
IF5_YEAST,0.41,0.46,0.57,0.25,0.5,0.0,0.57,0.38,CYT
SSN6_YEAST,0.19,0.66,0.6,0.14,0.5,0.0,0.2,0.25,NUC
MFA2_YEAST,0.46,0.42,0.6,0.21,0.5,0.0,0.4,0.22,EXC
TPM2_YEAST,0.39,0.45,0.75,0.17,0.5,0.0,0.51,0.22,CYT
RPB9_YEAST,0.34,0.47,0.48,0.32,0.5,0.0,0.42,0.22,NUC
KHR1_YEAST,0.84,0.63,0.38,0.23,0.5,0.0,0.53,0.22,EXC
CBF1_YEAST,0.3,0.32,0.57,0.19,0.5,0.0,0.48,0.55,NUC
RT17_YEAST,0.41,0.54,0.58,0.2,0.5,0.0,0.52,0.22,MIT
SRS2_YEAST,0.51,0.61,0.5,0.23,0.5,0.0,0.52,0.61,NUC
FAS2_YEAST,0.63,0.62,0.42,0.12,0.5,0.0,0.52,0.25,CYT
SP21_YEAST,0.44,0.59,0.54,0.18,0.5,0.0,0.49,0.22,NUC
TYR1_YEAST,0.66,0.54,0.53,0.17,0.5,0.0,0.54,0.22,CYT
RPC6_YEAST,0.37,0.45,0.53,0.14,0.5,0.0,0.49,0.22,NUC
UCRX_YEAST,0.5,0.62,0.52,0.3,0.5,0.0,0.56,0.22,MIT
ILV5_YEAST,0.57,0.61,0.55,0.67,0.5,0.0,0.48,0.22,MIT
RT09_YEAST,0.58,0.53,0.5,0.53,0.5,0.0,0.47,0.31,MIT
RS8_YEAST,0.37,0.3,0.62,0.43,0.5,0.0,0.44,0.39,CYT
RAD5_YEAST,0.36,0.48,0.5,0.13,0.5,0.0,0.49,0.6,NUC
SWI4_YEAST,0.55,0.38,0.52,0.16,0.5,0.0,0.49,0.64,NUC
YP52_YEAST,0.48,0.61,0.57,0.17,0.5,0.0,0.45,0.22,CYT
E2BB_YEAST,0.59,0.65,0.52,0.3,0.5,0.0,0.46,0.31,CYT
DBP2_YEAST,0.23,0.2,0.53,0.2,0.5,0.0,0.44,0.22,NUC
RM27_YEAST,0.44,0.44,0.67,0.35,0.5,0.0,0.48,0.26,MIT
YBG6_YEAST,0.28,0.41,0.46,0.18,0.5,0.0,0.47,0.39,NUC
CHMU_YEAST,0.47,0.39,0.59,0.15,0.5,0.0,0.57,0.22,CYT
CG12_YEAST,0.54,0.38,0.52,0.18,0.5,0.0,0.48,0.22,CYT
CLH_YEAST,0.54,0.49,0.49,0.2,0.5,0.0,0.52,0.22,CYT
RM06_YEAST,0.62,0.59,0.54,0.47,0.5,0.0,0.46,0.22,MIT
MR11_YEAST,0.39,0.3,0.56,0.12,0.5,0.0,0.53,0.38,NUC
CARP_YEAST,0.8,0.82,0.57,0.26,0.5,0.0,0.57,0.27,VAC
K6P2_YEAST,0.62,0.43,0.49,0.29,0.5,0.0,0.5,0.27,CYT
HS75_YEAST,0.6,0.46,0.51,0.1,0.5,0.0,0.48,0.31,CYT
TSL1_YEAST,0.79,0.56,0.53,0.19,0.5,0.0,0.47,0.35,CYT
SR72_YEAST,0.56,0.52,0.46,0.17,0.5,0.0,0.49,0.73,CYT
COXA_YEAST,0.49,0.6,0.43,0.56,0.5,0.0,0.36,0.22,MIT
PYR1_YEAST,0.56,0.49,0.47,0.13,0.5,0.0,0.52,0.22,NUC
CYPD_YEAST,0.78,0.74,0.58,0.25,1.0,0.0,0.53,0.22,ERL
ATC3_YEAST,0.4,0.39,0.33,0.17,0.5,0.0,0.51,0.31,VAC
R271_YEAST,0.39,0.65,0.57,0.19,0.5,0.0,0.44,0.25,CYT
YHQ1_YEAST,0.72,0.73,0.41,0.28,0.5,0.0,0.44,0.22,ME1
YEP0_YEAST,0.38,0.37,0.36,0.14,0.5,0.0,0.54,0.22,ME3
DPO4_YEAST,0.56,0.5,0.56,0.26,0.5,0.0,0.53,0.27,NUC
ACON_YEAST,0.6,0.4,0.52,0.46,0.5,0.0,0.53,0.22,MIT
SMF1_YEAST,0.57,0.51,0.34,0.13,0.5,0.0,0.53,0.27,MIT
CAP_YEAST,0.52,0.56,0.55,0.16,0.5,0.0,0.53,0.39,CYT
RAD2_YEAST,0.39,0.44,0.54,0.24,0.5,0.0,0.51,0.49,NUC
ADH3_YEAST,0.51,0.51,0.52,0.51,0.5,0.0,0.54,0.22,MIT
KC22_YEAST,0.49,0.31,0.49,0.35,0.5,0.0,0.51,0.29,NUC
ATPE_YEAST,0.63,0.57,0.59,0.4,0.5,0.0,0.38,0.22,MIT
PR04_YEAST,0.34,0.35,0.58,0.2,0.5,0.0,0.46,0.32,NUC
ATH1_YEAST,0.49,0.6,0.3,0.34,0.5,0.0,0.5,0.43,ME3
RAM2_YEAST,0.4,0.6,0.5,0.16,0.5,0.0,0.51,0.22,CYT
TSA_YEAST,0.59,0.64,0.44,0.26,0.5,0.0,0.5,0.22,CYT
TOR2_YEAST,0.49,0.5,0.42,0.43,0.5,0.0,0.5,0.36,VAC
HS83_YEAST,0.61,0.54,0.49,0.16,0.5,0.0,0.54,0.42,CYT
SKN1_YEAST,0.38,0.42,0.31,0.35,0.5,0.0,0.52,0.22,ME3
BAS1_YEAST,0.5,0.52,0.59,0.3,0.5,0.0,0.51,0.35,NUC
IRA2_YEAST,0.4,0.45,0.42,0.17,0.5,0.0,0.54,0.26,ME3
YGL1_YEAST,0.38,0.56,0.38,0.16,0.5,0.0,0.53,0.22,ME3
RLUB_YEAST,0.4,0.42,0.71,0.21,0.5,0.0,0.54,0.32,CYT
ODPA_YEAST,0.6,0.54,0.54,0.53,0.5,0.0,0.52,0.27,MIT
PYC1_YEAST,0.46,0.43,0.5,0.24,0.5,0.0,0.48,0.31,CYT
SUP2_YEAST,0.23,0.29,0.46,0.0,0.5,0.0,0.43,0.31,CYT
DPB3_YEAST,0.53,0.61,0.52,0.21,0.5,0.0,0.55,0.3,NUC
ADT1_YEAST,0.58,0.61,0.47,0.13,0.5,0.0,0.48,0.22,MIT
PPA3_YEAST,0.77,0.72,0.48,0.26,0.5,0.0,0.51,0.22,EXC
MA3S_YEAST,0.39,0.37,0.56,0.15,0.5,0.0,0.5,0.27,CYT
SLP1_YEAST,0.56,0.68,0.42,0.36,0.5,0.0,0.49,0.22,CYT
H3_YEAST,0.39,0.39,0.55,0.52,0.5,0.0,0.37,0.16,NUC
OM45_YEAST,0.75,0.66,0.64,0.39,0.5,0.0,0.46,0.32,MIT
TYSY_YEAST,0.47,0.46,0.53,0.12,0.5,0.0,0.51,0.25,NUC
PHO4_YEAST,0.44,0.42,0.57,0.22,0.5,0.0,0.5,0.25,NUC
IF2B_YEAST,0.41,0.35,0.6,0.22,0.5,0.0,0.56,0.79,CYT
TF2D_YEAST,0.37,0.29,0.45,0.15,0.5,0.0,0.49,0.22,NUC
RU17_YEAST,0.33,0.46,0.6,0.18,0.5,0.0,0.51,0.26,NUC
RM16_YEAST,0.53,0.42,0.58,0.29,0.5,0.0,0.5,0.22,MIT
MOT1_YEAST,0.58,0.46,0.46,0.34,0.5,0.0,0.5,0.43,NUC
PT94_YEAST,0.59,0.58,0.47,0.61,0.5,0.0,0.44,0.3,MIT
EGD1_YEAST,0.35,0.39,0.57,0.11,0.5,0.0,0.48,0.22,NUC
MTD1_YEAST,0.57,0.4,0.48,0.24,0.5,0.0,0.55,0.22,CYT
ODPX_YEAST,0.45,0.58,0.59,0.44,0.5,0.0,0.56,0.22,MIT
RLUB_YEAST,0.4,0.42,0.71,0.21,0.5,0.0,0.54,0.32,CYT
YHD5_YEAST,0.38,0.67,0.33,0.17,0.5,0.0,0.51,0.22,ME3
T2EA_YEAST,0.55,0.79,0.45,0.25,0.5,0.0,0.51,0.22,NUC
RS31_YEAST,0.57,0.48,0.54,0.22,0.5,0.0,0.5,0.11,CYT
H3_YEAST,0.39,0.39,0.55,0.52,0.5,0.0,0.37,0.16,NUC
E2BA_YEAST,0.45,0.56,0.49,0.17,0.5,0.0,0.52,0.22,CYT
GPT_YEAST,0.79,0.57,0.41,0.28,0.5,0.0,0.59,0.22,ME2
CALM_YEAST,0.48,0.64,0.61,0.23,0.5,0.0,0.6,0.22,CYT
SCA1_YEAST,0.47,0.32,0.51,0.24,0.5,0.0,0.54,0.27,NUC
KAD1_YEAST,0.57,0.47,0.6,0.18,0.5,0.0,0.51,0.22,CYT
ALP1_YEAST,0.42,0.24,0.34,0.16,0.5,0.0,0.5,0.22,ME3
PES4_YEAST,0.67,0.46,0.58,0.3,0.5,0.0,0.57,0.27,NUC
AMYG_YEAST,0.7,0.78,0.53,0.24,0.5,0.0,0.48,0.22,VAC
YJ90_YEAST,0.65,0.61,0.39,0.3,0.5,0.0,0.57,0.28,ME3
DCP3_YEAST,0.52,0.46,0.51,0.18,0.5,0.0,0.5,0.22,CYT
OSTD_YEAST,0.78,0.73,0.27,0.28,0.5,0.0,0.56,0.22,ME1
RN12_YEAST,0.56,0.51,0.32,0.49,0.5,0.0,0.48,0.22,NUC
LCB1_YEAST,0.83,0.53,0.52,0.2,0.5,0.0,0.48,0.25,ME2
NHP2_YEAST,0.36,0.44,0.51,0.17,0.5,0.0,0.6,0.19,NUC
GDI1_YEAST,0.64,0.53,0.45,0.13,0.5,0.0,0.53,0.22,CYT
CBS2_YEAST,0.67,0.62,0.54,0.43,0.5,0.0,0.53,0.22,MIT
RS4E_YEAST,0.53,0.57,0.6,0.36,0.5,0.0,0.5,0.22,CYT
NAB3_YEAST,0.42,0.28,0.57,0.18,0.5,0.0,0.42,0.22,NUC
RS28_YEAST,0.38,0.5,0.52,0.44,0.5,0.0,0.54,0.11,CYT
PPCK_YEAST,0.45,0.47,0.53,0.15,0.5,0.0,0.52,0.27,CYT
ATPS_YEAST,0.49,0.42,0.56,0.55,0.5,0.0,0.42,0.25,MIT
GAL8_YEAST,0.6,0.6,0.49,0.3,0.5,0.0,0.53,0.22,NUC
KIME_YEAST,0.59,0.58,0.46,0.19,0.5,0.0,0.56,0.27,CYT
HIR1_YEAST,0.48,0.57,0.5,0.09,0.5,0.0,0.52,0.42,NUC
COX6_YEAST,0.5,0.4,0.56,0.7,0.5,0.0,0.5,0.22,MIT
ARD1_YEAST,0.56,0.48,0.58,0.27,0.5,0.0,0.51,0.22,CYT
RF1M_YEAST,0.6,0.62,0.54,0.4,0.5,0.0,0.5,0.22,MIT
CHS3_YEAST,0.26,0.44,0.3,0.11,0.5,0.0,0.51,0.47,ME3
SAR1_YEAST,0.59,0.54,0.53,0.14,0.5,0.0,0.48,0.22,CYT
R37B_YEAST,0.4,0.45,0.61,0.29,0.5,0.0,0.44,0.22,CYT
RM38_YEAST,0.6,0.46,0.59,0.16,0.5,0.0,0.49,0.22,MIT
SYFB_YEAST,0.47,0.47,0.58,0.16,0.5,0.0,0.49,0.28,CYT
TRPE_YEAST,0.33,0.46,0.53,0.12,0.5,0.0,0.5,0.27,CYT
SRB5_YEAST,0.6,0.62,0.54,0.11,0.5,0.0,0.51,0.22,NUC
YHK5_YEAST,0.92,0.66,0.52,0.23,0.5,0.0,0.53,0.22,ME1
AMYH_YEAST,0.83,0.81,0.45,0.38,0.5,0.0,0.4,0.26,EXC
GRPE_YEAST,0.45,0.48,0.63,0.67,0.5,0.0,0.48,0.22,MIT
R102_YEAST,0.49,0.67,0.5,0.28,0.5,0.0,0.43,0.22,NUC
ALG5_YEAST,0.86,0.74,0.51,0.4,0.5,0.0,0.55,0.22,ME2
CC10_YEAST,0.5,0.64,0.57,0.15,0.5,0.0,0.47,0.22,CYT
KAPC_YEAST,0.42,0.37,0.54,0.17,0.5,0.0,0.51,0.22,CYT
DCP1_YEAST,0.49,0.45,0.53,0.16,0.5,0.0,0.49,0.31,CYT
SC66_YEAST,0.39,0.71,0.38,0.14,0.5,0.0,0.5,0.22,ME2
SYFA_YEAST,0.45,0.4,0.56,0.14,0.5,0.0,0.54,0.22,CYT
HS74_YEAST,0.53,0.48,0.51,0.18,0.5,0.0,0.51,0.27,CYT
MRF1_YEAST,0.46,0.61,0.55,0.29,0.5,0.0,0.49,0.22,MIT
GAS1_YEAST,0.7,0.69,0.43,0.33,0.5,0.0,0.58,0.22,ME1
PAS7_YEAST,0.5,0.51,0.57,0.27,0.5,0.0,0.48,0.22,POX
RED1_YEAST,0.57,0.55,0.52,0.16,0.5,0.0,0.49,0.39,NUC
YHR0_YEAST,0.8,0.73,0.47,0.19,0.5,0.0,0.49,0.22,ME1
RL4B_YEAST,0.56,0.35,0.47,0.35,0.5,0.0,0.52,0.22,CYT
UGS1_YEAST,0.58,0.45,0.48,0.24,0.5,0.0,0.52,0.37,CYT
YE14_YEAST,0.4,0.4,0.44,0.37,0.5,0.0,0.53,0.25,NUC
POB1_YEAST,0.49,0.48,0.52,0.2,0.5,0.0,0.55,0.22,NUC
PH84_YEAST,0.38,0.45,0.37,0.19,0.5,0.0,0.52,0.3,ME3
YKE6_YEAST,0.77,0.74,0.37,0.29,0.5,0.0,0.45,0.22,ME1
SC12_YEAST,0.55,0.52,0.44,0.2,0.5,0.0,0.56,0.22,ME2
TTP1_YEAST,0.79,0.62,0.35,0.35,0.5,0.0,0.6,0.28,ME2
ADB2_YEAST,0.48,0.39,0.51,0.21,0.5,0.0,0.52,0.28,CYT
CYPB_YEAST,0.77,0.79,0.58,0.23,0.5,0.0,0.48,0.22,EXC
KSS1_YEAST,0.52,0.48,0.54,0.28,0.5,0.0,0.54,0.22,NUC
RS8_YEAST,0.37,0.3,0.62,0.43,0.5,0.0,0.44,0.39,CYT
ATPA_YEAST,0.45,0.55,0.54,0.66,0.5,0.0,0.47,0.22,MIT
CC25_YEAST,0.39,0.58,0.5,0.26,0.5,0.0,0.54,0.59,ME3
RT28_YEAST,0.65,0.53,0.55,0.52,0.5,0.0,0.47,0.27,MIT
RLA4_YEAST,0.78,0.82,0.56,0.21,0.5,0.0,0.69,0.22,CYT
AP54_YEAST,0.33,0.49,0.46,0.22,0.5,0.0,0.53,0.33,ME3
MSH3_YEAST,0.51,0.6,0.51,0.26,0.5,0.0,0.54,0.22,NUC
SHM1_YEAST,0.56,0.59,0.45,0.15,0.5,0.0,0.54,0.22,MIT
TRAM_YEAST,0.47,0.52,0.54,0.25,0.5,0.0,0.54,0.29,MIT
GCN5_YEAST,0.31,0.31,0.54,0.18,0.5,0.0,0.52,0.29,NUC
ACR1_YEAST,0.66,0.55,0.45,0.19,0.5,0.0,0.46,0.22,MIT
ST12_YEAST,0.38,0.51,0.56,0.21,0.5,0.0,0.48,0.31,NUC
HS73_YEAST,0.51,0.48,0.51,0.26,0.5,0.0,0.51,0.27,CYT
RPB5_YEAST,0.4,0.3,0.57,0.13,0.5,0.0,0.46,0.22,NUC
IF41_YEAST,0.32,0.32,0.52,0.18,0.5,0.0,0.48,0.34,CYT
HXT4_YEAST,0.43,0.44,0.3,0.18,0.5,0.0,0.51,0.22,ME3
LAS1_YEAST,0.43,0.38,0.51,0.24,0.5,0.0,0.46,0.33,NUC
NHPB_YEAST,0.11,0.41,0.67,0.13,0.5,0.0,0.45,0.29,NUC
GEF1_YEAST,0.49,0.31,0.34,0.13,0.5,0.0,0.52,0.22,ME3
CC7_YEAST,0.42,0.31,0.5,0.15,0.5,0.0,0.53,0.22,NUC
PAP_YEAST,0.64,0.52,0.5,0.26,0.5,0.0,0.51,0.31,NUC
CYT2_YEAST,0.27,0.39,0.66,0.11,0.5,0.0,0.44,0.22,MIT
TFS2_YEAST,0.61,0.3,0.59,0.12,0.5,0.0,0.49,0.27,NUC
CRM1_YEAST,0.56,0.52,0.48,0.17,0.5,0.0,0.46,0.22,NUC
CC31_YEAST,0.47,0.32,0.64,0.3,0.5,0.0,0.63,0.22,NUC
RFC4_YEAST,0.55,0.45,0.58,0.25,0.5,0.0,0.49,0.22,NUC
SMY1_YEAST,0.54,0.5,0.51,0.26,0.5,0.0,0.52,0.22,CYT
RPB3_YEAST,0.54,0.57,0.55,0.18,0.5,0.0,0.5,0.22,NUC
H2B2_YEAST,0.34,0.34,0.61,0.18,0.5,0.0,0.52,0.32,NUC
R272_YEAST,0.39,0.65,0.57,0.19,0.5,0.0,0.43,0.25,CYT
MASY_YEAST,0.42,0.5,0.53,0.22,0.5,0.83,0.5,0.22,POX
YKA5_YEAST,0.41,0.25,0.59,0.44,0.5,0.0,0.6,0.69,NUC
YKW0_YEAST,0.81,0.9,0.39,0.41,0.5,0.0,0.53,0.22,ME2
MSF1_YEAST,0.36,0.44,0.57,0.18,0.5,0.0,0.42,0.22,MIT
SYDM_YEAST,0.51,0.56,0.51,0.42,0.5,0.0,0.53,0.36,MIT
RPCX_YEAST,0.5,0.56,0.63,0.25,0.5,0.0,0.42,0.22,NUC
VAL1_YEAST,0.31,0.4,0.31,0.17,0.5,0.0,0.52,0.22,ME3
PT09_YEAST,0.48,0.52,0.49,0.35,0.5,0.5,0.51,0.22,MIT
SGE1_YEAST,0.85,0.69,0.34,0.31,0.5,0.0,0.57,0.3,ME1
R26A_YEAST,0.46,0.54,0.59,0.41,0.5,0.0,0.53,0.21,CYT
TUP1_YEAST,0.5,0.43,0.56,0.17,0.5,0.0,0.35,0.22,NUC
SC72_YEAST,0.59,0.55,0.57,0.18,0.5,0.0,0.51,0.22,CYT
ALG1_YEAST,0.86,0.68,0.39,0.24,0.5,0.0,0.54,0.22,ME2
MS18_YEAST,0.63,0.47,0.56,0.12,0.5,0.0,0.5,0.22,MIT
YCR8_YEAST,0.39,0.56,0.34,0.18,0.5,0.0,0.49,0.22,ME3
SFL1_YEAST,0.49,0.49,0.52,0.18,0.5,0.0,0.51,0.25,NUC
RL25_YEAST,0.44,0.36,0.64,0.45,0.5,0.0,0.53,0.11,CYT
SYLC_YEAST,0.45,0.43,0.51,0.24,0.5,0.0,0.54,0.33,CYT
RA25_YEAST,0.38,0.42,0.47,0.12,0.5,0.0,0.47,0.53,NUC
SYV_YEAST,0.51,0.49,0.48,0.55,0.5,0.0,0.52,0.58,CYT
MANA_YEAST,0.55,0.51,0.54,0.2,0.5,0.0,0.56,0.22,CYT
AROF_YEAST,0.34,0.46,0.57,0.09,0.5,0.0,0.55,0.22,CYT
RFC1_YEAST,0.26,0.36,0.47,0.34,0.5,0.0,0.53,0.72,NUC
MSH1_YEAST,0.49,0.44,0.45,0.55,0.5,0.0,0.48,0.22,MIT
YGP1_YEAST,0.8,0.79,0.43,0.25,0.5,0.0,0.52,0.22,EXC
TIF3_YEAST,0.47,0.56,0.58,0.19,0.5,0.0,0.44,0.64,CYT
RPOM_YEAST,0.47,0.56,0.46,0.5,0.5,0.0,0.51,0.22,MIT
RT13_YEAST,0.51,0.42,0.56,0.38,0.5,0.0,0.46,0.22,MIT
CNA1_YEAST,0.55,0.59,0.52,0.1,0.5,0.0,0.53,0.22,CYT
ODO1_YEAST,0.54,0.51,0.54,0.52,0.5,0.0,0.47,0.25,MIT
EFG1_YEAST,0.53,0.48,0.45,0.44,0.5,0.0,0.49,0.27,MIT
VAC1_YEAST,0.55,0.44,0.5,0.09,0.5,0.0,0.55,0.22,VAC
S120_YEAST,0.7,0.58,0.53,0.39,0.5,0.0,0.59,0.22,EXC
H150_YEAST,0.74,0.71,0.52,0.3,0.5,0.0,0.27,0.22,EXC
DLD1_YEAST,0.47,0.65,0.54,0.62,0.5,0.0,0.53,0.36,MIT
RL12_YEAST,0.59,0.51,0.48,0.12,0.5,0.0,0.54,0.31,CYT
PT91_YEAST,0.59,0.45,0.58,0.21,0.5,0.0,0.49,0.22,MIT
PNPP_YEAST,0.38,0.62,0.52,0.14,0.5,0.0,0.53,0.22,CYT
MAOX_YEAST,0.57,0.59,0.49,0.86,0.5,0.0,0.47,0.22,NUC
TKT1_YEAST,0.58,0.55,0.51,0.13,0.5,0.0,0.52,0.22,CYT
AFR1_YEAST,0.38,0.61,0.61,0.12,0.5,0.0,0.53,0.47,CYT
ACH1_YEAST,0.4,0.42,0.57,0.35,0.5,0.0,0.53,0.25,CYT
PT17_YEAST,0.75,0.6,0.43,0.35,0.5,0.0,0.45,0.27,MIT
YCT8_YEAST,0.32,0.45,0.39,0.14,0.5,0.0,0.45,0.22,ME3
NOT2_YEAST,0.64,0.6,0.57,0.19,0.5,0.0,0.43,0.22,NUC
CALB_YEAST,0.37,0.42,0.51,0.11,0.5,0.0,0.57,0.22,CYT
DCUP_YEAST,0.48,0.34,0.47,0.14,0.5,0.0,0.47,0.26,CYT
RM41_YEAST,0.52,0.5,0.59,0.31,0.5,0.0,0.5,0.22,MIT
ERD1_YEAST,0.52,0.75,0.37,0.14,0.5,0.0,0.46,0.22,ME3
OCH1_YEAST,0.83,0.57,0.42,0.57,0.5,0.0,0.5,0.32,ME2
YCD8_YEAST,0.3,0.68,0.41,0.17,0.5,0.0,0.51,0.22,ME3
TFB1_YEAST,0.63,0.58,0.57,0.1,0.5,0.0,0.52,0.33,NUC
THRC_YEAST,0.54,0.55,0.55,0.4,0.5,0.0,0.53,0.22,CYT
STE3_YEAST,0.88,0.72,0.32,0.3,0.5,0.0,0.52,0.33,ME1
FUS3_YEAST,0.51,0.58,0.54,0.29,0.5,0.0,0.53,0.22,CYT
SNF1_YEAST,0.39,0.45,0.51,0.29,0.5,0.0,0.54,0.22,CYT
GBP2_YEAST,0.23,0.3,0.58,0.22,0.5,0.0,0.48,0.27,NUC
SUL1_YEAST,0.43,0.28,0.41,0.32,0.5,0.0,0.52,0.22,ME3
MRS2_YEAST,0.55,0.59,0.47,0.64,0.5,0.0,0.54,0.33,MIT
R142_YEAST,0.56,0.41,0.58,0.21,0.5,0.0,0.42,0.22,CYT
SC25_YEAST,0.5,0.48,0.48,0.23,0.5,0.0,0.53,0.68,CYT
RL19_YEAST,0.72,0.37,0.63,0.38,0.5,0.0,0.4,0.14,CYT
RL12_YEAST,0.59,0.51,0.48,0.12,0.5,0.0,0.54,0.31,CYT
RS24_YEAST,0.61,0.38,0.57,0.36,0.5,0.0,0.44,0.21,CYT
PR02_YEAST,0.3,0.3,0.46,0.32,0.5,0.0,0.45,0.22,NUC
PRC3_YEAST,0.51,0.51,0.56,0.28,0.5,0.0,0.54,0.27,CYT
YKE9_YEAST,0.34,0.36,0.54,0.11,0.5,0.0,0.36,0.21,NUC
YN46_YEAST,0.58,0.56,0.52,0.25,0.5,0.0,0.57,0.35,NUC
G3P3_YEAST,0.61,0.52,0.5,0.44,0.5,0.0,0.53,0.22,CYT
R17B_YEAST,0.43,0.33,0.54,0.37,0.5,0.0,0.38,0.16,CYT
PGD1_YEAST,0.41,0.48,0.54,0.24,0.5,0.0,0.37,0.51,NUC
EUG1_YEAST,0.77,0.8,0.51,0.4,1.0,0.0,0.54,0.22,ERL
COX4_YEAST,0.5,0.52,0.6,0.51,0.5,0.0,0.48,0.22,MIT
SODC_YEAST,0.55,0.57,0.51,0.07,0.5,0.0,0.55,0.22,CYT
TFC3_YEAST,0.47,0.38,0.5,0.15,0.5,0.0,0.49,0.47,NUC
YMX1_YEAST,0.72,0.61,0.45,0.3,0.5,0.0,0.54,0.25,MIT
YDA2_YEAST,0.49,0.27,0.57,0.18,0.5,0.83,0.54,0.22,POX
RL15_YEAST,0.46,0.35,0.69,0.18,0.5,0.0,0.3,0.25,CYT
PR18_YEAST,0.33,0.39,0.52,0.09,0.5,0.0,0.47,0.28,NUC
SEC9_YEAST,0.39,0.3,0.63,0.2,0.5,0.0,0.43,0.47,CYT
HIS7_YEAST,0.56,0.44,0.56,0.19,0.5,0.0,0.54,0.22,CYT
ST14_YEAST,0.4,0.65,0.38,0.17,0.5,0.0,0.57,0.22,ME3
PP12_YEAST,0.49,0.47,0.52,0.16,0.5,0.0,0.53,0.28,CYT
PIK1_YEAST,0.45,0.4,0.43,0.22,0.5,0.0,0.51,0.48,NUC
GLNA_YEAST,0.44,0.34,0.55,0.18,0.5,0.0,0.52,0.22,CYT
NUP2_YEAST,0.25,0.36,0.58,0.3,0.5,0.0,0.58,0.31,NUC
SNF5_YEAST,0.66,0.43,0.57,0.6,0.5,0.0,0.19,0.33,NUC
ATP9_YEAST,0.78,0.65,0.4,0.16,0.5,0.0,0.63,0.22,MIT
TPS3_YEAST,0.4,0.44,0.5,0.13,0.5,0.0,0.52,0.39,CYT
ACE2_YEAST,0.42,0.37,0.59,0.2,0.5,0.0,0.52,0.29,NUC
SYN_YEAST,0.47,0.41,0.53,0.27,0.5,0.0,0.47,0.25,MIT
GDA1_YEAST,0.91,0.69,0.57,0.45,0.5,0.0,0.56,0.22,ME2
KAPA_YEAST,0.25,0.26,0.53,0.17,0.5,0.0,0.45,0.22,CYT
ST20_YEAST,0.3,0.45,0.55,0.19,0.5,0.0,0.53,0.4,CYT
HEM1_YEAST,0.57,0.59,0.5,0.58,0.5,0.0,0.53,0.22,MIT
ADT2_YEAST,0.43,0.67,0.48,0.27,0.5,0.0,0.53,0.22,MIT
ASSY_YEAST,0.66,0.62,0.49,0.1,0.5,0.0,0.49,0.22,CYT
CAN1_YEAST,0.44,0.59,0.36,0.16,0.5,0.0,0.52,0.22,ME3
HAP4_YEAST,0.56,0.57,0.63,0.39,1.0,0.0,0.59,0.4,NUC
NAM9_YEAST,0.37,0.51,0.57,0.4,0.5,0.0,0.48,0.27,MIT
R61A_YEAST,0.51,0.39,0.58,0.19,0.5,0.0,0.47,0.22,CYT
RAD3_YEAST,0.52,0.5,0.51,0.2,0.5,0.0,0.51,0.22,NUC
ARG1_YEAST,0.37,0.32,0.47,0.18,0.5,0.0,0.45,0.25,NUC
IS42_YEAST,0.58,0.55,0.52,0.22,0.5,0.0,0.44,0.22,MIT
GBB_YEAST,0.44,0.4,0.53,0.19,0.5,0.0,0.48,0.27,CYT
GCS1_YEAST,0.43,0.51,0.54,0.15,0.5,0.0,0.45,0.26,NUC
MEIX_YEAST,0.7,0.53,0.42,0.22,0.5,0.0,0.51,0.28,NUC
ERG1_YEAST,0.58,0.6,0.43,0.12,0.5,0.0,0.55,0.22,ME3
KICH_YEAST,0.39,0.4,0.53,0.67,0.5,0.0,0.47,0.22,CYT
ERG7_YEAST,0.34,0.38,0.45,0.19,0.5,0.0,0.51,0.22,ME2
YHB7_YEAST,0.83,0.94,0.32,0.21,0.5,0.0,0.51,0.22,ME1
SEN2_YEAST,0.48,0.5,0.47,0.29,0.5,0.0,0.46,0.27,NUC
SYMC_YEAST,0.57,0.44,0.42,0.2,0.5,0.0,0.54,0.22,CYT
VP15_YEAST,0.65,0.63,0.47,0.22,0.5,0.0,0.52,0.27,CYT
PR28_YEAST,0.62,0.41,0.52,0.17,0.5,0.0,0.48,0.22,NUC
COX1_YEAST,0.72,0.61,0.37,0.3,0.5,0.0,0.57,0.22,MIT
STV1_YEAST,0.58,0.43,0.32,0.11,0.5,0.0,0.49,0.22,VAC
YB8G_YEAST,0.65,0.62,0.26,0.33,0.5,0.0,0.55,0.22,ME3
PHSG_YEAST,0.31,0.45,0.5,0.17,0.5,0.0,0.49,0.22,CYT
YAB8_YEAST,0.69,0.66,0.36,0.09,0.5,0.0,0.56,0.22,ME1
PEM1_YEAST,0.42,0.42,0.42,0.2,0.5,0.0,0.49,0.22,ME3
HDF1_YEAST,0.43,0.42,0.54,0.22,0.5,0.0,0.57,0.33,NUC
MEP1_YEAST,0.47,0.6,0.35,0.21,0.5,0.0,0.52,0.22,ME3
YHR8_YEAST,0.31,0.42,0.48,0.17,0.5,0.0,0.49,0.53,NUC
RSU2_YEAST,0.54,0.35,0.55,0.19,0.5,0.0,0.3,0.22,CYT
YHP0_YEAST,0.38,0.44,0.57,0.14,0.5,0.0,0.53,0.52,NUC
YHI7_YEAST,0.29,0.26,0.43,0.17,0.5,0.0,0.55,0.3,ME3
NDI1_YEAST,0.53,0.61,0.51,0.49,0.5,0.0,0.54,0.27,MIT
UGS2_YEAST,0.58,0.41,0.51,0.26,0.5,0.0,0.51,0.37,CYT
NPL1_YEAST,0.65,0.66,0.37,0.12,0.5,0.0,0.52,0.27,ME3
YHA8_YEAST,0.63,0.65,0.42,0.18,0.5,0.0,0.54,0.27,ME3
DCP2_YEAST,0.49,0.45,0.46,0.18,0.5,0.0,0.49,0.31,CYT
P152_YEAST,0.41,0.53,0.41,0.15,0.5,0.0,0.54,0.25,NUC
PUR4_YEAST,0.43,0.44,0.48,0.22,0.5,0.0,0.51,0.22,CYT
CLC1_YEAST,0.24,0.34,0.69,0.18,0.5,0.0,0.52,0.22,CYT
TPM1_YEAST,0.42,0.45,0.75,0.21,0.5,0.0,0.48,0.22,CYT
MSS1_YEAST,0.58,0.57,0.54,0.69,0.5,0.0,0.54,0.22,MIT
RAD4_YEAST,0.33,0.28,0.52,0.15,0.5,0.0,0.51,0.86,NUC
DPB2_YEAST,0.5,0.51,0.52,0.09,0.5,0.0,0.48,0.25,NUC
SNF3_YEAST,0.37,0.4,0.38,0.18,0.5,0.0,0.51,0.22,ME3
YHK8_YEAST,0.49,0.56,0.37,0.2,0.5,0.0,0.53,0.22,ME3
ROX3_YEAST,0.43,0.44,0.64,0.19,0.5,0.0,0.38,0.33,NUC
ATH2_YEAST,0.27,0.56,0.3,0.14,0.5,0.0,0.52,0.39,ME3
HCM1_YEAST,0.46,0.57,0.57,0.15,0.5,0.0,0.52,0.26,NUC
RME1_YEAST,0.45,0.49,0.57,0.25,0.5,0.0,0.48,0.22,NUC
SNC2_YEAST,0.25,0.35,0.22,0.18,0.5,0.0,0.46,0.22,ME3
PROC_YEAST,0.77,0.57,0.45,0.17,0.5,0.0,0.53,0.22,CYT
MDJ1_YEAST,0.4,0.52,0.53,0.52,0.5,0.0,0.51,0.22,MIT
MSB2_YEAST,0.76,0.76,0.35,0.27,0.5,0.0,0.44,0.22,ME1
NOP3_YEAST,0.44,0.34,0.61,0.13,0.5,0.0,0.49,0.26,NUC
YINO_YEAST,0.76,0.67,0.37,0.22,0.5,0.0,0.54,0.22,ME2
ATPD_YEAST,0.5,0.58,0.46,0.46,0.5,0.0,0.46,0.22,MIT
ERG3_YEAST,0.58,0.53,0.38,0.18,0.5,0.0,0.52,0.22,ME3
UBC4_YEAST,0.47,0.46,0.49,0.27,0.5,0.0,0.59,0.22,CYT
YHG2_YEAST,0.2,0.6,0.5,0.29,0.5,0.0,0.51,0.22,ME3
IPPI_YEAST,0.51,0.43,0.63,0.18,0.5,0.0,0.52,0.22,CYT
YCA9_YEAST,0.58,0.63,0.52,0.7,0.5,0.0,0.46,0.22,MIT
SRD1_YEAST,0.53,0.25,0.59,0.27,0.5,0.0,0.45,0.26,NUC
UCR6_YEAST,0.64,0.53,0.59,0.14,0.5,0.0,0.53,0.22,MIT
TRK1_YEAST,0.55,0.39,0.39,0.47,0.5,0.0,0.5,0.83,ME3
ARF1_YEAST,0.64,0.59,0.56,0.23,0.5,0.0,0.46,0.22,CYT
SRP1_YEAST,0.79,0.79,0.42,0.26,0.5,0.0,0.6,0.22,ME1
ERG2_YEAST,0.92,0.61,0.4,0.22,0.5,0.0,0.54,0.22,ME2
ATPU_YEAST,0.5,0.54,0.53,0.54,0.5,0.0,0.51,0.27,MIT
DHA2_YEAST,0.57,0.53,0.53,0.34,0.5,0.0,0.53,0.22,MIT
YCG9_YEAST,0.74,0.73,0.32,0.2,0.5,0.0,0.55,0.22,ME1
TOP2_YEAST,0.45,0.36,0.5,0.19,0.5,0.0,0.53,0.7,NUC
RL3B_YEAST,0.43,0.33,0.67,0.12,0.5,0.0,0.43,0.23,CYT
FUR1_YEAST,0.69,0.6,0.5,0.31,0.5,0.0,0.55,0.22,CYT
CYC2_YEAST,0.4,0.56,0.48,0.14,0.5,0.0,0.47,0.22,MIT
YME1_YEAST,0.63,0.57,0.5,0.48,0.5,0.0,0.51,0.22,MIT
SC23_YEAST,0.41,0.49,0.47,0.09,0.5,0.0,0.49,0.22,CYT
PRI2_YEAST,0.45,0.48,0.56,0.56,0.5,0.0,0.47,0.22,NUC
ADP1_YEAST,0.8,0.88,0.36,0.39,0.5,0.0,0.56,0.33,ME1
MT28_YEAST,0.43,0.83,0.55,0.2,0.5,0.0,0.47,0.4,NUC
TCPA_YEAST,0.5,0.49,0.46,0.22,0.5,0.0,0.53,0.25,CYT
SYKC_YEAST,0.43,0.45,0.54,0.14,0.5,0.0,0.5,0.31,CYT
MCM2_YEAST,0.26,0.38,0.52,0.36,0.5,0.0,0.48,0.56,NUC
YBE2_YEAST,0.26,0.3,0.37,0.15,0.5,0.0,0.53,0.25,ME3
CC27_YEAST,0.48,0.54,0.5,0.17,0.5,0.0,0.53,0.22,NUC
UBA1_YEAST,0.52,0.51,0.48,0.12,0.5,0.0,0.54,0.31,CYT
TP20_YEAST,0.4,0.56,0.53,0.15,0.5,0.0,0.49,0.22,CYT
YHF0_YEAST,0.5,0.63,0.45,0.13,0.5,0.0,0.45,0.32,ME3
NOT4_YEAST,0.47,0.44,0.53,0.18,0.5,0.0,0.47,0.29,NUC
AROC_YEAST,0.6,0.47,0.45,0.22,0.5,0.0,0.51,0.29,CYT
FZF1_YEAST,0.37,0.43,0.62,0.27,0.5,0.0,0.48,0.22,NUC
YJ13_YEAST,0.68,0.5,0.43,0.27,0.5,0.0,0.61,0.22,ME2
MGMT_YEAST,0.54,0.52,0.54,0.2,0.5,0.0,0.55,0.25,NUC
ARLY_YEAST,0.38,0.49,0.53,0.19,0.5,0.0,0.5,0.22,CYT
PR09_YEAST,0.51,0.39,0.56,0.25,0.5,0.0,0.51,0.33,NUC
YBC6_YEAST,0.54,0.6,0.57,0.17,0.5,0.0,0.44,0.22,NUC
MK11_YEAST,0.78,0.48,0.47,0.3,0.5,0.0,0.53,0.47,ME2
ADR6_YEAST,0.48,0.17,0.37,0.33,0.5,0.0,0.44,0.36,NUC
IF2A_YEAST,0.51,0.59,0.55,0.21,0.5,0.0,0.52,0.22,CYT
RL41_YEAST,0.35,0.21,1.0,0.8,0.5,0.0,0.13,0.01,CYT
CB31_YEAST,0.48,0.62,0.52,0.3,0.5,0.0,0.51,0.37,NUC
AAR2_YEAST,0.58,0.44,0.57,0.13,0.5,0.0,0.54,0.22,NUC
NCPR_YEAST,0.78,0.63,0.53,0.13,0.5,0.0,0.54,0.22,ME2
RS3B_YEAST,0.39,0.39,0.59,0.25,0.5,0.0,0.45,0.22,CYT
SRB4_YEAST,0.49,0.6,0.42,0.18,0.5,0.0,0.58,0.28,NUC
DHSB_YEAST,0.53,0.51,0.55,0.57,0.5,0.0,0.46,0.22,MIT
GCN1_YEAST,0.41,0.52,0.41,0.11,0.5,0.0,0.54,0.35,CYT
CH10_YEAST,0.55,0.53,0.56,0.29,0.5,0.0,0.48,0.22,MIT
HXT1_YEAST,0.3,0.5,0.34,0.26,0.5,0.0,0.51,0.22,ME3
YAA7_YEAST,1.0,0.8,0.29,0.36,0.5,0.0,0.52,0.22,ME1
SPT7_YEAST,0.49,0.6,0.54,0.35,0.5,0.0,0.53,0.46,NUC
MAG_YEAST,0.46,0.32,0.58,0.17,0.5,0.0,0.61,0.25,NUC
ATR1_YEAST,0.28,0.58,0.21,0.13,0.5,0.0,0.51,0.22,ME3
YCY8_YEAST,0.28,0.48,0.36,0.16,0.5,0.0,0.53,0.22,ME3
SLA2_YEAST,0.46,0.48,0.38,0.22,0.5,0.0,0.39,0.45,ME3
FDFT_YEAST,0.53,0.68,0.42,0.19,0.5,0.0,0.53,0.22,ME3
PRCG_YEAST,0.55,0.63,0.54,0.16,0.5,0.0,0.45,0.27,CYT
RPA9_YEAST,0.72,0.51,0.52,0.08,0.5,0.0,0.54,0.22,NUC
CYBM_YEAST,0.61,0.72,0.39,0.33,0.5,0.0,0.58,0.22,MIT
SIR2_YEAST,0.42,0.28,0.49,0.22,0.5,0.0,0.55,0.34,NUC
CYC7_YEAST,0.42,0.57,0.72,0.22,0.5,0.0,0.57,0.22,MIT
DPSD_YEAST,0.51,0.46,0.4,0.65,0.5,0.0,0.49,0.22,MIT
RN15_YEAST,0.47,0.45,0.51,0.33,0.5,0.0,0.46,0.26,NUC
YKD8_YEAST,0.38,0.4,0.39,0.19,0.5,0.0,0.46,0.62,NUC
ER24_YEAST,0.63,0.61,0.41,0.22,0.5,0.0,0.51,0.22,ME3
YCS4_YEAST,0.51,0.38,0.42,0.21,0.5,0.0,0.46,0.34,ME3
SC59_YEAST,0.51,0.51,0.32,0.27,0.5,0.0,0.54,0.22,ME3
RFC2_YEAST,0.47,0.47,0.54,0.19,0.5,0.0,0.51,0.33,NUC
FET4_YEAST,0.39,0.44,0.28,0.12,0.5,0.0,0.46,0.27,ME3
YAP3_YEAST,0.71,0.79,0.41,0.38,0.5,0.0,0.54,0.22,ME1
SED1_YEAST,0.77,0.82,0.4,0.36,0.5,0.0,0.38,0.22,ME1
F26_YEAST,0.71,0.59,0.53,0.15,0.5,0.0,0.49,0.33,CYT
MLH1_YEAST,0.66,0.54,0.49,0.16,0.5,0.0,0.54,0.36,NUC
VP17_YEAST,0.25,0.4,0.54,0.16,0.5,0.0,0.43,0.22,CYT
COQ2_YEAST,0.63,0.56,0.45,0.58,0.5,0.0,0.51,0.22,MIT
RS22_YEAST,0.46,0.39,0.54,0.22,0.5,0.0,0.48,0.25,CYT
MSN4_YEAST,0.51,0.56,0.62,0.24,0.5,0.0,0.52,0.51,NUC
ACE1_YEAST,0.43,0.39,0.54,0.21,0.5,0.0,0.53,0.27,NUC
PPA5_YEAST,0.74,0.74,0.51,0.27,0.5,0.0,0.5,0.22,EXC
PROB_YEAST,0.56,0.48,0.5,0.17,0.5,0.0,0.51,0.26,CYT
YHB9_YEAST,0.41,0.53,0.45,0.14,0.5,0.0,0.52,0.66,ME3
PRT1_YEAST,0.59,0.46,0.48,0.46,0.5,0.0,0.49,0.22,CYT
OPI1_YEAST,0.58,0.51,0.56,0.16,0.5,0.0,0.34,0.22,NUC
YAB9_YEAST,0.4,0.45,0.45,0.15,0.5,0.0,0.53,0.48,NUC
HSP7_YEAST,0.38,0.46,0.52,0.75,0.5,0.0,0.5,0.26,MIT
YIN0_YEAST,0.35,0.29,0.46,0.14,0.5,0.0,0.54,0.66,NUC
CISZ_YEAST,0.44,0.38,0.48,0.32,0.5,0.83,0.53,0.22,POX
SOF1_YEAST,0.36,0.32,0.55,0.27,0.5,0.0,0.47,0.43,NUC
HXT8_YEAST,0.42,0.44,0.33,0.17,0.5,0.0,0.54,0.27,ME3
OSTB_YEAST,0.78,0.71,0.35,0.25,0.5,0.0,0.49,0.22,ME1
REB1_YEAST,0.58,0.31,0.6,0.12,0.5,0.0,0.47,0.33,NUC
ATC1_YEAST,0.44,0.43,0.34,0.21,0.5,0.0,0.55,0.4,ME3
SYWM_YEAST,0.44,0.53,0.53,0.37,0.5,0.0,0.51,0.22,MIT
PDS1_YEAST,0.37,0.42,0.6,0.13,0.5,0.0,0.51,0.22,NUC
RS6_YEAST,0.46,0.33,0.45,0.22,0.5,0.0,0.41,0.37,CYT
H2A2_YEAST,0.44,0.53,0.52,0.37,0.5,0.0,0.5,0.22,NUC
DA82_YEAST,0.56,0.43,0.54,0.16,0.5,0.0,0.5,0.22,NUC
AMPM_YEAST,0.48,0.51,0.57,0.24,0.5,0.0,0.5,0.22,CYT
PRCH_YEAST,0.42,0.53,0.57,0.17,0.5,0.0,0.49,0.22,CYT
LAG1_YEAST,0.42,0.51,0.39,0.22,0.5,0.0,0.49,0.26,ME3
VATD_YEAST,0.48,0.49,0.49,0.26,0.5,0.0,0.39,0.27,VAC
BIK1_YEAST,0.64,0.57,0.57,0.27,0.5,0.0,0.37,0.22,CYT
CAL1_YEAST,0.39,0.55,0.48,0.31,0.5,0.0,0.54,0.29,CYT
FPS1_YEAST,0.42,0.52,0.4,0.17,0.5,0.0,0.5,0.26,ME3
FMT_YEAST,0.59,0.56,0.5,0.48,0.5,0.0,0.46,0.22,MIT
UBCX_YEAST,0.47,0.43,0.59,0.27,0.5,0.0,0.55,0.22,POX
PT11_YEAST,0.5,0.32,0.49,0.49,0.5,0.0,0.48,0.32,MIT
OM20_YEAST,0.72,0.58,0.42,0.28,0.5,0.0,0.48,0.22,MIT
CATT_YEAST,0.41,0.51,0.58,0.15,0.5,0.0,0.45,0.27,CYT
KTR1_YEAST,0.77,0.6,0.42,0.33,0.5,0.0,0.57,0.22,ME2
DLDH_YEAST,0.48,0.48,0.5,0.47,0.5,0.0,0.55,0.22,MIT
SFP1_YEAST,0.54,0.59,0.57,0.34,0.5,0.0,0.49,0.22,NUC
EF3_YEAST,0.48,0.58,0.47,0.17,0.5,0.0,0.53,0.74,CYT
COT1_YEAST,0.72,0.62,0.34,0.29,0.5,0.0,0.56,0.28,MIT
DAL5_YEAST,0.34,0.42,0.3,0.23,0.5,0.0,0.53,0.22,ME3
OTC_YEAST,0.53,0.44,0.51,0.33,0.5,0.0,0.55,0.22,CYT
MAD1_YEAST,0.62,0.64,0.56,0.2,0.5,0.0,0.48,0.33,NUC
YHY1_YEAST,0.77,0.68,0.35,0.19,0.5,0.0,0.53,0.43,ME1
YEU2_YEAST,0.55,0.49,0.6,0.18,0.5,0.0,0.51,0.22,NUC
YEX1_YEAST,0.42,0.58,0.41,0.65,0.5,0.0,0.46,0.26,MIT
RM49_YEAST,0.5,0.46,0.64,0.36,0.5,0.0,0.49,0.22,MIT
DAL4_YEAST,0.55,0.42,0.34,0.3,0.5,0.0,0.52,0.22,ME3
RL46_YEAST,0.43,0.22,0.79,0.79,0.5,0.0,0.22,0.0,CYT
LGT3_YEAST,0.46,0.4,0.38,0.18,0.5,0.0,0.49,0.22,ME3
RNC1_YEAST,0.47,0.47,0.5,0.15,0.5,0.0,0.5,0.48,NUC
CAP2_YEAST,0.47,0.39,0.55,0.24,0.5,0.0,0.47,0.22,CYT
CAPB_YEAST,0.3,0.56,0.55,0.18,0.5,0.0,0.5,0.22,CYT
CALX_YEAST,0.75,0.7,0.38,0.27,0.5,0.0,0.49,0.22,ME1
CACP_YEAST,0.45,0.41,0.5,0.46,0.5,0.5,0.5,0.27,POX
YD66_YEAST,0.52,0.65,0.36,0.26,0.5,0.0,0.44,0.22,ME3
YB30_YEAST,0.43,0.41,0.37,0.18,0.5,0.0,0.54,0.31,ME3
VATC_YEAST,0.64,0.61,0.56,0.15,0.5,0.0,0.54,0.22,VAC
GTS1_YEAST,0.41,0.6,0.53,0.29,0.5,0.0,0.47,0.43,NUC
ODP2_YEAST,0.48,0.57,0.52,0.61,0.5,0.0,0.51,0.22,MIT
TPIS_YEAST,0.44,0.49,0.49,0.27,0.5,0.0,0.52,0.22,CYT
PRTB_YEAST,0.75,0.69,0.48,0.13,0.5,0.0,0.57,0.4,VAC
AATC_YEAST,0.51,0.4,0.56,0.17,0.5,0.5,0.49,0.22,CYT
CCPR_YEAST,0.46,0.71,0.48,0.53,0.5,0.0,0.53,0.22,MIT
KAPR_YEAST,0.4,0.45,0.56,0.2,0.5,0.0,0.45,0.22,CYT
TBA3_YEAST,0.59,0.46,0.55,0.17,0.5,0.0,0.52,0.25,CYT
BCS1_YEAST,0.46,0.38,0.47,0.22,0.5,0.0,0.52,0.27,MIT
RTG1_YEAST,0.41,0.46,0.58,0.08,0.5,0.0,0.51,0.28,NUC
H2B1_YEAST,0.32,0.34,0.61,0.17,0.5,0.0,0.52,0.32,NUC
TPS2_YEAST,0.54,0.43,0.48,0.27,0.5,0.0,0.44,0.41,CYT
VPH1_YEAST,0.57,0.54,0.32,0.15,0.5,0.0,0.52,0.25,VAC
PAS1_YEAST,0.56,0.48,0.5,0.3,0.5,0.0,0.51,0.22,CYT
ADA2_YEAST,0.61,0.6,0.55,0.21,0.5,0.0,0.5,0.25,NUC
IPYR_YEAST,0.43,0.51,0.6,0.25,0.5,0.0,0.55,0.22,CYT
KC21_YEAST,0.31,0.31,0.56,0.33,0.5,0.0,0.52,0.33,NUC
DHE2_YEAST,0.59,0.43,0.52,0.19,0.5,0.0,0.55,0.27,CYT
R141_YEAST,0.57,0.41,0.59,0.24,0.5,0.0,0.4,0.22,CYT
MLP1_YEAST,0.46,0.55,0.61,0.13,0.5,0.0,0.47,0.22,CYT
SIP2_YEAST,0.42,0.42,0.55,0.31,0.5,0.0,0.43,0.22,NUC
BCK1_YEAST,0.42,0.47,0.52,0.41,0.5,0.0,0.53,0.32,CYT
PIR3_YEAST,0.77,0.73,0.51,0.27,0.5,0.0,0.34,0.22,EXC
PMT1_YEAST,0.37,0.51,0.39,0.18,0.5,0.0,0.51,0.27,ME3
EFG2_YEAST,0.49,0.48,0.46,0.63,0.5,0.0,0.52,0.22,MIT
EF1G_YEAST,0.52,0.45,0.53,0.34,0.5,0.0,0.52,0.44,CYT
RM44_YEAST,0.53,0.52,0.61,0.35,0.5,0.0,0.5,0.22,MIT
YHT3_YEAST,0.49,0.55,0.35,0.23,0.5,0.0,0.57,0.22,ME3
RL16_YEAST,0.61,0.53,0.59,0.17,0.5,0.0,0.44,0.28,CYT
NAM7_YEAST,0.37,0.41,0.45,0.14,0.5,0.0,0.47,0.22,CYT
KAD2_YEAST,0.63,0.67,0.57,0.24,0.5,0.0,0.49,0.22,MIT
NFS1_YEAST,0.48,0.54,0.53,0.6,0.5,0.0,0.53,0.31,NUC
RPA3_YEAST,0.57,0.37,0.43,0.27,0.5,0.0,0.53,0.28,NUC
RS4_YEAST,0.25,0.48,0.45,0.32,0.5,0.0,0.4,0.22,CYT
HXT2_YEAST,0.49,0.4,0.34,0.26,0.5,0.0,0.5,0.22,ME3
VP16_YEAST,0.41,0.48,0.51,0.2,0.5,0.0,0.51,0.22,CYT
SNF4_YEAST,0.43,0.47,0.47,0.18,0.5,0.0,0.47,0.22,CYT
RFT1_YEAST,0.4,0.66,0.34,0.21,0.5,0.0,0.52,0.26,NUC
RAD9_YEAST,0.41,0.52,0.51,0.22,0.5,0.0,0.52,0.44,NUC
FIMB_YEAST,0.51,0.4,0.5,0.28,0.5,0.0,0.48,0.27,CYT
ADT3_YEAST,0.64,0.62,0.49,0.15,0.5,0.0,0.53,0.22,MIT
MGM1_YEAST,0.66,0.52,0.52,0.44,0.5,0.0,0.56,0.27,MIT
VATL_YEAST,0.73,0.59,0.35,0.15,0.5,0.0,0.54,0.22,VAC
KRE9_YEAST,0.87,0.83,0.57,0.36,0.5,0.0,0.36,0.22,EXC
SUP1_YEAST,0.41,0.49,0.55,0.13,0.5,0.0,0.55,0.22,CYT
ABF2_YEAST,0.55,0.5,0.66,0.36,0.5,0.0,0.49,0.22,MIT
ERG6_YEAST,0.32,0.47,0.55,0.12,0.5,0.0,0.52,0.22,CYT
ZUO1_YEAST,0.43,0.4,0.6,0.16,0.5,0.0,0.53,0.39,NUC
RL44_YEAST,0.34,0.34,0.65,0.4,0.5,0.0,0.32,0.16,CYT
RM04_YEAST,0.36,0.38,0.56,0.44,0.5,0.0,0.48,0.22,MIT
SYKM_YEAST,0.5,0.56,0.49,0.61,0.5,0.0,0.5,0.22,MIT
TKT2_YEAST,0.55,0.69,0.51,0.12,0.5,0.0,0.51,0.22,CYT
SMD1_YEAST,0.48,0.55,0.58,0.18,0.5,0.0,0.38,0.69,NUC
FBRL_YEAST,0.35,0.44,0.54,0.26,0.5,0.0,0.52,0.26,NUC
ROX1_YEAST,0.5,0.36,0.64,0.37,0.5,0.0,0.37,0.33,NUC
SMI1_YEAST,0.43,0.32,0.56,0.27,0.5,0.0,0.47,0.27,NUC
TOP1_YEAST,0.41,0.42,0.53,0.17,0.5,0.0,0.48,0.58,NUC
SYG_YEAST,0.4,0.48,0.5,0.17,0.5,0.0,0.54,0.5,CYT
LY14_YEAST,0.44,0.53,0.43,0.17,0.5,0.0,0.54,0.75,NUC
MRS3_YEAST,0.54,0.64,0.5,0.13,0.5,0.0,0.49,0.22,MIT
KRE5_YEAST,0.86,0.92,0.5,0.37,1.0,0.0,0.53,0.32,ERL
SC62_YEAST,0.54,0.44,0.35,0.19,0.5,0.0,0.51,0.27,ME3
ERG4_YEAST,0.36,0.46,0.43,0.19,0.5,0.0,0.48,0.22,ME3
HS82_YEAST,0.61,0.54,0.49,0.19,0.5,0.0,0.54,0.47,CYT
MA6T_YEAST,0.39,0.37,0.33,0.23,0.5,0.0,0.52,0.26,ME3
DPO2_YEAST,0.54,0.53,0.48,0.14,0.5,0.0,0.49,0.33,NUC
FET3_YEAST,0.54,0.55,0.42,0.22,0.5,0.0,0.48,0.22,ME3
STU1_YEAST,0.33,0.37,0.49,0.22,0.5,0.0,0.55,0.22,CYT
SKI3_YEAST,0.32,0.6,0.48,0.13,0.5,0.0,0.53,0.22,NUC
RT01_YEAST,0.36,0.4,0.53,0.48,0.5,0.0,0.48,0.22,MIT
SRP2_YEAST,0.8,0.83,0.43,0.24,0.5,0.0,0.54,0.22,ME1
IF2G_YEAST,0.51,0.35,0.46,0.15,0.5,0.0,0.51,0.42,CYT
RAT1_YEAST,0.53,0.46,0.54,0.37,0.5,0.0,0.51,0.3,NUC
ATPY_YEAST,0.46,0.49,0.58,0.23,0.5,0.0,0.44,0.22,MIT
NC5R_YEAST,0.64,0.62,0.29,0.28,0.5,0.0,0.51,0.22,MIT
PDR4_YEAST,0.57,0.53,0.6,0.28,0.5,0.0,0.52,0.45,NUC
RL21_YEAST,0.4,0.28,0.58,0.44,0.5,0.0,0.41,0.22,CYT
GCR1_YEAST,0.27,0.51,0.47,0.35,0.5,0.0,0.49,0.28,NUC
RLA0_YEAST,0.48,0.55,0.48,0.1,0.5,0.0,0.55,0.22,CYT
ACT3_YEAST,0.58,0.47,0.54,0.11,0.5,0.0,0.51,0.26,NUC
YN70_YEAST,0.51,0.65,0.53,0.19,0.5,0.0,0.49,0.22,EXC
STF2_YEAST,0.28,0.18,0.72,0.26,0.5,0.0,0.49,0.25,MIT
YIF2_YEAST,0.47,0.5,0.6,0.63,0.5,0.0,0.38,0.16,CYT
CCE1_YEAST,0.58,0.62,0.54,0.17,0.5,0.0,0.48,0.22,MIT
MNN1_YEAST,0.66,0.66,0.32,0.54,0.5,0.0,0.51,0.22,ME2
YCQ7_YEAST,0.67,0.61,0.39,0.24,0.5,0.0,0.51,0.22,ME3
MK16_YEAST,0.49,0.62,0.65,0.18,0.5,0.0,0.46,0.43,NUC
RM13_YEAST,0.6,0.57,0.64,0.52,0.5,0.0,0.47,0.28,MIT
SPT2_YEAST,0.37,0.48,0.67,0.37,0.5,0.0,0.56,0.62,NUC
PH80_YEAST,0.53,0.54,0.43,0.18,0.5,0.0,0.53,0.31,NUC
FU34_YEAST,0.37,0.34,0.32,0.22,0.5,0.0,0.56,0.22,ME3
PIS_YEAST,0.47,0.61,0.5,0.23,0.5,0.0,0.49,0.22,ME3
MER2_YEAST,0.4,0.53,0.61,0.21,0.5,0.0,0.48,0.33,NUC
SCJ1_YEAST,0.39,1.0,0.38,0.41,0.5,0.0,0.5,0.27,MIT
UCRQ_YEAST,0.57,0.6,0.54,0.17,0.5,0.0,0.52,0.22,MIT
PCNA_YEAST,0.49,0.71,0.54,0.13,0.5,0.0,0.58,0.22,NUC
COXX_YEAST,0.46,0.43,0.38,0.33,0.5,0.0,0.48,0.28,MIT
SAG1_YEAST,0.77,0.86,0.44,0.27,0.5,0.0,0.48,0.22,ME1
RM20_YEAST,0.41,0.52,0.53,0.41,0.5,0.0,0.39,0.33,MIT
MET4_YEAST,0.55,0.65,0.5,0.28,0.5,0.0,0.55,0.22,NUC
TF2B_YEAST,0.58,0.64,0.42,0.3,0.5,0.0,0.54,0.22,NUC
TNT_YEAST,0.59,0.6,0.49,0.43,0.5,0.0,0.53,0.31,MIT
RPB4_YEAST,0.38,0.44,0.55,0.44,0.5,0.0,0.47,0.51,NUC
FOX2_YEAST,0.69,0.6,0.51,0.13,0.5,0.83,0.52,0.22,POX
CC12_YEAST,0.6,0.5,0.57,0.25,0.5,0.0,0.41,0.26,CYT
E2BG_YEAST,0.45,0.42,0.52,0.2,0.5,0.0,0.5,0.25,CYT
MER1_YEAST,0.55,0.49,0.45,0.18,0.5,0.0,0.49,0.22,NUC
HIP1_YEAST,0.48,0.46,0.38,0.29,0.5,0.0,0.53,0.22,ME3
YBY2_YEAST,0.22,0.53,0.36,0.22,0.5,0.0,0.54,0.31,ME3
MBP1_YEAST,0.5,0.49,0.52,0.2,0.5,0.0,0.43,0.52,NUC
RN14_YEAST,0.37,0.58,0.5,0.22,0.5,0.0,0.47,0.22,NUC
6PGD_YEAST,0.74,0.53,0.5,0.08,0.5,0.0,0.55,0.31,CYT
KR11_YEAST,0.27,0.56,0.56,0.18,0.5,0.0,0.52,0.22,CYT
CAD1_YEAST,0.48,0.23,0.57,0.27,0.5,0.0,0.48,0.47,NUC
CAT8_YEAST,0.44,0.52,0.41,0.23,0.5,0.0,0.51,0.22,NUC
SSD1_YEAST,0.45,0.45,0.51,0.3,0.5,0.0,0.48,0.44,CYT
RPB6_YEAST,0.27,0.31,0.55,0.13,0.5,0.0,0.5,0.22,NUC
MTA1_YEAST,0.49,0.37,0.59,0.17,0.5,0.0,0.51,0.22,NUC
TCTP_YEAST,0.47,0.38,0.58,0.19,0.5,0.0,0.57,0.22,CYT
RFC3_YEAST,0.34,0.58,0.5,0.26,0.5,0.0,0.51,0.22,NUC
NHPA_YEAST,0.39,0.34,0.68,0.3,0.5,0.0,0.5,0.29,NUC
PR16_YEAST,0.56,0.59,0.54,0.18,0.5,0.0,0.48,0.46,NUC
NOP2_YEAST,0.43,0.28,0.53,0.34,0.5,0.0,0.55,0.57,NUC
IF2M_YEAST,0.55,0.49,0.5,0.46,0.5,0.0,0.52,0.25,MIT
PUT3_YEAST,0.29,0.4,0.41,0.48,0.5,0.0,0.53,0.3,NUC
PUT1_YEAST,0.6,0.59,0.47,0.47,0.5,0.0,0.53,0.22,MIT
GLS1_YEAST,0.2,0.34,0.33,0.1,0.5,0.0,0.48,0.31,ME3
H4_YEAST,0.37,0.34,0.58,0.24,0.5,0.0,0.44,0.18,NUC
RCC_YEAST,0.31,0.5,0.54,0.32,0.5,0.0,0.53,0.31,NUC
UBIQ_YEAST,0.46,0.47,0.62,0.3,0.5,0.0,0.38,0.22,CYT
VATF_YEAST,0.65,0.58,0.53,0.21,0.5,0.0,0.51,0.22,VAC
INV2_YEAST,0.74,0.82,0.46,0.24,0.5,0.0,0.48,0.22,EXC
ITR2_YEAST,0.35,0.53,0.35,0.33,0.5,0.0,0.5,0.32,ME3
CAPA_YEAST,0.42,0.35,0.54,0.18,0.5,0.0,0.56,0.22,CYT
YB54_YEAST,0.4,0.4,0.43,0.19,0.5,0.83,0.48,0.22,POX
PDR3_YEAST,0.61,0.46,0.44,0.47,0.5,0.0,0.5,0.37,NUC
PDR1_YEAST,0.33,0.38,0.45,0.19,0.5,0.0,0.54,0.37,NUC
G6PI_YEAST,0.46,0.46,0.53,0.23,0.5,0.0,0.51,0.22,CYT
KIP1_YEAST,0.43,0.52,0.53,0.52,1.0,0.0,0.49,0.22,CYT
SR14_YEAST,0.61,0.5,0.61,0.21,0.5,0.0,0.55,0.54,CYT
LOS1_YEAST,0.53,0.44,0.47,0.22,0.5,0.0,0.53,0.22,NUC
CC46_YEAST,0.51,0.34,0.5,0.19,0.5,0.0,0.5,0.22,NUC
UCR2_YEAST,0.49,0.45,0.54,0.4,0.5,0.0,0.55,0.22,MIT
AATM_YEAST,0.42,0.44,0.48,0.54,0.5,0.0,0.48,0.22,MIT
CPT1_YEAST,0.47,0.54,0.37,0.14,0.5,0.0,0.5,0.22,ME3
NAB2_YEAST,0.56,0.63,0.52,0.2,0.5,0.0,0.34,0.26,NUC
PAN1_YEAST,0.69,0.39,0.52,0.12,0.5,0.0,0.38,0.35,CYT
ISP6_YEAST,0.59,0.57,0.46,0.14,0.5,0.0,0.52,0.22,MIT
PT27_YEAST,0.26,0.28,0.6,0.2,0.5,0.0,0.54,0.31,MIT
CISY_YEAST,0.38,0.68,0.44,0.45,0.5,0.0,0.53,0.22,MIT
PRC5_YEAST,0.28,0.51,0.55,0.19,0.5,0.0,0.57,0.22,CYT
SRB2_YEAST,0.49,0.48,0.51,0.21,0.5,0.0,0.53,0.22,NUC
ERG8_YEAST,0.62,0.58,0.46,0.13,0.5,0.0,0.53,0.22,CYT
C1TC_YEAST,0.45,0.4,0.5,0.16,0.5,0.0,0.5,0.22,CYT
IF1A_YEAST,0.33,0.36,0.62,0.26,0.5,0.0,0.55,0.22,CYT
KIN2_YEAST,0.36,0.35,0.47,0.22,0.5,0.0,0.44,0.31,ME3
YCH0_YEAST,0.55,0.35,0.36,0.29,0.5,0.0,0.51,0.22,ME3
PMT_YEAST,0.5,0.61,0.44,0.2,0.5,0.0,0.49,0.22,MIT
YCK2_YEAST,0.59,0.48,0.49,0.49,0.5,0.0,0.36,0.32,CYT
SP23_YEAST,0.48,0.65,0.36,0.24,0.5,0.0,0.54,0.31,NUC
BDF1_YEAST,0.33,0.43,0.64,0.16,0.5,0.0,0.52,0.52,NUC
TOA2_YEAST,0.52,0.49,0.59,0.21,0.5,0.0,0.47,0.22,NUC
UBP1_YEAST,0.59,0.7,0.46,0.19,0.5,0.0,0.54,0.44,CYT
INO1_YEAST,0.51,0.34,0.43,0.18,0.5,0.0,0.48,0.25,CYT
RPC8_YEAST,0.57,0.42,0.63,0.22,0.5,0.0,0.68,0.32,NUC
GPDM_YEAST,0.69,0.5,0.49,0.42,0.5,0.0,0.49,0.22,MIT
TYE7_YEAST,0.36,0.52,0.61,0.33,0.5,0.0,0.52,0.37,NUC
RM36_YEAST,0.64,0.64,0.56,0.21,0.5,0.0,0.5,0.22,MIT
HS71_YEAST,0.53,0.48,0.51,0.18,0.5,0.0,0.52,0.27,CYT
GAR1_YEAST,0.35,0.68,0.57,0.4,0.5,0.0,0.53,0.36,NUC
GAL2_YEAST,0.44,0.51,0.37,0.15,0.5,0.0,0.51,0.22,ME3
SC18_YEAST,0.34,0.46,0.52,0.19,0.5,0.0,0.53,0.26,CYT
KC2C_YEAST,0.38,0.37,0.56,0.21,0.5,0.0,0.49,0.22,NUC
CNA2_YEAST,0.39,0.58,0.5,0.1,0.5,0.0,0.51,0.25,CYT
SWI3_YEAST,0.47,0.47,0.5,0.19,0.5,0.0,0.51,0.26,NUC
VATE_YEAST,0.6,0.37,0.52,0.15,0.5,0.0,0.55,0.26,VAC
VP45_YEAST,0.46,0.52,0.51,0.13,0.5,0.0,0.47,0.22,CYT
CHS1_YEAST,0.26,0.5,0.33,0.28,0.5,0.0,0.51,0.22,ME3
STH1_YEAST,0.66,0.65,0.53,0.17,0.5,0.0,0.47,0.66,NUC
YIA6_YEAST,0.51,0.59,0.46,0.13,0.5,0.0,0.48,0.22,MIT
YCW2_YEAST,0.54,0.54,0.56,0.18,0.5,0.0,0.46,0.29,NUC
SC14_YEAST,0.38,0.4,0.53,0.12,0.5,0.0,0.55,0.22,CYT
RL2_YEAST,0.63,0.64,0.45,0.26,0.5,0.0,0.43,0.22,CYT
ITR1_YEAST,0.49,0.41,0.32,0.21,0.5,0.0,0.5,0.32,ME3
UBP2_YEAST,0.19,0.41,0.55,0.13,0.5,0.0,0.52,0.25,CYT
ATP7_YEAST,0.54,0.52,0.63,0.37,0.5,0.0,0.46,0.22,MIT
RS28_YEAST,0.38,0.5,0.52,0.44,0.5,0.0,0.54,0.11,CYT
MSP1_YEAST,0.63,0.6,0.5,0.27,0.5,0.0,0.55,0.22,MIT
NSR1_YEAST,0.3,0.55,0.58,0.16,0.5,0.0,0.61,0.28,NUC
HSF_YEAST,0.34,0.35,0.61,0.19,0.5,0.0,0.52,0.25,NUC
KRE2_YEAST,0.89,0.82,0.6,0.49,0.5,0.0,0.55,0.22,ME2
ACP_YEAST,0.52,0.53,0.58,0.69,0.5,0.0,0.5,0.22,MIT
R14A_YEAST,0.57,0.43,0.52,0.3,0.5,0.0,0.37,0.11,CYT
EF1B_YEAST,0.39,0.45,0.53,0.18,0.5,0.0,0.54,0.22,CYT
TIP1_YEAST,0.77,0.7,0.44,0.29,0.5,0.0,0.56,0.22,ME1
THIL_YEAST,0.54,0.65,0.49,0.34,0.5,0.0,0.52,0.22,CYT
DAP1_YEAST,0.32,0.36,0.28,0.38,0.5,0.0,0.5,0.4,ME3
SNQ2_YEAST,0.45,0.57,0.38,0.28,0.5,0.0,0.53,0.31,ME3
RPB1_YEAST,0.44,0.62,0.53,0.27,0.5,0.0,0.49,0.22,NUC
HEM2_YEAST,0.53,0.43,0.47,0.15,0.5,0.0,0.58,0.22,CYT
PR39_YEAST,0.32,0.48,0.49,0.17,0.5,0.0,0.47,0.22,NUC
ATN1_YEAST,0.39,0.49,0.3,0.19,0.5,0.0,0.52,0.31,ME3
UGA4_YEAST,0.42,0.51,0.33,0.16,0.5,0.0,0.54,0.22,ME3
NDC1_YEAST,0.47,0.59,0.37,0.31,0.5,0.0,0.51,0.36,NUC
SIC1_YEAST,0.42,0.43,0.67,0.7,0.5,0.0,0.42,0.25,CYT
RL27_YEAST,0.58,0.45,0.55,0.27,0.5,0.0,0.48,0.11,CYT
SPT8_YEAST,0.52,0.31,0.56,0.16,0.5,0.0,0.55,0.22,NUC
SLA1_YEAST,0.37,0.55,0.52,0.13,0.5,0.0,0.42,0.8,CYT
CB33_YEAST,0.41,0.45,0.53,0.17,0.5,0.0,0.51,0.25,NUC
SNP2_YEAST,0.51,0.5,0.54,0.11,0.5,0.0,0.6,0.22,NUC
MAC1_YEAST,0.52,0.49,0.57,0.57,0.5,0.0,0.51,0.22,NUC
RA18_YEAST,0.51,0.55,0.56,0.18,0.5,0.0,0.5,0.38,NUC
INO4_YEAST,0.45,0.38,0.59,0.18,0.5,0.0,0.44,0.45,NUC
UNG_YEAST,0.53,0.44,0.54,0.52,0.5,0.0,0.49,0.38,NUC
DPOG_YEAST,0.48,0.47,0.54,0.55,0.5,0.0,0.51,0.65,MIT
YEA6_YEAST,0.42,0.71,0.45,0.15,0.5,0.0,0.48,0.22,ME3
HXT5_YEAST,0.43,0.45,0.37,0.12,0.5,0.0,0.48,0.22,ME3
RIF1_YEAST,0.35,0.4,0.44,0.25,0.5,0.0,0.53,0.57,NUC
GCR2_YEAST,0.54,0.56,0.57,0.18,0.5,0.0,0.45,0.25,NUC
COQ1_YEAST,0.52,0.51,0.51,0.54,0.5,0.0,0.55,0.27,MIT
TCPD_YEAST,0.39,0.47,0.49,0.2,0.5,0.0,0.53,0.26,CYT
EF1H_YEAST,0.54,0.48,0.55,0.33,0.5,0.0,0.55,0.4,CYT
RL3E_YEAST,0.58,0.44,0.5,0.26,0.5,0.0,0.52,0.22,CYT
ATC2_YEAST,0.53,0.51,0.36,0.13,0.5,0.0,0.52,0.22,ME3
SED5_YEAST,0.42,0.28,0.33,0.23,0.5,0.0,0.39,0.26,ME3
UCR9_YEAST,0.68,0.53,0.44,0.31,0.5,0.0,0.51,0.22,MIT
HMD1_YEAST,0.51,0.63,0.3,0.35,0.5,0.0,0.53,0.27,ME3
YBR8_YEAST,0.39,0.44,0.35,0.16,0.5,0.0,0.55,0.22,ME3
YJ64_YEAST,0.85,0.85,0.3,0.31,0.5,0.0,0.55,0.42,ME1
PRC8_YEAST,0.45,0.45,0.52,0.17,0.5,0.0,0.54,0.22,CYT
AP17_YEAST,0.53,0.52,0.49,0.27,0.5,0.0,0.51,0.22,CYT
CC48_YEAST,0.44,0.39,0.53,0.14,0.5,0.0,0.54,0.44,CYT
MCM1_YEAST,0.18,0.48,0.46,0.12,0.5,0.0,0.0,0.25,NUC
SP10_YEAST,0.27,0.46,0.52,0.17,0.5,0.0,0.49,0.44,NUC
RPM2_YEAST,0.42,0.49,0.49,0.36,0.5,0.0,0.57,0.26,MIT
IMP2_YEAST,0.35,0.49,0.47,0.22,0.5,0.0,0.5,0.28,MIT
SR54_YEAST,0.5,0.52,0.51,0.22,0.5,0.0,0.46,0.37,CYT
CBF5_YEAST,0.45,0.51,0.5,0.16,0.5,0.0,0.52,1.0,NUC
RAD7_YEAST,0.49,0.49,0.51,0.29,0.5,0.0,0.52,0.71,NUC
ADH1_YEAST,0.43,0.53,0.52,0.13,0.5,0.0,0.55,0.22,CYT
H2A1_YEAST,0.44,0.53,0.52,0.37,0.5,0.0,0.5,0.22,NUC
RFA1_YEAST,0.35,0.42,0.56,0.28,0.5,0.0,0.47,0.22,NUC
ESP1_YEAST,0.55,0.46,0.46,0.31,0.5,0.0,0.58,0.48,NUC
PSS_YEAST,0.35,0.45,0.43,0.11,0.5,0.0,0.56,0.22,ME3
SC21_YEAST,0.44,0.71,0.5,0.21,0.5,0.0,0.54,0.27,CYT
GCR3_YEAST,0.17,0.38,0.45,0.09,0.5,0.0,0.54,0.27,NUC
CC24_YEAST,0.34,0.54,0.5,0.21,0.5,0.0,0.54,0.31,CYT
SYFM_YEAST,0.43,0.32,0.5,0.29,0.5,0.0,0.5,0.22,MIT
GPDA_YEAST,0.44,0.51,0.48,0.38,0.5,0.0,0.52,0.22,CYT
ATN2_YEAST,0.36,0.49,0.3,0.22,0.5,0.0,0.52,0.31,ME3
YCS7_YEAST,0.31,0.3,0.34,0.19,0.5,0.0,0.55,0.3,ME3
DPOE_YEAST,0.37,0.48,0.5,0.26,0.5,0.0,0.52,0.39,NUC
STP1_YEAST,0.48,0.54,0.56,0.29,0.5,0.0,0.51,0.43,NUC
HXKG_YEAST,0.48,0.39,0.49,0.18,0.5,0.0,0.51,0.22,CYT
TOP3_YEAST,0.53,0.51,0.54,0.21,0.5,0.0,0.45,0.22,NUC
YIB3_YEAST,0.52,0.46,0.34,0.2,0.5,0.0,0.51,0.25,ME3
PMP2_YEAST,0.97,0.71,0.29,0.42,0.5,0.0,0.35,0.22,ME2
SDH3_YEAST,0.54,0.64,0.4,0.56,0.5,0.0,0.51,0.22,MIT
RIM1_YEAST,0.55,0.38,0.64,0.42,0.5,0.0,0.47,0.22,MIT
R161_YEAST,0.49,0.4,0.58,0.23,0.5,0.0,0.47,0.27,CYT
UBC5_YEAST,0.5,0.46,0.49,0.27,0.5,0.0,0.6,0.22,CYT
AROG_YEAST,0.48,0.54,0.55,0.12,0.5,0.0,0.51,0.22,CYT
TCPB_YEAST,0.5,0.45,0.52,0.18,0.5,0.0,0.52,0.22,CYT
RCS1_YEAST,0.33,0.55,0.51,0.43,0.5,0.0,0.51,0.22,NUC
SKO1_YEAST,0.47,0.55,0.57,0.17,0.5,0.0,0.52,0.66,NUC
PEP3_YEAST,0.51,0.46,0.49,0.21,0.5,0.0,0.55,0.22,VAC
TPS1_YEAST,0.63,0.54,0.53,0.27,0.5,0.0,0.49,0.22,CYT
PMT2_YEAST,0.27,0.49,0.36,0.26,0.5,0.0,0.49,0.26,ME3
PDC2_YEAST,0.51,0.46,0.57,0.25,0.5,0.0,0.53,0.22,CYT
IF51_YEAST,0.44,0.55,0.51,0.16,0.5,0.0,0.6,0.22,CYT
RS11_YEAST,0.38,0.34,0.55,0.44,0.5,0.0,0.48,0.26,CYT
GAC1_YEAST,0.55,0.66,0.57,0.32,0.5,0.0,0.57,0.34,CYT
KHS1_YEAST,0.89,0.77,0.36,0.34,0.5,0.0,0.44,0.22,EXC
CBP6_YEAST,0.47,0.41,0.66,0.26,0.5,0.0,0.53,0.22,MIT
KAPB_YEAST,0.49,0.46,0.54,0.18,0.5,0.0,0.35,0.22,CYT
SAC7_YEAST,0.34,0.25,0.55,0.28,0.5,0.0,0.51,0.49,CYT
RL2A_YEAST,0.45,0.27,0.57,0.36,0.5,0.0,0.52,0.18,CYT
YPT1_YEAST,0.6,0.61,0.54,0.11,0.5,0.0,0.46,0.22,CYT
SYTM_YEAST,0.41,0.47,0.58,0.62,0.5,0.0,0.5,0.22,MIT
STE5_YEAST,0.45,0.57,0.52,0.21,0.5,0.0,0.54,0.38,NUC
RPD3_YEAST,0.37,0.3,0.51,0.15,0.5,0.0,0.58,0.26,NUC
SYH_YEAST,0.51,0.68,0.49,0.59,0.5,0.0,0.54,0.27,MIT
R13A_YEAST,0.54,0.55,0.56,0.14,0.5,0.0,0.5,0.25,CYT
RFA3_YEAST,0.57,0.51,0.58,0.22,0.5,0.0,0.51,0.22,NUC
CCHL_YEAST,0.53,0.53,0.6,0.13,0.5,0.0,0.49,0.22,MIT
MET2_YEAST,0.4,0.47,0.48,0.18,0.5,0.0,0.46,0.22,CYT
UBC2_YEAST,0.48,0.47,0.59,0.41,0.5,0.0,0.56,0.27,NUC
PPA1_YEAST,0.66,0.55,0.34,0.2,0.5,0.0,0.62,0.22,ME3
DPOA_YEAST,0.36,0.39,0.54,0.16,0.5,0.0,0.5,0.28,NUC
COX3_YEAST,0.52,0.77,0.38,0.34,0.5,0.0,0.51,0.22,MIT
SRB6_YEAST,0.55,0.47,0.53,0.2,0.5,0.0,0.4,0.22,NUC
YK68_YEAST,0.32,0.29,0.29,0.08,0.5,0.0,0.52,0.22,ME3
HAL1_YEAST,0.38,0.49,0.61,0.13,0.5,0.0,0.54,0.22,CYT
PEP1_YEAST,0.74,0.89,0.32,0.24,0.5,0.0,0.54,0.32,ME1
TBA1_YEAST,0.59,0.46,0.57,0.17,0.5,0.0,0.52,0.22,CYT
YJ36_YEAST,0.32,0.36,0.34,0.19,0.5,0.0,0.55,0.26,ME3
HS72_YEAST,0.51,0.48,0.51,0.19,0.5,0.0,0.51,0.27,CYT
CYC1_YEAST,0.46,0.54,0.71,0.15,0.5,0.0,0.59,0.22,MIT
KIP2_YEAST,0.38,0.49,0.54,1.0,0.5,0.0,0.5,0.27,CYT
EF1A_YEAST,0.63,0.43,0.48,0.11,0.5,0.0,0.51,0.22,CYT
UBC7_YEAST,0.5,0.44,0.57,0.28,0.5,0.0,0.57,0.22,CYT
SSB1_YEAST,0.44,0.39,0.63,0.11,0.5,0.0,0.49,0.26,NUC
SYI_YEAST,0.5,0.46,0.52,0.16,0.5,0.0,0.52,0.26,CYT
NAB1_YEAST,0.49,0.6,0.55,0.17,0.5,0.0,0.44,0.22,CYT
IPB2_YEAST,0.45,0.46,0.61,0.2,0.5,0.0,0.62,0.22,CYT
FAS1_YEAST,0.57,0.61,0.45,0.26,0.5,0.0,0.5,0.22,CYT
SHR3_YEAST,0.7,0.57,0.34,0.19,0.5,0.0,0.53,0.27,ME2
RPBX_YEAST,0.57,0.49,0.61,0.26,0.5,0.0,0.52,0.22,NUC
RA57_YEAST,0.41,0.52,0.56,0.26,0.5,0.0,0.48,0.32,NUC
TFC1_YEAST,0.54,0.67,0.56,0.15,0.5,0.0,0.57,0.33,NUC
R37A_YEAST,0.4,0.45,0.61,0.29,0.5,0.0,0.44,0.22,CYT
RM09_YEAST,0.58,0.53,0.57,0.46,0.5,0.0,0.51,0.27,MIT
MAS5_YEAST,0.64,0.44,0.56,0.15,0.5,0.0,0.56,0.22,CYT
YB8E_YEAST,0.56,0.71,0.47,0.21,0.5,0.0,0.52,0.22,MIT
SIR1_YEAST,0.45,0.41,0.53,0.49,0.5,0.0,0.49,0.31,NUC
YB8I_YEAST,0.77,0.7,0.37,0.12,0.5,0.0,0.49,0.26,ME1
NIP1_YEAST,0.35,0.5,0.44,0.27,0.5,0.0,0.51,0.22,CYT
MAT2_YEAST,0.51,0.48,0.58,0.22,0.5,0.0,0.5,0.28,NUC
DBP1_YEAST,0.42,0.32,0.5,0.21,0.5,0.0,0.51,0.22,NUC
PR21_YEAST,0.38,0.26,0.6,0.1,0.5,0.0,0.48,0.44,NUC
VM12_YEAST,0.4,0.36,0.32,0.16,0.5,0.0,0.51,0.27,VAC
ERD2_YEAST,0.71,0.56,0.39,0.27,0.5,0.0,0.52,0.22,ME2
VATX_YEAST,0.48,0.58,0.58,0.12,0.5,0.0,0.49,0.22,VAC
SLY4_YEAST,0.4,0.43,0.36,0.33,0.5,0.0,0.51,0.22,ME3
UME5_YEAST,0.34,0.42,0.48,0.19,0.5,0.0,0.46,0.31,NUC
PTM1_YEAST,0.81,0.55,0.35,0.34,0.5,0.0,0.51,0.22,ME2
YIN4_YEAST,0.58,0.67,0.49,0.16,0.5,0.0,0.47,0.28,MIT
N100_YEAST,0.9,0.54,0.59,0.2,0.5,0.0,0.48,0.22,NUC
G3P1_YEAST,0.59,0.48,0.49,0.42,0.5,0.0,0.52,0.22,CYT
CDC3_YEAST,0.29,0.32,0.58,0.15,0.5,0.0,0.5,0.3,CYT
HXT3_YEAST,0.34,0.4,0.3,0.23,0.5,0.0,0.51,0.22,ME3
PRCD_YEAST,0.53,0.59,0.48,0.14,0.5,0.0,0.51,0.22,CYT
DKA1_YEAST,0.42,0.5,0.59,0.17,0.5,0.0,0.51,0.22,CYT
SMC1_YEAST,0.47,0.56,0.51,0.2,0.5,0.0,0.52,0.59,NUC
YMC4_YEAST,0.78,0.75,0.4,0.28,0.5,0.0,0.53,0.22,MIT
S160_YEAST,0.46,0.49,0.55,0.18,0.5,0.0,0.56,0.22,NUC
RS15_YEAST,0.48,0.41,0.52,0.33,0.5,0.0,0.51,0.26,CYT
SX19_YEAST,0.32,0.68,0.51,0.16,0.5,0.83,0.55,0.22,POX
SEC6_YEAST,0.46,0.38,0.51,0.2,0.5,0.0,0.51,0.22,CYT
RL13_YEAST,0.38,0.48,0.57,0.3,0.5,0.0,0.41,0.11,CYT
YHJ2_YEAST,0.51,0.46,0.41,0.36,0.5,0.0,0.49,0.22,ME3
CC6_YEAST,0.41,0.39,0.44,0.34,0.5,0.0,0.48,0.4,NUC
CYB_YEAST,0.61,0.72,0.31,0.33,0.5,0.0,0.56,0.22,MIT
PRCF_YEAST,0.35,0.47,0.53,0.19,0.5,0.0,0.48,0.22,CYT
CBP2_YEAST,0.59,0.67,0.56,0.41,0.5,0.0,0.47,0.22,MIT
CC23_YEAST,0.35,0.58,0.54,0.16,0.5,0.0,0.51,0.22,NUC
PRI1_YEAST,0.33,0.35,0.56,0.19,0.5,0.0,0.5,0.22,NUC
FHL1_YEAST,0.33,0.44,0.49,0.08,0.5,0.0,0.48,0.49,NUC
SDH4_YEAST,0.47,0.58,0.47,0.52,0.5,0.0,0.54,0.22,MIT
CIN1_YEAST,0.48,0.61,0.44,0.2,0.5,0.0,0.47,0.22,CYT
MDS1_YEAST,0.46,0.57,0.52,0.28,0.5,0.0,0.52,0.22,NUC
MTF1_YEAST,0.46,0.46,0.56,0.12,0.5,0.0,0.55,0.22,MIT
PHO2_YEAST,0.4,0.34,0.52,0.17,0.5,0.0,0.47,0.51,NUC
THDH_YEAST,0.5,0.53,0.45,0.44,0.5,0.0,0.49,0.22,MIT
RL34_YEAST,0.38,0.43,0.53,0.22,0.5,0.0,0.48,0.11,CYT
BGL2_YEAST,0.69,0.7,0.52,0.36,0.5,0.0,0.46,0.22,EXC
GLYM_YEAST,0.47,0.56,0.53,0.44,0.5,0.0,0.53,0.22,MIT
LEU1_YEAST,0.52,0.62,0.54,0.19,0.5,0.0,0.5,0.22,MIT
MSH2_YEAST,0.32,0.45,0.44,0.2,0.5,0.0,0.55,0.33,NUC
MASZ_YEAST,0.44,0.53,0.52,0.23,0.5,0.83,0.51,0.22,POX
SUI1_YEAST,0.39,0.39,0.65,0.16,0.5,0.0,0.45,0.22,CYT
RHO1_YEAST,0.6,0.48,0.46,0.32,0.5,0.0,0.4,0.33,CYT
RAM1_YEAST,0.59,0.47,0.51,0.53,0.5,0.0,0.53,0.26,CYT
RM31_YEAST,0.58,0.52,0.61,0.33,0.5,0.0,0.38,0.11,MIT
SRPR_YEAST,0.55,0.46,0.47,0.15,0.5,0.0,0.47,0.22,ME3
USO1_YEAST,0.5,0.47,0.45,0.14,0.5,0.0,0.53,0.32,ME3
SIS1_YEAST,0.56,0.55,0.57,0.15,0.5,0.0,0.54,0.25,CYT
RA52_YEAST,0.31,0.39,0.55,0.28,0.5,0.0,0.46,0.31,NUC
YHU0_YEAST,0.63,0.71,0.44,0.53,0.5,0.0,0.52,0.22,ME2
SPB4_YEAST,0.57,0.55,0.51,0.18,0.5,0.0,0.51,0.43,NUC
SPT3_YEAST,0.59,0.49,0.45,0.22,0.5,0.0,0.45,0.31,NUC
NAT1_YEAST,0.5,0.36,0.53,0.41,0.5,0.0,0.55,0.36,CYT
HS77_YEAST,0.51,0.5,0.49,0.45,0.5,0.0,0.48,0.22,MIT
SP11_YEAST,0.46,0.5,0.5,0.28,0.5,0.0,0.5,0.37,NUC
ZNRP_YEAST,0.67,0.57,0.36,0.19,0.5,0.0,0.56,0.22,ME2
SNF2_YEAST,0.33,0.47,0.55,0.24,0.5,0.0,0.45,0.67,NUC
GAL1_YEAST,0.48,0.35,0.42,0.21,0.5,0.0,0.57,0.22,CYT
GR78_YEAST,0.85,0.56,0.33,0.38,1.0,0.0,0.55,0.25,ERL
PPR1_YEAST,0.42,0.28,0.51,0.23,0.5,0.0,0.53,0.27,NUC
MFA4_YEAST,0.79,0.74,0.49,0.33,0.5,0.0,0.48,0.22,EXC
APE2_YEAST,0.49,0.39,0.52,0.29,0.5,0.0,0.48,0.22,EXC
SSO1_YEAST,0.41,0.42,0.23,0.16,0.5,0.0,0.4,0.22,ME3
SLU7_YEAST,0.19,0.16,0.68,0.36,0.5,0.0,0.49,0.21,NUC
E2BE_YEAST,0.32,0.38,0.52,0.2,0.5,0.0,0.52,0.28,CYT
MPI2_YEAST,0.59,0.57,0.43,0.26,0.5,0.0,0.51,0.22,MIT
UGA3_YEAST,0.49,0.36,0.47,0.28,0.5,0.0,0.56,0.54,NUC
HAP3_YEAST,0.28,0.51,0.55,0.11,0.5,0.0,0.46,0.22,NUC
SEC1_YEAST,0.6,0.51,0.49,0.18,0.5,0.0,0.53,0.38,CYT
ZIP1_YEAST,0.47,0.43,0.61,0.4,0.5,0.0,0.48,0.47,NUC
RL35_YEAST,0.52,0.47,0.58,0.18,0.5,0.0,0.34,0.11,CYT
PRC2_YEAST,0.52,0.46,0.56,0.2,0.5,0.0,0.5,0.22,CYT
ADH2_YEAST,0.46,0.53,0.52,0.15,0.5,0.0,0.58,0.22,CYT
RPC3_YEAST,0.29,0.4,0.5,0.16,0.5,0.0,0.51,0.34,NUC
HPR1_YEAST,0.5,0.45,0.49,0.15,0.5,0.0,0.55,0.43,NUC
YHC6_YEAST,0.61,0.76,0.3,0.16,0.5,0.0,0.45,0.41,ME3
CB32_YEAST,0.4,0.44,0.49,0.47,0.5,0.0,0.49,0.27,NUC
CIN4_YEAST,0.66,0.45,0.5,0.23,0.5,0.0,0.49,0.22,CYT
ADR1_YEAST,0.53,0.54,0.43,0.1,0.5,0.0,0.57,0.32,NUC
KEX1_YEAST,0.67,0.63,0.34,0.41,0.5,0.0,0.6,0.33,ME1
PRC6_YEAST,0.53,0.43,0.57,0.24,0.5,0.0,0.39,0.28,CYT
AR56_YEAST,0.45,0.58,0.48,0.67,0.5,0.0,0.52,0.22,MIT
KI28_YEAST,0.57,0.49,0.48,0.16,0.5,0.0,0.51,0.22,NUC
RL15_YEAST,0.46,0.35,0.69,0.18,0.5,0.0,0.3,0.25,CYT
RM33_YEAST,0.57,0.58,0.58,0.35,0.5,0.0,0.49,0.22,MIT
SEN1_YEAST,0.47,0.37,0.46,0.28,0.5,0.0,0.52,0.99,NUC
UCR8_YEAST,0.38,0.31,0.59,0.19,0.5,0.0,0.46,0.22,MIT
SED4_YEAST,0.52,0.55,0.39,0.09,1.0,0.0,0.55,0.25,ME3
ATPG_YEAST,0.48,0.45,0.55,0.5,0.5,0.0,0.53,0.22,MIT
ARO1_YEAST,0.54,0.48,0.44,0.08,0.5,0.0,0.52,0.27,CYT
YN19_YEAST,0.41,0.59,0.46,0.19,0.5,0.0,0.36,0.22,EXC
RFA2_YEAST,0.46,0.41,0.58,0.1,0.5,0.0,0.48,0.22,NUC
YUR1_YEAST,0.81,0.62,0.43,0.17,0.5,0.0,0.53,0.22,ME2
APE3_YEAST,0.74,0.57,0.51,0.28,0.5,0.0,0.58,0.22,VAC
AP19_YEAST,0.5,0.47,0.56,0.31,0.5,0.0,0.56,0.26,CYT
COXE_YEAST,0.49,0.46,0.45,0.45,0.5,0.0,0.52,0.22,MIT
SS10_YEAST,0.77,0.73,0.49,0.46,0.5,0.0,0.38,0.22,EXC
PR19_YEAST,0.48,0.41,0.54,0.39,0.5,0.0,0.51,0.22,NUC
STE2_YEAST,0.49,0.55,0.41,0.19,0.5,0.0,0.48,0.31,ME3
LYP1_YEAST,0.46,0.14,0.36,0.21,0.5,0.0,0.5,0.25,ME3
RL9_YEAST,0.48,0.46,0.58,0.16,0.5,0.0,0.45,0.22,CYT
YBI8_YEAST,0.45,0.5,0.43,0.16,0.5,0.0,0.52,0.28,ME3
RPC5_YEAST,0.38,0.38,0.54,0.24,0.5,0.0,0.54,0.22,NUC
ATE1_YEAST,0.58,0.51,0.49,0.27,0.5,0.0,0.57,0.29,CYT
DNLI_YEAST,0.67,0.71,0.52,0.65,0.5,0.0,0.53,0.36,NUC
DPM1_YEAST,0.54,0.42,0.41,0.16,0.5,0.0,0.52,0.22,ME2
RPB2_YEAST,0.34,0.48,0.47,0.19,0.5,0.0,0.5,0.3,NUC
YHY0_YEAST,0.82,0.63,0.47,0.18,0.5,0.0,0.5,0.22,POX
RRN7_YEAST,0.42,0.38,0.52,0.29,0.5,0.0,0.42,0.22,NUC
CCL1_YEAST,0.4,0.38,0.53,0.16,0.5,0.0,0.52,0.27,NUC
RA10_YEAST,0.61,0.39,0.53,0.14,0.5,0.0,0.43,0.26,NUC
GLN3_YEAST,0.43,0.54,0.58,0.16,0.5,0.0,0.5,0.36,NUC
ATPB_YEAST,0.43,0.57,0.51,0.49,0.5,0.0,0.48,0.22,MIT
CHI2_YEAST,0.82,0.75,0.54,0.23,0.5,0.0,0.46,0.22,EXC
EF1A_YEAST,0.63,0.43,0.48,0.11,0.5,0.0,0.51,0.22,CYT
VATB_YEAST,0.44,0.35,0.55,0.14,0.5,0.0,0.52,0.22,VAC
ARG3_YEAST,0.41,0.46,0.59,0.19,0.5,0.0,0.58,0.27,NUC
CHL4_YEAST,0.57,0.51,0.53,0.18,0.5,0.0,0.56,0.25,NUC
KCC1_YEAST,0.31,0.55,0.52,0.17,0.5,0.0,0.52,0.22,CYT
YJ16_YEAST,0.5,0.45,0.49,0.3,0.5,0.0,0.47,0.4,NUC
ACO1_YEAST,0.43,0.38,0.38,0.12,0.5,0.0,0.5,0.22,ME2
DATI_YEAST,0.27,0.36,0.6,0.33,0.5,0.0,0.37,0.31,NUC
OM70_YEAST,0.81,0.65,0.52,0.41,0.5,0.0,0.57,0.26,MIT
CTK1_YEAST,0.31,0.46,0.54,0.52,0.5,0.0,0.5,0.34,NUC
ACOX_YEAST,0.46,0.41,0.5,0.44,0.5,0.0,0.53,0.22,MIT
IXR1_YEAST,0.42,0.32,0.61,0.13,0.5,0.0,0.14,0.27,NUC
NMT_YEAST,0.49,0.44,0.51,0.18,0.5,0.0,0.52,0.27,CYT
RPC2_YEAST,0.46,0.53,0.47,0.37,0.5,0.0,0.51,0.36,NUC
BAF1_YEAST,0.48,0.45,0.59,0.2,0.5,0.0,0.58,0.34,NUC
GSP1_YEAST,0.58,0.48,0.56,0.1,0.5,0.0,0.46,0.25,NUC
YHA9_YEAST,0.47,0.4,0.63,0.19,0.5,0.0,0.52,0.32,NUC
SC22_YEAST,0.56,0.49,0.32,0.22,0.5,0.0,0.5,0.22,ME2
RL3P_YEAST,0.24,0.25,0.57,0.28,0.5,0.0,0.51,0.11,CYT
PDR5_YEAST,0.41,0.48,0.38,0.13,0.5,0.0,0.51,0.35,ME3
RPA2_YEAST,0.35,0.41,0.53,0.27,0.5,0.0,0.47,0.29,NUC
CSE1_YEAST,0.58,0.56,0.45,0.12,0.5,0.0,0.51,0.22,NUC
XRS2_YEAST,0.64,0.56,0.52,0.17,0.5,0.0,0.54,0.47,NUC
RL71_YEAST,0.35,0.39,0.56,0.2,0.5,0.0,0.49,0.41,CYT
YCFI_YEAST,0.47,0.61,0.32,0.27,0.5,0.0,0.5,0.3,ME3
YAG7_YEAST,0.49,0.49,0.4,0.2,0.5,0.0,0.48,0.26,ME3
TOA1_YEAST,0.57,0.29,0.63,0.22,0.5,0.0,0.49,0.27,NUC
DHSA_YEAST,0.56,0.65,0.49,0.56,0.5,0.0,0.49,0.22,MIT
UCRI_YEAST,0.47,0.53,0.48,0.51,0.5,0.0,0.54,0.22,MIT
PPAC_YEAST,0.74,0.72,0.5,0.28,0.5,0.0,0.49,0.27,EXC
RL1A_YEAST,0.61,0.48,0.56,0.19,0.5,0.0,0.53,0.31,CYT
SIN3_YEAST,0.4,0.49,0.53,0.23,0.5,0.0,0.44,0.26,NUC
YJ91_YEAST,0.47,0.43,0.35,0.32,0.5,0.0,0.54,0.22,ME3
INV1_YEAST,0.74,0.82,0.46,0.24,0.5,0.0,0.5,0.31,EXC
BCK2_YEAST,0.36,0.46,0.62,0.46,0.5,0.0,0.51,0.33,CYT
UBC3_YEAST,0.58,0.48,0.51,0.47,0.5,0.0,0.55,0.22,NUC
MA3R_YEAST,0.33,0.37,0.54,0.28,0.5,0.0,0.53,0.27,NUC
SUG1_YEAST,0.58,0.37,0.58,0.16,0.5,0.0,0.51,0.22,NUC
TBF1_YEAST,0.44,0.65,0.49,0.16,0.5,0.0,0.48,0.31,NUC
MAN1_YEAST,0.37,0.36,0.56,0.18,0.5,0.0,0.48,0.26,VAC
HXT7_YEAST,0.45,0.57,0.3,0.17,0.5,0.0,0.51,0.22,ME3
IRE1_YEAST,0.89,0.81,0.36,0.71,0.5,0.0,0.55,0.63,ME1
R19A_YEAST,0.52,0.43,0.61,0.22,0.5,0.0,0.45,0.22,CYT
RL18_YEAST,0.45,0.5,0.57,0.29,0.5,0.0,0.44,0.11,CYT
CCR4_YEAST,0.53,0.51,0.55,0.05,0.5,0.0,0.45,0.25,NUC
SYLM_YEAST,0.6,0.51,0.52,0.45,0.5,0.0,0.5,0.27,MIT
RAP1_YEAST,0.54,0.53,0.53,0.17,0.5,0.0,0.51,0.39,NUC
MRS4_YEAST,0.4,0.74,0.49,0.16,0.5,0.0,0.51,0.22,MIT
BSD2_YEAST,0.36,0.43,0.39,0.12,0.5,0.0,0.49,0.22,ME3
RRN6_YEAST,0.6,0.57,0.52,0.14,0.5,0.0,0.46,0.48,NUC
YCK1_YEAST,0.71,0.51,0.49,0.23,0.5,0.0,0.3,0.32,ME2
COAC_YEAST,0.25,0.4,0.51,0.18,0.5,0.0,0.5,0.27,CYT
HEM6_YEAST,0.35,0.4,0.53,0.18,0.5,0.0,0.42,0.38,CYT
PRCZ_YEAST,0.48,0.48,0.56,0.18,0.5,0.0,0.58,0.22,CYT
AGA1_YEAST,0.78,0.74,0.42,0.26,0.5,0.0,0.43,0.22,ME1
DHH1_YEAST,0.41,0.24,0.54,0.26,0.5,0.0,0.41,0.22,NUC
MDL1_YEAST,0.51,0.47,0.41,0.44,0.5,0.0,0.5,0.22,ME3
ANC1_YEAST,0.53,0.31,0.58,0.39,0.5,0.0,0.47,0.37,NUC
DUR3_YEAST,0.83,0.58,0.33,0.04,0.5,0.0,0.53,0.22,ME2
PH85_YEAST,0.4,0.37,0.54,0.13,0.5,0.0,0.48,0.22,NUC
COX7_YEAST,0.37,0.58,0.44,0.51,0.5,0.0,0.44,0.22,MIT
MPI1_YEAST,0.4,0.68,0.5,0.82,0.5,0.0,0.44,0.36,MIT
END2_YEAST,0.78,0.7,0.32,0.23,0.5,0.0,0.53,0.22,ME1
HXT6_YEAST,0.45,0.57,0.3,0.17,0.5,0.0,0.51,0.22,ME3
P2B1_YEAST,0.32,0.42,0.52,0.24,0.5,0.0,0.6,0.22,CYT
DBF4_YEAST,0.35,0.4,0.59,0.22,0.5,0.0,0.47,0.37,NUC
ABP1_YEAST,0.4,0.39,0.6,0.15,0.5,0.0,0.58,0.3,CYT
KTR4_YEAST,0.94,0.6,0.33,0.49,0.5,0.0,0.54,0.22,ME2
PUT4_YEAST,0.58,0.53,0.33,0.26,0.5,0.0,0.51,0.22,ME3
RM32_YEAST,0.57,0.61,0.55,0.27,0.5,0.0,0.44,0.21,MIT
ATM1_YEAST,0.6,0.5,0.44,0.61,0.5,0.0,0.47,0.22,MIT
HS30_YEAST,0.37,0.62,0.34,0.25,0.5,0.0,0.51,0.22,ME3
MPP2_YEAST,0.5,0.62,0.54,0.66,0.5,0.0,0.49,0.22,MIT
RL2_YEAST,0.63,0.64,0.45,0.26,0.5,0.0,0.43,0.22,CYT
GAL7_YEAST,0.5,0.5,0.48,0.17,0.5,0.0,0.47,0.26,CYT
EST1_YEAST,0.35,0.6,0.47,0.13,0.5,0.0,0.52,0.43,NUC
SMY2_YEAST,0.6,0.64,0.56,0.36,0.5,0.0,0.46,0.27,CYT
END3_YEAST,0.55,0.46,0.53,0.11,0.5,0.0,0.52,0.48,CYT
MDHM_YEAST,0.58,0.49,0.5,0.41,0.5,0.0,0.57,0.22,MIT
CIN8_YEAST,0.21,0.41,0.55,0.11,0.5,0.0,0.5,0.27,CYT
MSH4_YEAST,0.49,0.46,0.42,0.46,0.5,0.0,0.55,0.22,NUC
SIN4_YEAST,0.45,0.65,0.51,0.17,0.5,0.0,0.49,0.22,NUC
YKW2_YEAST,0.41,0.47,0.5,0.14,0.5,0.0,0.53,0.37,NUC
RL44_YEAST,0.34,0.34,0.65,0.4,0.5,0.0,0.32,0.16,CYT
CHL1_YEAST,0.42,0.51,0.5,0.12,0.5,0.0,0.52,0.46,NUC
R29A_YEAST,0.38,0.32,0.64,0.41,0.5,0.0,0.44,0.11,CYT
YKM9_YEAST,0.41,0.45,0.46,0.23,0.5,0.0,0.5,0.7,CYT
SPA2_YEAST,0.5,0.45,0.51,0.19,0.5,0.0,0.53,0.25,CYT
OAT_YEAST,0.27,0.6,0.48,0.23,0.5,0.0,0.55,0.22,CYT
CC11_YEAST,0.4,0.62,0.52,0.31,0.5,0.0,0.49,0.31,CYT
ALF_YEAST,0.56,0.62,0.53,0.24,0.5,0.0,0.57,0.22,CYT
GLO3_YEAST,0.34,0.66,0.51,0.16,0.5,0.0,0.47,0.33,NUC
RMAR_YEAST,0.66,0.37,0.6,0.25,0.5,0.0,0.69,0.22,MIT
RS3_YEAST,0.51,0.52,0.58,0.17,0.5,0.0,0.47,0.28,CYT
RPC9_YEAST,0.31,0.6,0.65,0.18,0.5,0.0,0.46,0.22,NUC
ATP6_YEAST,0.52,0.64,0.34,0.16,0.5,0.0,0.57,0.22,MIT
YAC2_YEAST,0.49,0.53,0.36,0.15,0.5,0.0,0.52,0.27,ME3
E2BD_YEAST,0.42,0.39,0.47,0.13,0.5,0.0,0.5,0.27,CYT
K6P1_YEAST,0.57,0.49,0.5,0.2,0.5,0.0,0.51,0.28,CYT
DSS4_YEAST,0.56,0.52,0.55,0.19,0.5,0.0,0.54,0.22,CYT
PT12_YEAST,0.45,0.53,0.47,0.43,0.5,0.0,0.5,0.27,MIT
AST1_YEAST,0.48,0.42,0.52,0.24,0.5,0.0,0.56,0.22,CYT
CBP1_YEAST,0.45,0.45,0.5,0.6,0.5,0.0,0.49,0.22,MIT
NI96_YEAST,0.4,0.53,0.44,0.18,0.5,0.0,0.54,0.31,NUC
R104_YEAST,0.44,0.33,0.55,0.16,0.5,0.0,0.49,0.22,NUC
FUS1_YEAST,0.84,0.66,0.36,0.78,0.5,0.0,0.49,0.5,ME1
ATC4_YEAST,0.51,0.55,0.35,0.16,0.5,0.0,0.51,0.47,ME3
PRC9_YEAST,0.48,0.56,0.49,0.32,0.5,0.0,0.5,0.22,CYT
GBG_YEAST,0.36,0.37,0.63,0.25,0.5,0.0,0.3,0.22,CYT
SEC8_YEAST,0.48,0.51,0.5,0.24,0.5,0.0,0.54,0.38,CYT
CTPT_YEAST,0.41,0.4,0.59,0.47,0.5,0.0,0.48,0.43,CYT
METE_YEAST,0.29,0.46,0.54,0.27,0.5,0.0,0.49,0.22,CYT
PEP8_YEAST,0.4,0.36,0.55,0.15,0.5,0.0,0.53,0.22,VAC
CARA_YEAST,0.53,0.51,0.46,0.28,0.5,0.0,0.48,0.22,CYT
MA6R_YEAST,0.33,0.38,0.53,0.26,0.5,0.0,0.52,0.27,NUC
PT22_YEAST,0.56,0.68,0.52,0.39,0.5,0.0,0.36,0.22,MIT
CYPR_YEAST,0.73,0.83,0.43,0.3,0.5,0.0,0.55,0.22,ME1
SEC4_YEAST,0.44,0.51,0.53,0.3,0.5,0.0,0.53,0.22,CYT
SMF2_YEAST,0.23,0.37,0.32,0.13,0.5,0.0,0.53,0.22,MIT
TREA_YEAST,0.29,0.34,0.55,0.24,0.5,0.0,0.51,0.22,CYT
HIR2_YEAST,0.61,0.57,0.45,0.21,0.5,0.0,0.5,0.42,NUC
DA80_YEAST,0.59,0.58,0.56,0.21,0.5,0.0,0.54,0.33,NUC
CSG2_YEAST,0.69,0.61,0.38,0.27,0.5,0.0,0.52,0.22,ME2
PR05_YEAST,0.33,0.21,0.53,0.15,1.0,0.0,0.52,0.5,NUC
RS3A_YEAST,0.38,0.4,0.59,0.25,0.5,0.0,0.44,0.22,CYT
CBP4_YEAST,0.35,0.52,0.48,0.22,0.5,0.0,0.26,0.22,MIT
LYS1_YEAST,0.5,0.45,0.48,0.17,0.5,0.0,0.5,0.26,CYT
SPK1_YEAST,0.44,0.43,0.46,0.28,0.5,0.0,0.45,0.29,NUC
MIF2_YEAST,0.37,0.31,0.53,0.16,0.5,0.0,0.53,0.44,NUC
GCN2_YEAST,0.37,0.33,0.5,0.12,0.5,0.0,0.51,0.54,CYT
SEC7_YEAST,0.37,0.42,0.46,0.15,0.5,0.0,0.51,0.31,ME2
YCV1_YEAST,0.75,0.73,0.35,0.33,0.5,0.0,0.49,0.28,ME1
ALG8_YEAST,0.41,0.54,0.39,0.2,0.5,0.0,0.51,0.22,ME3
TAT2_YEAST,0.39,0.46,0.33,0.18,0.5,0.0,0.53,0.22,ME3
PHD1_YEAST,0.48,0.46,0.58,0.26,0.5,0.0,0.44,0.22,NUC
DAP2_YEAST,0.36,0.68,0.38,0.08,0.5,0.0,0.53,0.25,VAC
R167_YEAST,0.37,0.37,0.51,0.38,0.5,0.0,0.44,0.22,CYT
YHX8_YEAST,0.4,0.43,0.49,0.17,0.5,0.0,0.51,0.36,NUC
RL4A_YEAST,0.56,0.35,0.47,0.41,0.5,0.0,0.5,0.22,CYT
GAL4_YEAST,0.44,0.44,0.49,0.15,0.5,0.0,0.46,0.27,NUC
PYRD_YEAST,0.48,0.39,0.56,0.23,0.5,0.0,0.6,0.22,CYT
PPX1_YEAST,0.51,0.48,0.46,0.29,0.5,0.0,0.54,0.22,CYT
HXTY_YEAST,0.33,0.28,0.31,0.24,0.5,0.0,0.53,0.22,ME3
SLN1_YEAST,0.52,0.65,0.36,0.37,0.5,0.0,0.52,0.34,ME3
PDI_YEAST,0.7,0.84,0.49,0.28,1.0,0.0,0.58,0.22,ERL
KEM1_YEAST,0.59,0.53,0.47,0.26,0.5,0.0,0.53,0.31,NUC
M101_YEAST,0.5,0.49,0.59,0.47,0.5,0.0,0.49,0.36,MIT
RPB8_YEAST,0.44,0.5,0.55,0.24,0.5,0.0,0.48,0.22,NUC
R26B_YEAST,0.46,0.54,0.59,0.41,0.5,0.0,0.53,0.21,CYT
DEP1_YEAST,0.38,0.48,0.59,0.22,0.5,0.0,0.46,0.22,CYT
ANP1_YEAST,0.74,0.75,0.58,0.47,0.5,0.0,0.4,0.35,ME2
MCM3_YEAST,0.53,0.51,0.51,0.11,0.5,0.0,0.49,0.41,NUC
SIR4_YEAST,0.33,0.42,0.55,0.23,0.5,0.0,0.52,0.43,NUC
SPT4_YEAST,0.73,0.52,0.59,0.25,0.5,0.0,0.51,0.22,NUC
CP51_YEAST,0.57,0.59,0.44,0.16,0.5,0.0,0.52,0.22,ME2
PT54_YEAST,0.5,0.57,0.62,0.25,0.5,0.0,0.51,0.22,MIT
SRPI_YEAST,0.25,0.33,0.48,0.18,0.5,0.0,0.42,0.33,NUC
TCPE_YEAST,0.62,0.42,0.47,0.16,0.5,0.0,0.52,0.22,CYT
SPT5_YEAST,0.5,0.43,0.5,0.17,0.5,0.0,0.46,0.47,NUC
IATP_YEAST,0.47,0.63,0.66,0.45,0.5,0.0,0.37,0.11,MIT
GALY_YEAST,0.56,0.59,0.53,0.16,0.5,0.0,0.24,0.42,NUC
YKH4_YEAST,0.39,0.35,0.49,0.17,0.5,0.0,0.49,0.22,NUC
RS21_YEAST,0.42,0.5,0.64,0.13,0.5,0.0,0.49,0.22,CYT
NAM1_YEAST,0.51,0.46,0.54,0.41,0.5,0.0,0.53,0.22,MIT
UBR1_YEAST,0.42,0.46,0.44,0.17,0.5,0.0,0.51,0.42,CYT
MRS1_YEAST,0.61,0.46,0.51,0.37,0.5,0.0,0.51,0.22,MIT
PR06_YEAST,0.49,0.45,0.57,0.24,0.5,0.0,0.47,0.38,NUC
MTC_YEAST,0.38,0.51,0.75,0.17,0.5,0.0,0.55,0.22,CYT
HO_YEAST,0.53,0.53,0.53,0.17,0.5,0.0,0.49,0.37,NUC
YPT7_YEAST,0.61,0.48,0.54,0.25,0.5,0.0,0.5,0.22,CYT
UMPK_YEAST,0.47,0.59,0.56,0.09,0.5,0.0,0.5,0.22,CYT
CC16_YEAST,0.62,0.51,0.52,0.42,0.5,0.0,0.54,0.27,NUC
PMGY_YEAST,0.55,0.41,0.56,0.21,0.5,0.0,0.52,0.22,CYT
CTR1_YEAST,0.36,0.37,0.33,0.14,0.5,0.0,0.57,0.31,ME3
BLH1_YEAST,0.52,0.48,0.58,0.55,0.5,0.0,0.48,0.22,CYT
ARGD_YEAST,0.43,0.35,0.52,0.52,0.5,0.0,0.54,0.22,MIT
RMR3_YEAST,0.51,0.45,0.62,0.25,0.5,0.0,0.59,0.22,MIT
KRE6_YEAST,0.37,0.55,0.29,0.32,0.5,0.0,0.51,0.22,ME3
RT02_YEAST,0.57,0.4,0.62,0.3,0.5,0.0,0.48,0.11,MIT
ORC2_YEAST,0.39,0.42,0.49,0.1,0.5,0.0,0.49,0.65,NUC
FKB2_YEAST,0.74,0.72,0.47,0.25,0.5,0.0,0.57,0.22,ME1
TRNL_YEAST,0.49,0.38,0.49,0.15,0.5,0.0,0.53,0.25,NUC
YB48_YEAST,0.29,0.39,0.46,0.36,0.5,0.0,0.51,0.22,NUC
COX8_YEAST,0.55,0.45,0.45,0.54,0.5,0.0,0.5,0.22,MIT
GOG5_YEAST,0.69,0.48,0.38,0.15,0.5,0.0,0.55,0.22,ME2
COXG_YEAST,0.42,0.31,0.62,0.12,0.5,0.0,0.4,0.22,MIT
RTPT_YEAST,0.48,0.45,0.59,0.35,0.5,0.0,0.55,0.3,MIT
RIMI_YEAST,0.33,0.38,0.47,0.14,0.5,0.0,0.51,0.47,NUC
PROF_YEAST,0.47,0.49,0.6,0.15,0.5,0.0,0.38,0.22,CYT
STF1_YEAST,0.55,0.41,0.67,0.61,0.5,0.0,0.49,0.14,MIT
YHU2_YEAST,0.6,0.68,0.3,0.27,0.5,0.0,0.55,0.22,ME3
TCPZ_YEAST,0.49,0.48,0.52,0.24,0.5,0.0,0.5,0.22,CYT
RS22_YEAST,0.46,0.39,0.54,0.22,0.5,0.0,0.48,0.25,CYT
R114_YEAST,0.44,0.45,0.53,0.19,0.5,0.0,0.41,0.28,NUC
TFC4_YEAST,0.33,0.17,0.52,0.13,0.5,0.0,0.51,0.75,NUC
RM25_YEAST,0.45,0.43,0.63,0.4,0.5,0.0,0.59,0.11,MIT
PRTD_YEAST,0.63,0.55,0.53,0.51,0.5,0.0,0.55,0.22,VAC
RS41_YEAST,0.32,0.44,0.54,0.21,0.5,0.0,0.4,0.19,CYT
PORI_YEAST,0.41,0.49,0.58,0.22,0.5,0.0,0.52,0.22,MIT
UBC6_YEAST,0.43,0.48,0.36,0.26,0.5,0.0,0.52,0.22,ME3
SX18_YEAST,0.38,0.58,0.46,0.21,0.5,0.0,0.52,0.22,NUC
COXB_YEAST,0.5,0.41,0.44,0.5,0.5,0.0,0.42,0.22,MIT
IMP1_YEAST,0.67,0.51,0.53,0.28,0.5,0.0,0.51,0.22,MIT
END1_YEAST,0.46,0.49,0.45,0.28,0.5,0.0,0.55,0.22,VAC
YAF3_YEAST,0.77,0.78,0.27,0.37,0.5,0.0,0.49,0.22,ME1
THIK_YEAST,0.46,0.48,0.44,0.21,0.5,0.0,0.55,0.22,POX
VPS1_YEAST,0.5,0.55,0.52,0.16,0.5,0.0,0.51,0.31,CYT
RPC4_YEAST,0.36,0.49,0.55,0.21,0.5,0.0,0.55,0.33,NUC
HS26_YEAST,0.44,0.41,0.58,0.2,0.5,0.0,0.57,0.25,CYT
YP53_YEAST,0.71,0.5,0.5,0.18,0.5,0.0,0.46,0.22,CYT
MNS1_YEAST,0.89,0.52,0.41,0.26,0.5,0.0,0.52,0.31,ME2
HMD2_YEAST,0.53,0.68,0.34,0.42,0.5,0.0,0.54,0.27,ME3
NUF2_YEAST,0.64,0.76,0.51,0.18,0.5,0.0,0.46,0.22,NUC
HBS1_YEAST,0.21,0.38,0.49,0.16,0.5,0.0,0.51,0.45,CYT
PR22_YEAST,0.68,0.39,0.5,0.15,0.5,0.0,0.48,0.37,NUC
RAD1_YEAST,0.24,0.41,0.47,0.16,0.5,0.0,0.51,0.38,NUC
MTC_YEAST,0.38,0.51,0.75,0.17,0.5,0.0,0.55,0.22,CYT
IF42_YEAST,0.28,0.27,0.5,0.14,0.5,0.0,0.5,0.28,CYT
R19B_YEAST,0.52,0.43,0.61,0.22,0.5,0.0,0.45,0.22,CYT
YCX9_YEAST,0.71,0.64,0.42,0.28,0.5,0.0,0.43,0.22,EXC
YKN4_YEAST,0.46,0.62,0.46,0.54,0.5,0.0,0.51,0.27,MIT
IPY2_YEAST,0.42,0.65,0.58,0.34,0.5,0.0,0.5,0.22,MIT
AGA2_YEAST,0.74,0.67,0.47,0.34,0.5,0.0,0.42,0.22,EXC
BEM1_YEAST,0.49,0.61,0.49,0.25,0.5,0.0,0.5,0.28,CYT
FPPS_YEAST,0.55,0.56,0.45,0.14,0.5,0.0,0.54,0.22,CYT
AFG3_YEAST,0.51,0.51,0.43,0.87,0.5,0.0,0.52,0.22,MIT
DUN1_YEAST,0.37,0.53,0.46,0.23,0.5,0.0,0.47,0.22,NUC
TF3A_YEAST,0.41,0.59,0.65,0.14,0.5,0.0,0.49,0.33,NUC
CG13_YEAST,0.43,0.57,0.53,0.53,0.5,0.0,0.53,0.25,CYT
RT04_YEAST,0.42,0.53,0.53,0.64,0.5,0.0,0.47,0.22,MIT
HXKB_YEAST,0.41,0.43,0.5,0.28,0.5,0.0,0.5,0.22,CYT
SC65_YEAST,0.41,0.4,0.56,0.17,0.5,0.0,0.56,0.22,CYT
SC17_YEAST,0.46,0.44,0.58,0.17,0.5,0.0,0.55,0.22,CYT
RS4E_YEAST,0.53,0.57,0.6,0.36,0.5,0.0,0.5,0.22,CYT
COXZ_YEAST,0.57,0.57,0.44,0.37,0.5,0.0,0.52,0.25,MIT
PUT2_YEAST,0.45,0.53,0.51,0.42,0.5,0.0,0.52,0.22,MIT
C1TM_YEAST,0.45,0.73,0.47,0.65,0.5,0.0,0.54,0.43,MIT
DPOD_YEAST,0.25,0.39,0.5,0.23,0.5,0.0,0.5,0.28,NUC
TRPD_YEAST,0.45,0.76,0.51,0.25,0.5,0.0,0.59,0.22,CYT
HS76_YEAST,0.6,0.46,0.51,0.1,0.5,0.0,0.48,0.31,CYT
YMC2_YEAST,0.38,0.47,0.47,0.18,0.5,0.0,0.44,0.26,MIT
SYAC_YEAST,0.4,0.45,0.57,0.18,0.5,0.0,0.56,0.26,CYT
RA51_YEAST,0.55,0.59,0.53,0.15,0.5,0.0,0.49,0.22,NUC
SYQ_YEAST,0.49,0.42,0.54,0.17,0.5,0.0,0.5,0.36,CYT
SCO1_YEAST,0.52,0.54,0.47,0.49,0.5,0.0,0.54,0.22,MIT
6P2K_YEAST,0.45,0.41,0.49,0.14,1.0,0.0,0.53,0.3,CYT
PRCI_YEAST,0.56,0.42,0.52,0.14,0.5,0.0,0.51,0.22,CYT
FKBP_YEAST,0.35,0.36,0.57,0.17,0.5,0.0,0.52,0.22,CYT
YCZ6_YEAST,0.58,0.44,0.45,0.32,0.5,0.0,0.52,0.37,NUC
PUB1_YEAST,0.48,0.5,0.56,0.11,0.5,0.0,0.33,0.22,CYT
YM38_YEAST,0.39,0.28,0.54,0.14,0.5,0.0,0.59,0.22,MIT
KIN1_YEAST,0.48,0.43,0.45,0.17,0.5,0.0,0.48,0.37,ME3
FLO1_YEAST,0.81,0.82,0.41,0.36,0.5,0.0,0.39,0.22,EXC
RPC1_YEAST,0.56,0.61,0.52,0.19,0.5,0.0,0.52,0.32,NUC
YIG3_YEAST,0.34,0.24,0.51,0.15,0.5,0.0,0.54,0.4,NUC
SNF6_YEAST,0.55,0.4,0.62,0.22,0.5,0.0,0.37,0.28,NUC
YKY8_YEAST,0.25,0.4,0.52,0.15,0.5,0.0,0.56,0.28,NUC
SC11_YEAST,0.85,0.66,0.49,0.18,0.5,0.0,0.51,0.22,ME1
RLA2_YEAST,0.69,0.54,0.55,0.23,0.5,0.0,0.73,0.22,CYT
GCN4_YEAST,0.56,0.54,0.59,0.14,0.5,0.0,0.52,0.27,NUC
SYTC_YEAST,0.31,0.31,0.57,0.15,0.5,0.0,0.5,0.22,CYT
PTR2_YEAST,0.36,0.33,0.38,0.15,0.5,0.0,0.55,0.36,ME3
RT08_YEAST,0.45,0.38,0.64,0.14,0.5,0.0,0.54,0.22,MIT
RLA3_YEAST,0.73,0.6,0.47,0.2,0.5,0.0,0.72,0.22,CYT
ACEA_YEAST,0.52,0.5,0.53,0.1,0.5,0.0,0.48,0.22,POX
GALX_YEAST,0.62,0.58,0.52,0.15,0.5,0.0,0.52,0.29,CYT
RCA1_YEAST,0.41,0.41,0.43,0.61,0.5,0.0,0.53,0.22,MIT
SIR3_YEAST,0.47,0.5,0.47,0.22,0.5,0.0,0.53,0.45,NUC
LYS2_YEAST,0.46,0.47,0.46,0.16,0.5,0.0,0.51,0.22,CYT
RS41_YEAST,0.32,0.44,0.54,0.21,0.5,0.0,0.4,0.19,CYT
ABC1_YEAST,0.5,0.54,0.48,0.65,0.5,0.0,0.53,0.22,MIT
YJ43_YEAST,0.4,0.51,0.42,0.13,0.5,0.0,0.45,0.25,ME3
KEX2_YEAST,0.7,0.73,0.38,0.36,0.5,0.0,0.54,0.22,ME1
RL6_YEAST,0.54,0.44,0.55,0.48,0.5,0.0,0.47,0.22,CYT
ARGI_YEAST,0.65,0.65,0.52,0.16,0.5,0.0,0.6,0.22,CYT
CG11_YEAST,0.49,0.43,0.51,0.13,0.5,0.0,0.47,0.22,CYT
YJ51_YEAST,0.81,0.76,0.32,0.37,0.5,0.0,0.51,0.22,ME2
SWI5_YEAST,0.41,0.39,0.61,0.17,0.5,0.0,0.5,0.61,NUC
CC40_YEAST,0.28,0.37,0.61,0.09,0.5,0.0,0.52,0.55,NUC
YK44_YEAST,0.58,0.56,0.38,0.39,0.5,0.0,0.54,0.57,NUC
RM37_YEAST,0.56,0.5,0.61,0.49,0.5,0.0,0.46,0.28,MIT
UBC1_YEAST,0.56,0.46,0.51,0.25,0.5,0.0,0.54,0.22,CYT
ACT2_YEAST,0.47,0.39,0.5,0.11,0.5,0.0,0.49,0.4,CYT
STL1_YEAST,0.36,0.5,0.39,0.23,0.5,0.0,0.5,0.22,ME3
YIR3_YEAST,0.85,0.85,0.3,0.31,0.5,0.0,0.55,0.42,ME1
CBPY_YEAST,0.69,0.7,0.5,0.3,0.5,0.0,0.54,0.22,VAC
PIR1_YEAST,0.77,0.78,0.51,0.28,0.5,0.0,0.33,0.22,EXC
CBS1_YEAST,0.55,0.53,0.55,0.46,0.5,0.0,0.52,0.22,MIT
MS16_YEAST,0.61,0.59,0.47,0.49,0.5,0.0,0.54,0.22,MIT
SYG1_YEAST,0.31,0.51,0.38,0.18,0.5,0.0,0.46,0.31,ME3
ENO2_YEAST,0.45,0.56,0.53,0.32,0.5,0.0,0.57,0.22,CYT
MCE1_YEAST,0.49,0.47,0.53,0.16,0.5,0.0,0.48,0.27,NUC
STE6_YEAST,0.46,0.61,0.38,0.35,0.5,0.0,0.49,0.22,ME3
UME6_YEAST,0.6,0.57,0.63,0.22,0.5,0.0,0.5,0.49,NUC
RPB7_YEAST,0.52,0.46,0.56,0.25,0.5,0.0,0.52,0.22,NUC
PR08_YEAST,0.4,0.28,0.48,0.06,0.5,0.0,0.49,0.42,NUC
YB72_YEAST,0.57,0.52,0.46,0.2,0.5,0.83,0.52,0.41,POX
TBB_YEAST,0.53,0.42,0.53,0.19,0.5,0.0,0.47,0.22,CYT
GLGB_YEAST,0.49,0.43,0.48,0.15,0.5,0.0,0.55,0.25,CYT
SOK1_YEAST,0.46,0.41,0.45,0.23,0.5,0.0,0.48,0.22,NUC
TRM1_YEAST,0.53,0.45,0.52,0.29,0.5,0.0,0.55,0.38,MIT
RAS2_YEAST,0.66,0.55,0.54,0.18,0.5,0.0,0.43,0.22,CYT
HEM3_YEAST,0.46,0.45,0.56,0.16,0.5,0.0,0.56,0.22,CYT
IF4A_YEAST,0.38,0.42,0.5,0.19,0.5,0.0,0.44,0.22,CYT
DMC1_YEAST,0.43,0.39,0.54,0.14,0.5,0.0,0.47,0.22,NUC
JNM1_YEAST,0.42,0.25,0.6,0.14,0.5,0.0,0.45,0.22,CYT
IF4E_YEAST,0.39,0.47,0.56,0.16,0.5,0.0,0.47,0.22,CYT
YB32_YEAST,0.4,0.44,0.47,0.25,0.5,0.0,0.54,0.56,NUC
PMM_YEAST,0.54,0.51,0.56,0.15,0.5,0.0,0.54,0.31,CYT
INO2_YEAST,0.56,0.45,0.59,0.14,0.5,0.0,0.51,0.26,NUC
R16B_YEAST,0.36,0.56,0.52,0.18,0.5,0.0,0.45,0.16,CYT
ENO1_YEAST,0.45,0.56,0.54,0.32,0.5,0.0,0.57,0.22,CYT
COX2_YEAST,0.59,0.61,0.34,0.22,0.5,0.0,0.51,0.22,MIT
CBP3_YEAST,0.47,0.47,0.57,0.48,0.5,0.0,0.48,0.22,MIT
HEMZ_YEAST,0.47,0.45,0.53,0.62,0.5,0.0,0.46,0.22,MIT
G6PD_YEAST,0.65,0.54,0.54,0.13,0.5,0.0,0.53,0.22,CYT
MDM1_YEAST,0.49,0.44,0.45,0.22,0.5,0.0,0.51,0.22,CYT
LIP5_YEAST,0.68,0.5,0.55,0.65,0.5,0.0,0.46,0.31,MIT
IME1_YEAST,0.54,0.45,0.62,0.13,0.5,0.0,0.52,0.26,NUC
POP2_YEAST,0.5,0.45,0.53,0.21,0.5,0.0,0.28,0.22,NUC
AGAL_YEAST,0.68,0.68,0.49,0.15,0.5,0.0,0.53,0.22,EXC
CBPS_YEAST,0.7,0.65,0.54,0.28,0.5,0.0,0.6,0.4,VAC
CYP1_YEAST,0.6,0.48,0.44,0.52,0.5,0.0,0.54,0.63,NUC
MSN2_YEAST,0.53,0.4,0.57,0.12,0.5,0.0,0.53,0.32,NUC
VATA_YEAST,0.36,0.51,0.51,0.17,0.5,0.0,0.52,0.22,VAC
RA23_YEAST,0.43,0.48,0.53,0.18,0.5,0.0,0.46,0.22,NUC
YJ49_YEAST,0.7,0.73,0.37,0.37,0.5,0.0,0.48,0.31,ME1
RA16_YEAST,0.33,0.28,0.5,0.4,0.5,0.0,0.46,0.61,NUC
MNN9_YEAST,0.74,0.56,0.35,0.36,0.5,0.0,0.51,0.25,ME2
EF2_YEAST,0.52,0.54,0.5,0.21,0.5,0.0,0.48,0.3,CYT
KCC2_YEAST,0.32,0.57,0.5,0.15,0.5,0.0,0.53,0.22,CYT
PRCE_YEAST,0.46,0.62,0.54,0.25,0.5,0.0,0.46,0.22,CYT
YJ12_YEAST,0.5,0.46,0.42,0.32,0.5,0.0,0.56,0.55,ME3
MYS1_YEAST,0.58,0.38,0.4,0.21,0.5,0.0,0.5,0.22,CYT
YB52_YEAST,0.58,0.5,0.5,0.12,0.5,0.0,0.48,0.25,NUC
SKN7_YEAST,0.46,0.56,0.56,0.25,0.5,0.0,0.43,0.22,NUC
MDHC_YEAST,0.62,0.6,0.47,0.16,0.5,0.0,0.53,0.22,CYT
PGM2_YEAST,0.28,0.36,0.55,0.15,0.5,0.0,0.57,0.22,CYT
SYMM_YEAST,0.51,0.48,0.51,0.43,0.5,0.0,0.49,0.22,MIT
SMC2_YEAST,0.4,0.75,0.44,0.12,0.5,0.0,0.49,0.22,NUC
CYB2_YEAST,0.53,0.44,0.51,0.33,0.5,0.0,0.52,0.22,MIT
RPBY_YEAST,0.48,0.45,0.63,0.19,0.5,0.0,0.58,0.22,NUC
CATA_YEAST,0.37,0.53,0.6,0.19,0.5,0.5,0.42,0.22,POX
ATPO_YEAST,0.51,0.54,0.6,0.57,0.5,0.0,0.58,0.22,MIT
NUC1_YEAST,0.75,0.67,0.51,0.29,0.5,0.0,0.52,0.36,MIT
SIS2_YEAST,0.37,0.47,0.49,0.12,0.5,0.0,0.47,0.31,NUC
DBR1_YEAST,0.55,0.54,0.56,0.22,0.5,0.0,0.5,0.37,NUC
YAG3_YEAST,0.88,0.75,0.41,0.36,0.5,0.0,0.43,0.22,ME2
CYAA_YEAST,0.2,0.26,0.52,0.14,0.5,0.0,0.53,0.44,CYT
MS51_YEAST,0.55,0.53,0.54,0.4,0.5,0.0,0.48,0.22,MIT
SUV3_YEAST,0.61,0.54,0.54,0.38,0.5,0.0,0.54,0.29,MIT
TRP_YEAST,0.48,0.44,0.51,0.24,0.5,0.0,0.49,0.22,CYT
UCR1_YEAST,0.58,0.58,0.58,0.49,0.5,0.0,0.49,0.26,MIT
LEU2_YEAST,0.51,0.43,0.47,0.19,0.5,0.0,0.52,0.37,CYT
PPAB_YEAST,0.74,0.72,0.5,0.28,0.5,0.0,0.5,0.27,EXC
ADH4_YEAST,0.59,0.45,0.53,0.19,0.5,0.0,0.59,0.27,CYT
RL19_YEAST,0.72,0.37,0.63,0.38,0.5,0.0,0.4,0.14,CYT
DA81_YEAST,0.39,0.28,0.46,0.12,0.5,0.0,0.41,0.22,NUC
VM11_YEAST,0.68,0.68,0.35,0.16,0.5,0.0,0.62,0.22,VAC
SC13_YEAST,0.49,0.38,0.56,0.09,0.5,0.0,0.46,0.22,CYT
VP34_YEAST,0.57,0.47,0.48,0.17,0.5,0.0,0.52,0.26,VAC
YAF1_YEAST,0.45,0.51,0.43,0.22,0.5,0.0,0.57,0.22,NUC
RL17_YEAST,0.37,0.44,0.64,0.48,0.5,0.0,0.36,0.27,CYT
YK42_YEAST,0.58,0.51,0.63,0.2,0.5,0.0,0.5,0.42,NUC
INV4_YEAST,0.75,0.76,0.58,0.22,0.5,0.0,0.49,0.22,EXC
MT17_YEAST,0.34,0.54,0.54,0.13,0.5,0.0,0.52,0.22,CYT
HR25_YEAST,0.43,0.39,0.51,0.28,0.5,0.0,0.4,0.22,NUC
COQ3_YEAST,0.52,0.56,0.54,0.53,0.5,0.0,0.45,0.22,MIT
CHS2_YEAST,0.39,0.42,0.38,0.4,0.5,0.0,0.49,0.47,ME3
EPT1_YEAST,0.29,0.43,0.4,0.15,0.5,0.0,0.53,0.22,ME3
SC15_YEAST,0.55,0.55,0.52,0.13,0.5,0.0,0.53,0.25,CYT
PUR3_YEAST,0.73,0.63,0.42,0.3,0.5,0.0,0.49,0.22,CYT
CACM_YEAST,0.45,0.39,0.46,0.29,0.5,0.0,0.42,0.22,MIT
IF4A_YEAST,0.38,0.42,0.5,0.19,0.5,0.0,0.44,0.22,CYT
RGM1_YEAST,0.42,0.21,0.59,0.3,0.5,0.0,0.47,0.27,NUC
RER1_YEAST,0.45,0.66,0.39,0.11,0.5,0.0,0.54,0.22,ME3
RA55_YEAST,0.64,0.5,0.53,0.1,0.5,0.0,0.51,0.22,NUC
CC4_YEAST,0.43,0.57,0.53,0.16,0.5,0.0,0.54,0.22,CYT
PMS1_YEAST,0.38,0.48,0.51,0.13,0.5,0.0,0.5,0.32,NUC
LCB2_YEAST,0.36,0.34,0.46,0.19,0.5,0.0,0.52,0.22,ME2
SLY1_YEAST,0.64,0.31,0.53,0.15,0.5,0.0,0.53,0.31,CYT
RSD1_YEAST,0.57,0.5,0.4,0.08,0.5,0.0,0.47,0.22,ME3
FRE1_YEAST,0.91,0.77,0.34,0.47,0.5,0.0,0.52,0.31,ME1
GLRX_YEAST,0.52,0.5,0.6,0.2,0.5,0.0,0.52,0.22,CYT
MYS4_YEAST,0.43,0.4,0.5,0.18,0.5,0.0,0.5,0.28,CYT
NU49_YEAST,0.69,0.62,0.49,0.0,1.0,0.0,0.47,0.22,NUC
FAD1_YEAST,0.43,0.51,0.48,0.14,0.5,0.0,0.5,0.22,CYT
KPYK_YEAST,0.61,0.55,0.51,0.26,0.5,0.0,0.52,0.22,CYT
YBT6_YEAST,0.54,0.44,0.38,0.22,0.5,0.0,0.54,0.3,ME3
COFI_YEAST,0.44,0.42,0.6,0.21,0.5,0.0,0.57,0.22,CYT
KTR3_YEAST,0.58,0.76,0.4,0.37,0.5,0.0,0.54,0.3,ME2
NOT3_YEAST,0.45,0.21,0.49,0.24,0.5,0.0,0.46,0.31,NUC
FUMH_YEAST,0.41,0.39,0.51,0.52,0.5,0.0,0.49,0.22,CYT
ATPT_YEAST,0.63,0.53,0.54,0.4,0.5,0.0,0.5,0.22,MIT
ATU1_YEAST,0.54,0.55,0.34,0.31,0.5,0.0,0.54,0.22,ME3
CYS3_YEAST,0.51,0.53,0.55,0.14,0.5,0.0,0.51,0.22,CYT
DED1_YEAST,0.36,0.24,0.49,0.16,0.5,0.0,0.51,0.22,NUC
YP51_YEAST,0.63,0.56,0.52,0.21,0.5,0.0,0.5,0.22,CYT
MYS2_YEAST,0.53,0.41,0.5,0.24,1.0,0.0,0.47,0.22,CYT
SC20_YEAST,0.46,0.47,0.44,0.18,1.0,0.0,0.46,0.22,ME2
YAE2_YEAST,0.39,0.63,0.41,0.27,0.5,0.0,0.49,0.22,ME3
ODPB_YEAST,0.49,0.52,0.53,0.7,0.5,0.0,0.51,0.22,MIT
DHE4_YEAST,0.38,0.47,0.53,0.12,0.5,0.0,0.48,0.22,CYT
YB37_YEAST,0.8,0.82,0.4,0.31,0.5,0.0,0.57,0.25,ME1
FKB3_YEAST,0.54,0.57,0.52,0.19,0.5,0.0,0.59,0.67,NUC
RA14_YEAST,0.39,0.16,0.59,0.08,0.5,0.0,0.51,0.27,NUC
PGM1_YEAST,0.43,0.45,0.53,0.19,0.5,0.0,0.56,0.22,CYT
RM08_YEAST,0.55,0.5,0.6,0.31,0.5,0.0,0.46,0.27,MIT
KRE1_YEAST,0.84,0.87,0.45,0.54,0.5,0.0,0.28,0.22,ME1
ATP8_YEAST,0.67,0.62,0.4,0.43,0.5,0.83,0.5,0.22,MIT
MSN1_YEAST,0.52,0.38,0.62,0.12,0.5,0.0,0.41,0.28,NUC
MAT2_YEAST,0.51,0.48,0.58,0.22,0.5,0.0,0.5,0.28,NUC
R16A_YEAST,0.44,0.56,0.52,0.18,0.5,0.0,0.5,0.11,CYT
CIK1_YEAST,0.31,0.44,0.53,0.23,0.5,0.0,0.51,0.32,NUC
SNM1_YEAST,0.37,0.44,0.51,0.56,0.5,0.0,0.5,0.38,NUC
ADB1_YEAST,0.47,0.41,0.46,0.18,0.5,0.0,0.53,0.22,ME3
R14B_YEAST,0.57,0.43,0.52,0.3,0.5,0.0,0.37,0.11,CYT
YKA8_YEAST,0.3,0.37,0.4,0.45,0.5,0.0,0.48,0.41,ME3
SP14_YEAST,0.52,0.45,0.45,0.13,0.5,0.0,0.48,0.22,NUC
YKS8_YEAST,0.74,0.75,0.45,0.44,0.5,0.0,0.52,0.22,POX
RNA1_YEAST,0.45,0.52,0.5,0.12,0.5,0.0,0.6,0.22,CYT
SPT6_YEAST,0.23,0.13,0.51,0.16,0.5,0.0,0.53,0.51,NUC
DHA1_YEAST,0.59,0.53,0.43,0.44,0.5,0.0,0.5,0.22,MIT
HXKA_YEAST,0.41,0.3,0.49,0.28,0.5,0.0,0.54,0.22,CYT
CEM1_YEAST,0.71,0.59,0.48,0.43,0.5,0.0,0.59,0.22,MIT
FUR4_YEAST,0.35,0.56,0.36,0.3,0.5,0.0,0.53,0.25,ME3
IDH1_YEAST,0.53,0.56,0.49,0.46,0.5,0.0,0.52,0.22,MIT
MPP1_YEAST,0.47,0.54,0.54,0.48,0.5,0.0,0.53,0.26,MIT
SON1_YEAST,0.4,0.39,0.6,0.23,0.5,0.0,0.52,0.31,NUC
RS24_YEAST,0.61,0.38,0.57,0.36,0.5,0.0,0.44,0.21,CYT
CARB_YEAST,0.35,0.66,0.49,0.21,0.5,0.0,0.54,0.25,CYT
DPOX_YEAST,0.32,0.49,0.53,0.28,0.5,0.0,0.5,0.5,NUC
RLA1_YEAST,0.66,0.6,0.52,0.19,0.5,0.0,0.69,0.22,CYT
YCR3_YEAST,0.69,0.57,0.39,0.19,0.5,0.0,0.48,0.39,ME2
PE12_YEAST,0.28,0.46,0.26,0.18,0.5,0.0,0.39,0.22,VAC
YCQ0_YEAST,0.35,0.32,0.31,0.16,0.5,0.0,0.56,0.22,ME3
RL41_YEAST,0.35,0.21,1.0,0.8,0.5,0.0,0.13,0.01,CYT
HAP2_YEAST,0.47,0.49,0.63,0.17,0.5,0.0,0.31,0.26,NUC
PTP1_YEAST,0.53,0.45,0.53,0.18,0.5,0.0,0.42,0.22,CYT
CAO_YEAST,0.46,0.37,0.48,0.36,0.5,0.0,0.48,0.22,POX
GAP1_YEAST,0.49,0.46,0.34,0.21,0.5,0.0,0.55,0.22,ME3
RA26_YEAST,0.47,0.43,0.48,0.16,0.5,0.0,0.46,0.27,NUC
PR38_YEAST,0.52,0.37,0.48,0.13,0.5,0.0,0.55,0.22,NUC
PHR_YEAST,0.5,0.42,0.57,0.49,0.5,0.0,0.48,0.27,NUC
HS60_YEAST,0.45,0.56,0.51,0.64,0.5,0.0,0.54,0.22,MIT
GLYC_YEAST,0.53,0.49,0.47,0.21,0.5,0.0,0.53,0.22,CYT
ILVB_YEAST,0.45,0.59,0.53,0.74,0.5,0.0,0.47,0.25,MIT
PABP_YEAST,0.28,0.48,0.56,0.16,0.5,0.0,0.48,0.26,CYT
RL1A_YEAST,0.61,0.48,0.56,0.19,0.5,0.0,0.53,0.31,CYT
NMD2_YEAST,0.36,0.3,0.5,0.19,0.5,0.0,0.55,0.3,NUC
SYDC_YEAST,0.46,0.35,0.53,0.16,0.5,0.0,0.51,0.29,CYT
RHO2_YEAST,0.64,0.44,0.51,0.35,0.5,0.0,0.53,0.22,CYT
BAR1_YEAST,0.8,0.63,0.45,0.29,0.5,0.0,0.51,0.22,EXC
SNC1_YEAST,0.27,0.41,0.24,0.2,0.5,0.0,0.49,0.22,ME3
PMP1_YEAST,0.95,0.71,0.27,0.39,0.5,0.0,0.31,0.22,ME2
NUF1_YEAST,0.51,0.34,0.49,0.16,0.5,0.0,0.53,0.21,NUC
MFA3_YEAST,0.8,0.81,0.55,0.35,0.5,0.0,0.42,0.22,EXC
RPA1_YEAST,0.56,0.49,0.54,0.15,0.5,0.0,0.5,0.35,NUC
GFA1_YEAST,0.52,0.51,0.51,0.12,0.5,0.0,0.51,0.4,CYT
ACT_YEAST,0.46,0.44,0.52,0.11,0.5,0.0,0.5,0.22,CYT
RAS1_YEAST,0.61,0.46,0.54,0.11,0.5,0.0,0.47,0.22,CYT
CC42_YEAST,0.59,0.48,0.5,0.14,0.5,0.0,0.45,0.25,CYT
TAL1_YEAST,0.63,0.64,0.49,0.2,0.5,0.0,0.52,0.25,CYT
ERS1_YEAST,0.73,0.55,0.41,0.16,0.5,0.0,0.46,0.22,ME2
NSP1_YEAST,0.87,0.47,0.6,0.47,0.5,0.0,0.59,0.22,NUC
RL3A_YEAST,0.43,0.33,0.67,0.12,0.5,0.0,0.45,0.23,CYT
DRS1_YEAST,0.46,0.43,0.49,0.79,0.5,0.0,0.49,0.63,NUC
KTR2_YEAST,0.76,0.74,0.56,0.34,0.5,0.0,0.51,0.3,ME2
CHI1_YEAST,0.82,0.78,0.49,0.23,0.5,0.0,0.46,0.22,EXC
IDH2_YEAST,0.45,0.54,0.54,0.62,0.5,0.0,0.53,0.22,MIT
IRA1_YEAST,0.47,0.59,0.43,0.13,0.5,0.0,0.56,0.3,ME3
SYSC_YEAST,0.3,0.33,0.55,0.12,0.5,0.0,0.53,0.38,CYT
TF3B_YEAST,0.49,0.51,0.52,0.13,0.5,0.0,0.51,0.33,NUC
SST2_YEAST,0.46,0.41,0.43,0.18,0.5,0.0,0.54,0.22,ME3
BUD5_YEAST,0.47,0.52,0.5,0.4,0.5,0.0,0.41,0.22,CYT
RL3_YEAST,0.48,0.44,0.46,0.37,0.5,0.0,0.46,0.36,CYT
RL1_YEAST,0.35,0.33,0.48,0.42,0.5,0.0,0.47,0.43,CYT
EXG1_YEAST,0.77,0.87,0.47,0.37,0.5,0.0,0.48,0.22,EXC
YHE0_YEAST,0.39,0.33,0.33,0.23,0.5,0.0,0.47,0.22,ME3
SYR_YEAST,0.46,0.44,0.53,0.31,0.5,0.0,0.48,0.22,MIT
IDHP_YEAST,0.51,0.52,0.48,0.5,0.5,0.0,0.51,0.22,MIT
NIN1_YEAST,0.47,0.5,0.55,0.19,0.5,0.0,0.62,0.22,CYT
IF52_YEAST,0.44,0.54,0.51,0.16,0.5,0.0,0.58,0.22,CYT
COX9_YEAST,0.67,0.68,0.46,0.29,0.5,0.0,0.46,0.22,MIT
AMPL_YEAST,0.42,0.32,0.48,0.16,0.5,0.0,0.55,0.22,VAC
RIM2_YEAST,0.45,0.43,0.5,0.25,0.5,0.0,0.47,0.22,MIT
CYPH_YEAST,0.52,0.4,0.6,0.12,0.5,0.0,0.55,0.22,CYT
GSP2_YEAST,0.58,0.48,0.56,0.12,0.5,0.0,0.46,0.25,NUC
TSM1_YEAST,0.5,0.5,0.48,0.34,0.5,0.0,0.52,0.27,NUC
TRPG_YEAST,0.57,0.36,0.51,0.25,0.5,0.0,0.54,0.25,CYT
HOP1_YEAST,0.29,0.68,0.47,0.26,0.5,0.0,0.47,0.37,NUC
YB00_YEAST,0.25,0.41,0.47,0.14,0.5,0.0,0.56,0.68,NUC
PAS3_YEAST,0.68,0.59,0.44,0.49,0.5,0.0,0.4,0.26,POX
R29B_YEAST,0.38,0.4,0.66,0.35,0.5,0.0,0.43,0.11,CYT
NAP1_YEAST,0.36,0.39,0.55,0.26,0.5,0.0,0.49,0.22,NUC
TCPG_YEAST,0.59,0.51,0.47,0.21,0.5,0.0,0.47,0.22,CYT
MAT1_YEAST,0.37,0.22,0.64,0.35,0.5,0.0,0.47,0.22,NUC
SSO2_YEAST,0.25,0.42,0.21,0.14,0.5,0.0,0.41,0.22,ME3
KAR1_YEAST,0.23,0.34,0.41,0.28,0.5,0.0,0.5,0.27,NUC
MIG1_YEAST,0.43,0.39,0.59,0.13,0.5,0.0,0.41,0.43,NUC
BOS1_YEAST,0.36,0.58,0.35,0.24,0.5,0.0,0.44,0.22,ME3
KAR3_YEAST,0.34,0.31,0.6,0.37,0.5,0.0,0.5,0.3,NUC
PLSC_YEAST,0.8,0.69,0.53,0.33,0.5,0.0,0.51,0.22,ME2
YAB1_YEAST,0.51,0.39,0.56,0.55,0.5,0.0,0.46,0.64,MIT
CYPC_YEAST,0.47,0.46,0.59,0.49,0.5,0.0,0.56,0.22,MIT
MOD5_YEAST,0.67,0.51,0.54,0.21,0.5,0.0,0.43,0.3,MIT
ACT5_YEAST,0.5,0.34,0.55,0.21,0.5,0.0,0.49,0.22,NUC
TRPF_YEAST,0.62,0.6,0.54,0.22,0.5,0.0,0.54,0.27,CYT
P2B2_YEAST,0.59,0.5,0.52,0.28,0.5,0.0,0.55,0.25,CYT
DYHC_YEAST,0.6,0.56,0.47,0.2,0.5,0.0,0.5,0.38,NUC
